%!PS-Adobe-3.0 EPSF-3.0
%%Creator: Mathematica
%%LanguageLevel: 2
%%DocumentSuppliedResources: (atend)
%%BoundingBox: 0 0 240 149
%%HiResBoundingBox: 0 0 240 148.328
%%DocumentSuppliedResources: (atend)
%%EndComments
%%BeginProlog
%%BeginResource: procset xpdf 3.00 0
%%Copyright: Copyright 1996-2004 Glyph & Cog, LLC
/xpdf 75 dict def xpdf begin
% PDF special state
/pdfDictSize 15 def
/pdfSetup {
  3 1 roll 2 array astore
  /setpagedevice where {
    pop 3 dict begin
      /PageSize exch def
      /ImagingBBox null def
      { /Duplex true def } if
    currentdict end setpagedevice
  } {
    pop pop
  } ifelse
} def
/pdfStartPage {
  pdfDictSize dict begin
  /pdfFillCS [] def
  /pdfFillXform {} def
  /pdfStrokeCS [] def
  /pdfStrokeXform {} def
  /pdfFill [0] def
  /pdfStroke [0] def
  /pdfFillOP false def
  /pdfStrokeOP false def
  /pdfLastFill false def
  /pdfLastStroke false def
  /pdfTextMat [1 0 0 1 0 0] def
  /pdfFontSize 0 def
  /pdfCharSpacing 0 def
  /pdfTextRender 0 def
  /pdfTextRise 0 def
  /pdfWordSpacing 0 def
  /pdfHorizScaling 1 def
  /pdfTextClipPath [] def
} def
/pdfEndPage { end } def
% PDF color state
/cs { /pdfFillXform exch def dup /pdfFillCS exch def
      setcolorspace } def
/CS { /pdfStrokeXform exch def dup /pdfStrokeCS exch def
      setcolorspace } def
/sc { pdfLastFill not { pdfFillCS setcolorspace } if
      dup /pdfFill exch def aload pop pdfFillXform setcolor
     /pdfLastFill true def /pdfLastStroke false def } def
/SC { pdfLastStroke not { pdfStrokeCS setcolorspace } if
      dup /pdfStroke exch def aload pop pdfStrokeXform setcolor
     /pdfLastStroke true def /pdfLastFill false def } def
/op { /pdfFillOP exch def
      pdfLastFill { pdfFillOP setoverprint } if } def
/OP { /pdfStrokeOP exch def
      pdfLastStroke { pdfStrokeOP setoverprint } if } def
/fCol {
  pdfLastFill not {
    pdfFillCS setcolorspace
    pdfFill aload pop pdfFillXform setcolor
    pdfFillOP setoverprint
    /pdfLastFill true def /pdfLastStroke false def
  } if
} def
/sCol {
  pdfLastStroke not {
    pdfStrokeCS setcolorspace
    pdfStroke aload pop pdfStrokeXform setcolor
    pdfStrokeOP setoverprint
    /pdfLastStroke true def /pdfLastFill false def
  } if
} def
% build a font
/pdfMakeFont {
  4 3 roll findfont
  4 2 roll matrix scale makefont
  dup length dict begin
    { 1 index /FID ne { def } { pop pop } ifelse } forall
    /Encoding exch def
    currentdict
  end
  definefont pop
} def
/pdfMakeFont16 {
  exch findfont
  dup length dict begin
    { 1 index /FID ne { def } { pop pop } ifelse } forall
    /WMode exch def
    currentdict
  end
  definefont pop
} def
% graphics state operators
/q { gsave pdfDictSize dict begin } def
/Q {
  end grestore
  /pdfLastFill where {
    pop
    pdfLastFill {
      pdfFillOP setoverprint
    } {
      pdfStrokeOP setoverprint
    } ifelse
  } if
} def
/cm { concat } def
/d { setdash } def
/i { setflat } def
/j { setlinejoin } def
/J { setlinecap } def
/M { setmiterlimit } def
/w { setlinewidth } def
% path segment operators
/m { moveto } def
/l { lineto } def
/c { curveto } def
/re { 4 2 roll moveto 1 index 0 rlineto 0 exch rlineto
      neg 0 rlineto closepath } def
/h { closepath } def
% path painting operators
/S { sCol stroke } def
/Sf { fCol stroke } def
/f { fCol fill } def
/f* { fCol eofill } def
% clipping operators
/W { clip newpath } def
/W* { eoclip newpath } def
/Ws { strokepath clip newpath } def
% text state operators
/Tc { /pdfCharSpacing exch def } def
/Tf { dup /pdfFontSize exch def
      dup pdfHorizScaling mul exch matrix scale
      pdfTextMat matrix concatmatrix dup 4 0 put dup 5 0 put
      exch findfont exch makefont setfont } def
/Tr { /pdfTextRender exch def } def
/Ts { /pdfTextRise exch def } def
/Tw { /pdfWordSpacing exch def } def
/Tz { /pdfHorizScaling exch def } def
% text positioning operators
/Td { pdfTextMat transform moveto } def
/Tm { /pdfTextMat exch def } def
% text string operators
/cshow where {
  pop
  /cshow2 {
    dup {
      pop pop
      1 string dup 0 3 index put 3 index exec
    } exch cshow
    pop pop
  } def
}{
  /cshow2 {
    currentfont /FontType get 0 eq {
      0 2 2 index length 1 sub {
        2 copy get exch 1 add 2 index exch get
        2 copy exch 256 mul add
        2 string dup 0 6 5 roll put dup 1 5 4 roll put
        3 index exec
      } for
    } {
      dup {
        1 string dup 0 3 index put 3 index exec
      } forall
    } ifelse
    pop pop
  } def
} ifelse
/awcp {
  exch {
    false charpath
    5 index 5 index rmoveto
    6 index eq { 7 index 7 index rmoveto } if
  } exch cshow2
  6 {pop} repeat
} def
/Tj {
  fCol
  1 index stringwidth pdfTextMat idtransform pop
  sub 1 index length dup 0 ne { div } { pop pop 0 } ifelse
  pdfWordSpacing pdfHorizScaling mul 0 pdfTextMat dtransform 32
  4 3 roll pdfCharSpacing pdfHorizScaling mul add 0
  pdfTextMat dtransform
  6 5 roll Tj1
} def
/Tj16 {
  fCol
  2 index stringwidth pdfTextMat idtransform pop
  sub exch div
  pdfWordSpacing pdfHorizScaling mul 0 pdfTextMat dtransform 32
  4 3 roll pdfCharSpacing pdfHorizScaling mul add 0
  pdfTextMat dtransform
  6 5 roll Tj1
} def
/Tj16V {
  fCol
  2 index stringwidth pdfTextMat idtransform exch pop
  sub exch div
  0 pdfWordSpacing pdfTextMat dtransform 32
  4 3 roll pdfCharSpacing add 0 exch
  pdfTextMat dtransform
  6 5 roll Tj1
} def
/Tj1 {
  0 pdfTextRise pdfTextMat dtransform rmoveto
  currentpoint 8 2 roll
  pdfTextRender 1 and 0 eq {
    6 copy awidthshow
  } if
  pdfTextRender 3 and dup 1 eq exch 2 eq or {
    7 index 7 index moveto
    6 copy
    currentfont /FontType get 3 eq { fCol } { sCol } ifelse
    false awcp currentpoint stroke moveto
  } if
  pdfTextRender 4 and 0 ne {
    8 6 roll moveto
    false awcp
    /pdfTextClipPath [ pdfTextClipPath aload pop
      {/moveto cvx}
      {/lineto cvx}
      {/curveto cvx}
      {/closepath cvx}
    pathforall ] def
    currentpoint newpath moveto
  } {
    8 {pop} repeat
  } ifelse
  0 pdfTextRise neg pdfTextMat dtransform rmoveto
} def
/TJm { pdfFontSize 0.001 mul mul neg 0
       pdfTextMat dtransform rmoveto } def
/TJmV { pdfFontSize 0.001 mul mul neg 0 exch
        pdfTextMat dtransform rmoveto } def
/Tclip { pdfTextClipPath cvx exec clip newpath
         /pdfTextClipPath [] def } def
/Tclip* { pdfTextClipPath cvx exec eoclip newpath
         /pdfTextClipPath [] def } def
% Level 2 image operators
/pdfImBuf 100 string def
/pdfIm {
  image
  { currentfile pdfImBuf readline
    not { pop exit } if
    (%-EOD-) eq { exit } if } loop
} def
/pdfImM {
  fCol imagemask
  { currentfile pdfImBuf readline
    not { pop exit } if
    (%-EOD-) eq { exit } if } loop
} def
/pr { 2 index 2 index 3 2 roll putinterval 4 add } def
/pdfImClip {
  gsave
  0 2 4 index length 1 sub {
    dup 4 index exch 2 copy
    get 5 index div put
    1 add 3 index exch 2 copy
    get 3 index div put
  } for
  pop pop rectclip
} def
/pdfImClipEnd { grestore } def
% shading operators
/colordelta {
  false 0 1 3 index length 1 sub {
    dup 4 index exch get 3 index 3 2 roll get sub abs 0.004 gt {
      pop true
    } if
  } for
  exch pop exch pop
} def
/funcCol { func n array astore } def
/funcSH {
  dup 0 eq {
    true
  } {
    dup 6 eq {
      false
    } {
      4 index 4 index funcCol dup
      6 index 4 index funcCol dup
      3 1 roll colordelta 3 1 roll
      5 index 5 index funcCol dup
      3 1 roll colordelta 3 1 roll
      6 index 8 index funcCol dup
      3 1 roll colordelta 3 1 roll
      colordelta or or or
    } ifelse
  } ifelse
  {
    1 add
    4 index 3 index add 0.5 mul exch 4 index 3 index add 0.5 mul exch
    6 index 6 index 4 index 4 index 4 index funcSH
    2 index 6 index 6 index 4 index 4 index funcSH
    6 index 2 index 4 index 6 index 4 index funcSH
    5 3 roll 3 2 roll funcSH pop pop
  } {
    pop 3 index 2 index add 0.5 mul 3 index  2 index add 0.5 mul
    funcCol sc
    dup 4 index exch mat transform m
    3 index 3 index mat transform l
    1 index 3 index mat transform l
    mat transform l pop pop h f*
  } ifelse
} def
/axialCol {
  dup 0 lt {
    pop t0
  } {
    dup 1 gt {
      pop t1
    } {
      dt mul t0 add
    } ifelse
  } ifelse
  func n array astore
} def
/axialSH {
  dup 0 eq {
    true
  } {
    dup 8 eq {
      false
    } {
      2 index axialCol 2 index axialCol colordelta
    } ifelse
  } ifelse
  {
    1 add 3 1 roll 2 copy add 0.5 mul
    dup 4 3 roll exch 4 index axialSH
    exch 3 2 roll axialSH
  } {
    pop 2 copy add 0.5 mul
    axialCol sc
    exch dup dx mul x0 add exch dy mul y0 add
    3 2 roll dup dx mul x0 add exch dy mul y0 add
    dx abs dy abs ge {
      2 copy yMin sub dy mul dx div add yMin m
      yMax sub dy mul dx div add yMax l
      2 copy yMax sub dy mul dx div add yMax l
      yMin sub dy mul dx div add yMin l
      h f*
    } {
      exch 2 copy xMin sub dx mul dy div add xMin exch m
      xMax sub dx mul dy div add xMax exch l
      exch 2 copy xMax sub dx mul dy div add xMax exch l
      xMin sub dx mul dy div add xMin exch l
      h f*
    } ifelse
  } ifelse
} def
/radialCol {
  dup t0 lt {
    pop t0
  } {
    dup t1 gt {
      pop t1
    } if
  } ifelse
  func n array astore
} def
/radialSH {
  dup 0 eq {
    true
  } {
    dup 8 eq {
      false
    } {
      2 index dt mul t0 add radialCol
      2 index dt mul t0 add radialCol colordelta
    } ifelse
  } ifelse
  {
    1 add 3 1 roll 2 copy add 0.5 mul
    dup 4 3 roll exch 4 index radialSH
    exch 3 2 roll radialSH
  } {
    pop 2 copy add 0.5 mul dt mul t0 add
    radialCol sc
    encl {
      exch dup dx mul x0 add exch dup dy mul y0 add exch dr mul r0 add
      0 360 arc h
      dup dx mul x0 add exch dup dy mul y0 add exch dr mul r0 add
      360 0 arcn h f
    } {
      2 copy
      dup dx mul x0 add exch dup dy mul y0 add exch dr mul r0 add
      a1 a2 arcn
      dup dx mul x0 add exch dup dy mul y0 add exch dr mul r0 add
      a2 a1 arcn h
      dup dx mul x0 add exch dup dy mul y0 add exch dr mul r0 add
      a1 a2 arc
      dup dx mul x0 add exch dup dy mul y0 add exch dr mul r0 add
      a2 a1 arc h f
    } ifelse
  } ifelse
} def
end
%%EndResource
%%EndProlog
%%BeginSetup
xpdf begin
%%EndSetup
pdfStartPage
[] 0 d
1 i
0 j
0 J
10 M
1 w
/DeviceGray {} cs
[0] sc
/DeviceGray {} CS
[0] SC
false op
false OP
{} settransfer
q
[1 0 0 -1 0 148.328] cm
[1 0 0 1 -31.2 -3.2] cm
[1 0 0 1 0 0] cm
1 w
/DeviceRGB {} CS
[0 0 0] SC
/DeviceRGB {} cs
[0 0 0] sc
[] 0 d
2 J
0 j
10 M
31.2 3.2 m
31.2 151.528 l
271.2 151.528 l
271.2 3.2 l
W*
q
29.2 1.2 m
29.2 153.528 l
273.2 153.528 l
273.2 1.2 l
W*
q
31.2 2.528 m
31.2 151.528 l
271.2 151.528 l
271.2 2.528 l
W*
3.239 M
q
31.2 2.528 m
31.2 151.528 l
272.2 151.528 l
272.2 2.528 l
W*
Q
q
31.2 2.528 m
31.2 151.528 l
272.2 151.528 l
272.2 2.528 l
W*
Q
q
31.2 2.528 m
31.2 151.528 l
272.2 151.528 l
272.2 2.528 l
W*
/DeviceGray {} CS
[0] SC
/DeviceGray {} cs
[0] sc
0.4 w
[] 0 d
3.25 M
36 56.275 m
36.071 58.127 l
36.141 60.104 l
36.283 64.389 l
36.565 73.881 l
36.636 76.36 l
36.707 78.85 l
36.848 83.802 l
36.919 86.232 l
36.989 88.61 l
37.131 93.152 l
37.201 95.287 l
37.272 97.313 l
37.343 99.216 l
37.413 100.984 l
37.484 102.606 l
37.555 104.072 l
37.625 105.371 l
37.696 106.495 l
37.767 107.436 l
37.837 108.189 l
37.908 108.747 l
37.979 109.107 l
38.049 109.267 l
38.12 109.223 l
38.191 108.977 l
38.261 108.53 l
38.332 107.883 l
38.403 107.04 l
38.473 106.005 l
38.544 104.786 l
38.615 103.389 l
38.685 101.821 l
38.756 100.093 l
38.827 98.216 l
38.897 96.199 l
38.968 94.056 l
39.109 89.444 l
39.392 79.321 l
39.462 76.694 l
39.533 74.06 l
39.674 68.841 l
39.745 66.288 l
39.816 63.795 l
39.957 59.047 l
40.028 56.824 l
40.098 54.721 l
40.169 52.75 l
40.24 50.926 l
40.31 49.259 l
40.381 47.76 l
40.452 46.441 l
40.522 45.309 l
40.599 44.303 l
40.676 43.535 l
40.752 43.011 l
40.829 42.737 l
40.905 42.715 l
40.982 42.947 l
41.059 43.431 l
41.135 44.167 l
41.212 45.149 l
41.289 46.371 l
41.365 47.826 l
41.442 49.504 l
41.518 51.394 l
41.595 53.483 l
41.748 58.199 l
41.825 60.794 l
41.901 63.523 l
42.055 69.306 l
42.361 81.586 l
42.438 84.676 l
42.514 87.731 l
42.667 93.643 l
42.744 96.457 l
42.821 99.149 l
42.974 104.085 l
43.05 106.293 l
43.127 108.305 l
43.204 110.106 l
43.28 111.68 l
43.357 113.017 l
43.434 114.105 l
43.51 114.935 l
43.587 115.501 l
43.663 115.796 l
43.74 115.817 l
43.817 115.563 l
43.893 115.034 l
43.97 114.232 l
44.046 113.163 l
44.123 111.831 l
44.2 110.246 l
44.276 108.418 l
44.353 106.357 l
44.429 104.079 l
44.506 101.597 l
44.583 98.929 l
44.659 96.092 l
44.812 89.992 l
44.889 86.77 l
44.966 83.463 l
45.119 76.688 l
45.425 63.159 l
45.497 60.134 l
45.568 57.199 l
45.64 54.372 l
45.711 51.673 l
45.783 49.117 l
45.854 46.722 l
45.926 44.503 l
45.998 42.474 l
46.069 40.65 l
46.141 39.041 l
46.212 37.659 l
46.284 36.513 l
46.355 35.612 l
46.427 34.962 l
46.498 34.569 l
46.57 34.435 l
46.641 34.564 l
46.713 34.955 l
46.784 35.607 l
46.856 36.518 l
46.927 37.683 l
46.999 39.097 l
47.07 40.751 l
47.142 42.637 l
47.214 44.745 l
47.285 47.062 l
47.428 52.271 l
47.5 55.133 l
47.571 58.144 l
47.714 64.545 l
47.786 67.897 l
47.857 71.322 l
48 78.315 l
48.072 81.839 l
48.143 85.354 l
48.286 92.269 l
48.358 95.627 l
48.43 98.891 l
48.573 105.057 l
48.644 107.92 l
48.716 110.613 l
48.787 113.117 l
48.859 115.418 l
48.93 117.5 l
49.002 119.35 l
49.073 120.955 l
49.145 122.305 l
49.216 123.391 l
49.288 124.204 l
49.359 124.739 l
49.431 124.991 l
49.503 124.958 l
49.574 124.637 l
49.646 124.031 l
49.717 123.141 l
49.789 121.972 l
49.86 120.529 l
49.932 118.819 l
50.003 116.853 l
50.073 114.686 l
50.143 112.294 l
50.284 106.886 l
50.354 103.901 l
50.424 100.749 l
50.564 94.016 l
50.634 90.474 l
50.704 86.84 l
50.845 79.381 l
51.125 64.299 l
51.195 60.622 l
51.266 57.024 l
51.406 50.152 l
51.476 46.919 l
51.546 43.846 l
51.686 38.255 l
51.756 35.771 l
51.827 33.514 l
51.897 31.498 l
51.967 29.737 l
52.037 28.241 l
52.107 27.02 l
52.177 26.081 l
52.247 25.432 l
52.317 25.077 l
52.388 25.02 l
52.458 25.262 l
52.528 25.802 l
52.598 26.639 l
52.668 27.769 l
52.738 29.186 l
52.808 30.885 l
52.878 32.855 l
52.949 35.087 l
53.019 37.57 l
53.089 40.289 l
53.159 43.23 l
53.229 46.377 l
53.369 53.221 l
53.439 56.879 l
53.51 60.668 l
53.65 68.553 l
53.93 84.925 l
54 89.008 l
54.071 93.041 l
54.211 100.861 l
54.281 104.604 l
54.351 108.206 l
54.491 114.905 l
54.567 118.211 l
54.644 121.259 l
54.72 124.025 l
54.796 126.491 l
54.872 128.638 l
54.948 130.452 l
55.024 131.92 l
55.1 133.029 l
55.176 133.771 l
55.252 134.14 l
55.328 134.132 l
55.404 133.747 l
55.48 132.984 l
55.556 131.847 l
55.632 130.344 l
55.708 128.483 l
55.785 126.274 l
55.861 123.732 l
55.937 120.872 l
56.013 117.712 l
56.089 114.272 l
56.165 110.575 l
56.317 102.502 l
56.393 98.18 l
56.469 93.704 l
56.621 84.408 l
56.926 65.312 l
57.002 60.617 l
57.078 56.018 l
57.23 47.226 l
57.306 43.093 l
57.382 39.174 l
57.458 35.495 l
57.534 32.08 l
57.61 28.955 l
57.686 26.14 l
57.762 23.654 l
57.838 21.517 l
57.915 19.742 l
57.991 18.343 l
58.067 17.33 l
58.143 16.711 l
58.219 16.492 l
58.295 16.674 l
58.371 17.259 l
58.447 18.243 l
58.523 19.62 l
58.599 21.384 l
58.675 23.524 l
58.751 26.025 l
58.827 28.874 l
58.903 32.052 l
58.98 35.538 l
59.056 39.311 l
59.132 43.347 l
59.208 47.619 l
59.36 56.762 l
59.431 61.247 l
59.502 65.837 l
59.644 75.227 l
59.928 94.085 l
59.999 98.657 l
60.07 103.118 l
60.212 111.607 l
60.283 115.585 l
60.354 119.353 l
60.496 126.173 l
60.567 129.186 l
60.638 131.908 l
60.709 134.324 l
60.78 136.419 l
60.851 138.18 l
60.922 139.597 l
60.993 140.661 l
61.064 141.364 l
61.135 141.701 l
61.206 141.671 l
61.277 141.272 l
61.348 140.506 l
61.419 139.376 l
61.49 137.888 l
61.561 136.05 l
61.632 133.872 l
61.703 131.365 l
61.774 128.544 l
61.845 125.422 l
61.916 122.019 l
61.987 118.353 l
62.058 114.444 l
62.2 105.986 l
62.271 101.486 l
62.342 96.838 l
62.484 87.206 l
62.768 67.371 l
62.839 62.459 l
62.91 57.622 l
63.052 48.286 l
63.123 43.84 l
63.194 39.577 l
63.336 31.699 l
63.407 28.129 l
63.478 24.834 l
63.549 21.833 l
63.62 19.144 l
63.691 16.782 l
63.762 14.762 l
63.833 13.096 l
63.904 11.794 l
63.98 10.804 l
64.057 10.258 l
64.134 10.161 l
64.211 10.515 l
64.288 11.318 l
64.365 12.565 l
64.442 14.248 l
64.519 16.359 l
64.596 18.882 l
64.673 21.801 l
64.75 25.098 l
64.827 28.751 l
64.904 32.737 l
64.981 37.028 l
65.135 46.414 l
65.211 51.446 l
65.288 56.66 l
65.442 67.494 l
65.75 89.762 l
65.827 95.237 l
65.904 100.6 l
66.058 110.849 l
66.135 115.665 l
66.212 120.233 l
66.289 124.519 l
66.366 128.497 l
66.442 132.138 l
66.519 135.417 l
66.596 138.312 l
66.673 140.804 l
66.75 142.874 l
66.827 144.509 l
66.904 145.697 l
66.981 146.429 l
67.058 146.7 l
67.135 146.508 l
67.212 145.852 l
67.289 144.738 l
67.366 143.172 l
67.443 141.164 l
67.52 138.726 l
67.597 135.876 l
67.674 132.631 l
67.75 129.012 l
67.827 125.044 l
67.904 120.753 l
67.981 116.166 l
68.058 111.316 l
68.212 100.952 l
68.289 95.507 l
68.366 89.936 l
68.52 78.562 l
68.828 55.957 l
68.903 50.654 l
68.979 45.518 l
69.054 40.583 l
69.13 35.881 l
69.205 31.441 l
69.281 27.294 l
69.356 23.466 l
69.432 19.981 l
69.507 16.864 l
69.583 14.134 l
69.658 11.808 l
69.734 9.903 l
69.81 8.431 l
69.885 7.402 l
69.961 6.822 l
70.036 6.696 l
70.112 7.025 l
70.187 7.807 l
70.263 9.037 l
70.338 10.707 l
70.414 12.808 l
70.489 15.325 l
70.565 18.243 l
70.64 21.543 l
70.716 25.204 l
70.791 29.203 l
70.943 38.109 l
71.018 42.959 l
71.094 48.032 l
71.245 58.718 l
71.32 64.262 l
71.396 69.892 l
71.547 81.267 l
71.622 86.938 l
71.698 92.55 l
71.849 103.45 l
71.925 108.668 l
72 113.686 l
72.076 118.472 l
72.151 122.995 l
72.227 127.225 l
72.302 131.135 l
72.378 134.7 l
72.453 137.897 l
72.529 140.706 l
72.604 143.107 l
72.68 145.086 l
72.755 146.629 l
72.831 147.727 l
72.906 148.373 l
72.982 148.562 l
73.058 148.293 l
73.133 147.567 l
73.209 146.39 l
73.284 144.769 l
73.36 142.715 l
73.435 140.24 l
73.511 137.361 l
73.586 134.096 l
73.662 130.466 l
73.732 126.772 l
73.803 122.802 l
73.944 114.123 l
74.014 109.463 l
74.085 104.624 l
74.225 94.519 l
74.296 89.309 l
74.366 84.033 l
74.507 73.402 l
74.789 52.655 l
74.86 47.745 l
74.93 43.003 l
75.001 38.455 l
75.071 34.125 l
75.141 30.039 l
75.212 26.219 l
75.282 22.687 l
75.353 19.462 l
75.423 16.562 l
75.494 14.003 l
75.564 11.8 l
75.635 9.965 l
75.705 8.508 l
75.776 7.437 l
75.846 6.758 l
75.916 6.474 l
75.987 6.587 l
76.057 7.096 l
76.128 7.998 l
76.198 9.288 l
76.269 10.959 l
76.339 13 l
76.41 15.4 l
76.48 18.146 l
76.551 21.222 l
76.621 24.61 l
76.762 32.245 l
76.832 36.449 l
76.903 40.879 l
77.044 50.317 l
77.114 55.272 l
77.185 60.347 l
77.326 70.744 l
77.607 91.698 l
77.678 96.799 l
77.748 101.787 l
77.889 111.314 l
77.96 115.799 l
78.03 120.065 l
78.171 127.847 l
78.248 131.598 l
78.324 134.989 l
78.4 137.996 l
78.477 140.602 l
78.553 142.788 l
78.63 144.541 l
78.706 145.85 l
78.782 146.707 l
78.859 147.106 l
78.935 147.045 l
79.012 146.525 l
79.088 145.551 l
79.164 144.128 l
79.241 142.267 l
79.317 139.981 l
79.394 137.285 l
79.47 134.198 l
79.546 130.74 l
79.623 126.935 l
79.699 122.808 l
79.776 118.387 l
79.852 113.701 l
80.005 103.662 l
80.081 98.376 l
80.158 92.959 l
80.31 81.875 l
80.616 59.738 l
80.692 54.424 l
80.769 49.269 l
80.845 44.307 l
80.922 39.57 l
80.998 35.09 l
81.074 30.895 l
81.151 27.014 l
81.227 23.47 l
81.304 20.288 l
81.38 17.487 l
81.456 15.085 l
81.533 13.098 l
81.609 11.538 l
81.686 10.415 l
81.762 9.736 l
81.838 9.504 l
81.915 9.72 l
81.991 10.381 l
82.068 11.484 l
82.144 13.019 l
82.22 14.977 l
82.297 17.342 l
82.373 20.099 l
82.45 23.229 l
82.526 26.711 l
82.602 30.521 l
82.755 39.018 l
82.832 43.649 l
82.908 48.493 l
83.061 58.692 l
83.132 63.624 l
83.204 68.626 l
83.346 78.724 l
83.418 83.761 l
83.489 88.752 l
83.632 98.48 l
83.703 103.161 l
83.774 107.685 l
83.845 112.024 l
83.917 116.156 l
83.988 120.055 l
84.059 123.701 l
84.131 127.072 l
84.202 130.15 l
84.273 132.917 l
84.345 135.358 l
84.416 137.46 l
84.487 139.211 l
84.559 140.602 l
84.63 141.625 l
84.701 142.276 l
84.773 142.551 l
84.844 142.449 l
84.915 141.972 l
84.987 141.123 l
85.058 139.909 l
85.129 138.337 l
85.201 136.416 l
85.272 134.159 l
85.343 131.579 l
85.415 128.693 l
85.486 125.517 l
85.629 118.374 l
85.7 114.449 l
85.771 110.32 l
85.914 101.545 l
85.985 96.951 l
86.057 92.255 l
86.199 82.668 l
86.485 63.492 l
86.556 58.86 l
86.627 54.347 l
86.77 45.778 l
86.841 41.773 l
86.912 37.983 l
87.055 31.137 l
87.126 28.119 l
87.198 25.394 l
87.269 22.976 l
87.34 20.88 l
87.412 19.117 l
87.483 17.695 l
87.554 16.623 l
87.626 15.905 l
87.696 15.549 l
87.766 15.537 l
87.836 15.87 l
87.905 16.544 l
87.975 17.555 l
88.045 18.896 l
88.115 20.559 l
88.185 22.533 l
88.255 24.807 l
88.325 27.368 l
88.395 30.2 l
88.465 33.286 l
88.535 36.609 l
88.605 40.15 l
88.744 47.801 l
88.814 51.868 l
88.884 56.065 l
89.024 64.753 l
89.304 82.615 l
89.374 87.036 l
89.444 91.389 l
89.584 99.796 l
89.653 103.804 l
89.723 107.652 l
89.863 114.783 l
89.933 118.028 l
90.003 121.035 l
90.073 123.789 l
90.143 126.274 l
90.213 128.478 l
90.283 130.389 l
90.353 131.996 l
90.423 133.294 l
90.493 134.273 l
90.562 134.932 l
90.632 135.265 l
90.702 135.274 l
90.772 134.958 l
90.842 134.321 l
90.912 133.367 l
90.982 132.103 l
91.052 130.536 l
91.122 128.676 l
91.192 126.536 l
91.262 124.127 l
91.332 121.464 l
91.402 118.563 l
91.541 112.117 l
91.611 108.61 l
91.681 104.939 l
91.821 97.194 l
92.101 80.724 l
92.177 76.183 l
92.253 71.668 l
92.404 62.834 l
92.48 58.573 l
92.556 54.454 l
92.708 46.745 l
92.784 43.206 l
92.859 39.908 l
92.935 36.872 l
93.011 34.116 l
93.087 31.659 l
93.163 29.514 l
93.239 27.697 l
93.315 26.216 l
93.39 25.081 l
93.466 24.298 l
93.542 23.87 l
93.618 23.8 l
93.694 24.086 l
93.77 24.724 l
93.846 25.71 l
93.922 27.034 l
93.997 28.688 l
94.073 30.658 l
94.149 32.93 l
94.225 35.488 l
94.301 38.314 l
94.377 41.386 l
94.528 48.187 l
94.604 51.868 l
94.68 55.702 l
94.832 63.724 l
95.135 80.414 l
95.211 84.558 l
95.287 88.634 l
95.439 96.478 l
95.515 100.194 l
95.591 103.74 l
95.742 110.23 l
95.818 113.133 l
95.894 115.783 l
95.97 118.163 l
96.046 120.258 l
96.122 122.055 l
96.198 123.544 l
96.273 124.716 l
96.349 125.565 l
96.425 126.087 l
96.501 126.278 l
96.577 126.14 l
96.653 125.675 l
96.729 124.888 l
96.804 123.785 l
96.88 122.375 l
96.956 120.67 l
97.027 118.823 l
97.098 116.741 l
97.169 114.439 l
97.239 111.929 l
97.31 109.229 l
97.381 106.354 l
97.523 100.152 l
97.593 96.863 l
97.664 93.476 l
97.806 86.485 l
98.089 72.23 l
98.16 68.732 l
98.23 65.302 l
98.372 58.725 l
98.443 55.615 l
98.514 52.65 l
98.655 47.215 l
98.726 44.777 l
98.797 42.544 l
98.868 40.527 l
98.938 38.739 l
99.009 37.188 l
99.08 35.882 l
99.151 34.829 l
99.221 34.034 l
99.292 33.499 l
99.363 33.227 l
99.434 33.218 l
99.505 33.471 l
99.575 33.984 l
99.646 34.752 l
99.717 35.77 l
99.788 37.03 l
99.859 38.523 l
99.929 40.24 l
100 42.169 l
100.071 44.299 l
100.142 46.614 l
100.213 49.102 l
100.354 54.528 l
100.425 57.432 l
100.496 60.441 l
100.637 66.698 l
100.92 79.627 l
100.991 82.832 l
101.062 85.988 l
101.204 92.078 l
101.274 94.976 l
101.345 97.753 l
101.487 102.882 l
101.563 105.391 l
101.64 107.688 l
101.717 109.758 l
101.794 111.586 l
101.87 113.162 l
101.947 114.476 l
102.024 115.519 l
102.101 116.285 l
102.177 116.771 l
102.254 116.975 l
102.331 116.895 l
102.408 116.536 l
102.484 115.899 l
102.561 114.992 l
102.638 113.821 l
102.714 112.398 l
102.791 110.732 l
102.868 108.838 l
102.945 106.729 l
103.021 104.423 l
103.098 101.935 l
103.175 99.286 l
103.328 93.582 l
103.405 90.569 l
103.482 87.478 l
103.635 81.151 l
103.942 68.564 l
104.019 65.562 l
104.096 62.661 l
104.172 59.882 l
104.249 57.245 l
104.326 54.766 l
104.403 52.464 l
104.479 50.354 l
104.556 48.451 l
104.633 46.767 l
104.71 45.314 l
104.786 44.101 l
104.863 43.135 l
104.94 42.422 l
105.016 41.967 l
105.093 41.771 l
105.17 41.835 l
105.247 42.157 l
105.323 42.733 l
105.4 43.559 l
105.477 44.627 l
105.554 45.928 l
105.63 47.452 l
105.707 49.187 l
105.784 51.119 l
105.861 53.233 l
105.937 55.513 l
106.091 60.502 l
106.398 71.649 l
106.473 74.507 l
106.548 77.371 l
106.699 83.041 l
106.774 85.806 l
106.85 88.499 l
107 93.594 l
107.076 95.961 l
107.151 98.185 l
107.226 100.251 l
107.302 102.146 l
107.377 103.855 l
107.452 105.369 l
107.528 106.676 l
107.603 107.769 l
107.678 108.64 l
107.754 109.283 l
107.829 109.696 l
107.904 109.875 l
107.98 109.821 l
108.055 109.534 l
108.13 109.018 l
108.206 108.276 l
108.281 107.314 l
108.356 106.141 l
108.432 104.765 l
108.507 103.197 l
108.582 101.448 l
108.658 99.532 l
108.808 95.254 l
108.884 92.924 l
108.959 90.488 l
109.11 85.375 l
109.411 74.697 l
109.486 72.046 l
109.562 69.441 l
109.712 64.44 l
109.788 62.081 l
109.863 59.837 l
110.014 55.763 l
110.089 53.961 l
110.164 52.332 l
110.24 50.889 l
110.315 49.641 l
110.39 48.597 l
110.466 47.764 l
110.541 47.148 l
110.616 46.753 l
110.692 46.582 l
110.767 46.635 l
110.842 46.911 l
110.918 47.409 l
110.993 48.125 l
111.068 49.053 l
111.143 50.187 l
111.219 51.517 l
111.289 52.926 l
111.359 54.489 l
111.43 56.196 l
111.5 58.037 l
111.57 59.998 l
111.64 62.068 l
111.781 66.483 l
111.851 68.8 l
111.921 71.17 l
112.062 76.011 l
112.343 85.666 l
112.413 87.986 l
112.483 90.239 l
112.554 92.41 l
112.624 94.486 l
112.694 96.454 l
112.764 98.301 l
112.835 100.016 l
112.905 101.588 l
112.975 103.007 l
113.045 104.264 l
113.116 105.351 l
113.186 106.261 l
113.256 106.988 l
113.326 107.527 l
113.397 107.875 l
113.467 108.03 l
113.537 107.99 l
113.607 107.756 l
113.678 107.329 l
113.748 106.711 l
113.818 105.905 l
113.888 104.918 l
113.959 103.754 l
114.029 102.421 l
114.099 100.927 l
114.169 99.281 l
114.31 95.575 l
114.38 93.538 l
114.45 91.394 l
114.591 86.842 l
114.661 84.461 l
114.732 82.031 l
114.872 77.08 l
114.942 74.592 l
115.013 72.114 l
115.153 67.257 l
115.223 64.907 l
115.294 62.63 l
115.364 60.44 l
115.434 58.351 l
115.504 56.376 l
115.575 54.527 l
115.645 52.817 l
115.715 51.257 l
115.791 49.746 l
115.867 48.434 l
115.944 47.332 l
116.02 46.448 l
116.096 45.79 l
116.172 45.362 l
116.248 45.17 l
116.325 45.214 l
116.401 45.495 l
116.477 46.013 l
116.553 46.764 l
116.629 47.743 l
116.706 48.943 l
116.782 50.358 l
116.858 51.976 l
116.934 53.788 l
117.01 55.78 l
117.087 57.939 l
117.239 62.695 l
117.315 65.258 l
117.391 67.921 l
117.544 73.469 l
117.62 76.314 l
117.696 79.179 l
117.849 84.888 l
117.925 87.689 l
118.001 90.429 l
118.153 95.639 l
118.23 98.073 l
118.306 100.367 l
118.382 102.504 l
118.458 104.469 l
118.534 106.247 l
118.611 107.824 l
118.687 109.187 l
118.763 110.326 l
118.839 111.233 l
118.915 111.898 l
118.992 112.317 l
119.068 112.485 l
119.144 112.4 l
119.22 112.061 l
119.296 111.47 l
119.373 110.63 l
119.449 109.546 l
119.525 108.225 l
119.601 106.674 l
119.677 104.904 l
119.754 102.927 l
119.83 100.756 l
119.982 95.891 l
120.058 93.231 l
120.135 90.442 l
120.287 84.56 l
120.592 72.159 l
120.663 69.26 l
120.734 66.396 l
120.876 60.847 l
120.947 58.197 l
121.018 55.652 l
121.161 50.943 l
121.232 48.808 l
121.303 46.839 l
121.374 45.049 l
121.445 43.45 l
121.516 42.052 l
121.587 40.864 l
121.659 39.896 l
121.73 39.154 l
121.801 38.643 l
121.872 38.369 l
121.943 38.333 l
122.014 38.537 l
122.085 38.981 l
122.156 39.664 l
122.227 40.582 l
122.299 41.73 l
122.37 43.103 l
122.441 44.693 l
122.512 46.492 l
122.583 48.49 l
122.654 50.675 l
122.725 53.035 l
122.868 58.223 l
122.939 61.021 l
123.01 63.934 l
123.152 70.033 l
123.437 82.806 l
123.508 86.007 l
123.579 89.172 l
123.721 95.317 l
123.792 98.258 l
123.863 101.088 l
124.006 106.343 l
124.077 108.734 l
124.148 110.947 l
124.219 112.968 l
124.29 114.784 l
124.361 116.383 l
124.432 117.754 l
124.503 118.887 l
124.574 119.775 l
124.646 120.412 l
124.717 120.791 l
124.788 120.91 l
124.859 120.767 l
124.93 120.361 l
125.001 119.694 l
125.072 118.769 l
125.143 117.589 l
125.22 116.031 l
125.298 114.19 l
125.375 112.08 l
125.452 109.713 l
125.529 107.104 l
125.606 104.272 l
125.76 98.012 l
125.837 94.627 l
125.914 91.102 l
126.068 83.73 l
126.376 68.425 l
126.454 64.637 l
126.531 60.919 l
126.685 53.796 l
126.762 50.442 l
126.839 47.26 l
126.916 44.271 l
126.993 41.499 l
127.07 38.964 l
127.147 36.684 l
127.224 34.677 l
127.301 32.958 l
127.378 31.541 l
127.455 30.437 l
127.532 29.654 l
127.61 29.201 l
127.687 29.082 l
127.764 29.299 l
127.841 29.852 l
127.918 30.739 l
127.995 31.956 l
128.072 33.495 l
128.149 35.347 l
128.226 37.5 l
128.303 39.942 l
128.38 42.656 l
128.457 45.625 l
128.534 48.829 l
128.611 52.247 l
128.688 55.856 l
128.843 63.549 l
128.92 67.581 l
128.997 71.7 l
129.151 80.087 l
129.228 84.297 l
129.305 88.478 l
129.459 96.64 l
129.536 100.564 l
129.613 104.345 l
129.69 107.958 l
129.767 111.375 l
129.844 114.573 l
129.921 117.529 l
129.999 120.221 l
130.076 122.629 l
130.151 124.699 l
130.227 126.464 l
130.303 127.91 l
130.378 129.027 l
130.454 129.804 l
130.53 130.237 l
130.605 130.32 l
130.681 130.052 l
130.757 129.432 l
130.832 128.464 l
130.908 127.153 l
130.984 125.506 l
131.059 123.532 l
131.135 121.243 l
131.21 118.654 l
131.286 115.78 l
131.362 112.64 l
131.437 109.252 l
131.589 101.824 l
131.664 97.831 l
131.74 93.687 l
131.891 85.049 l
131.967 80.614 l
132.043 76.138 l
132.194 67.187 l
132.497 50.111 l
132.572 46.181 l
132.648 42.442 l
132.724 38.919 l
132.799 35.635 l
132.875 32.615 l
132.951 29.877 l
133.026 27.443 l
133.102 25.328 l
133.178 23.548 l
133.253 22.116 l
133.329 21.042 l
133.405 20.336 l
133.48 20.002 l
133.556 20.045 l
133.632 20.465 l
133.707 21.261 l
133.783 22.43 l
133.859 23.964 l
133.934 25.855 l
134.01 28.091 l
134.086 30.66 l
134.161 33.545 l
134.237 36.728 l
134.313 40.189 l
134.388 43.907 l
134.464 47.857 l
134.615 56.355 l
134.918 74.946 l
134.988 79.428 l
135.059 83.913 l
135.2 92.786 l
135.271 97.125 l
135.341 101.363 l
135.483 109.446 l
135.553 113.242 l
135.624 116.845 l
135.694 120.234 l
135.765 123.389 l
135.836 126.291 l
135.906 128.923 l
135.977 131.269 l
136.047 133.315 l
136.118 135.048 l
136.188 136.457 l
136.259 137.534 l
136.33 138.272 l
136.4 138.665 l
136.471 138.71 l
136.541 138.407 l
136.612 137.755 l
136.683 136.757 l
136.753 135.419 l
136.824 133.747 l
136.894 131.75 l
136.965 129.438 l
137.035 126.824 l
137.106 123.921 l
137.177 120.746 l
137.247 117.315 l
137.318 113.649 l
137.459 105.689 l
137.741 87.907 l
137.812 83.217 l
137.882 78.483 l
138.024 68.985 l
138.306 50.63 l
138.377 46.328 l
138.447 42.192 l
138.518 38.245 l
138.588 34.51 l
138.659 31.009 l
138.729 27.763 l
138.8 24.79 l
138.871 22.108 l
138.941 19.733 l
139.012 17.679 l
139.082 15.959 l
139.153 14.582 l
139.224 13.558 l
139.294 12.893 l
139.365 12.591 l
139.435 12.656 l
139.512 13.14 l
139.588 14.053 l
139.665 15.389 l
139.741 17.141 l
139.818 19.297 l
139.895 21.845 l
139.971 24.769 l
140.048 28.049 l
140.124 31.664 l
140.201 35.592 l
140.354 44.279 l
140.43 48.982 l
140.507 53.885 l
140.66 64.157 l
140.736 69.458 l
140.813 74.824 l
140.966 85.604 l
141.042 90.946 l
141.119 96.21 l
141.272 106.36 l
141.349 111.178 l
141.425 115.781 l
141.502 120.139 l
141.578 124.221 l
141.655 128 l
141.731 131.45 l
141.808 134.548 l
141.884 137.272 l
141.961 139.604 l
142.037 141.527 l
142.114 143.029 l
142.19 144.097 l
142.267 144.724 l
142.343 144.906 l
142.42 144.64 l
142.496 143.928 l
142.573 142.772 l
142.65 141.181 l
142.726 139.164 l
142.803 136.734 l
142.879 133.905 l
142.956 130.698 l
143.032 127.131 l
143.109 123.228 l
143.185 119.015 l
143.262 114.519 l
143.415 104.798 l
143.721 83.36 l
143.797 77.789 l
143.874 72.207 l
144.027 61.159 l
144.104 55.765 l
144.18 50.507 l
144.333 40.535 l
144.405 36.189 l
144.476 32.074 l
144.548 28.216 l
144.619 24.637 l
144.69 21.357 l
144.762 18.397 l
144.833 15.773 l
144.905 13.502 l
144.976 11.596 l
145.048 10.067 l
145.119 8.925 l
145.191 8.177 l
145.262 7.826 l
145.334 7.877 l
145.405 8.328 l
145.476 9.178 l
145.548 10.422 l
145.619 12.054 l
145.691 14.063 l
145.762 16.44 l
145.834 19.171 l
145.905 22.24 l
145.977 25.63 l
146.048 29.321 l
146.119 33.293 l
146.191 37.523 l
146.334 46.658 l
146.62 66.874 l
146.691 72.165 l
146.763 77.49 l
146.905 88.121 l
146.977 93.366 l
147.048 98.522 l
147.191 108.451 l
147.263 113.167 l
147.334 117.68 l
147.406 121.964 l
147.477 125.994 l
147.549 129.746 l
147.62 133.2 l
147.691 136.334 l
147.763 139.13 l
147.834 141.572 l
147.906 143.646 l
147.977 145.34 l
148.049 146.643 l
148.12 147.547 l
148.192 148.048 l
148.263 148.142 l
148.335 147.829 l
148.406 147.109 l
148.477 145.988 l
148.549 144.47 l
148.62 142.566 l
148.692 140.285 l
148.763 137.641 l
148.835 134.648 l
148.906 131.324 l
148.976 127.762 l
149.046 123.92 l
149.186 115.481 l
149.256 110.93 l
149.326 106.193 l
149.467 96.261 l
149.537 91.122 l
149.607 85.905 l
149.747 75.354 l
150.027 54.601 l
150.097 49.654 l
150.167 44.859 l
150.237 40.244 l
150.307 35.832 l
150.377 31.65 l
150.447 27.72 l
150.517 24.064 l
150.587 20.703 l
150.657 17.654 l
150.727 14.936 l
150.797 12.563 l
150.867 10.548 l
150.938 8.902 l
151.008 7.636 l
151.078 6.754 l
151.148 6.264 l
151.218 6.167 l
151.288 6.463 l
151.358 7.152 l
151.428 8.229 l
151.498 9.689 l
151.568 11.522 l
151.638 13.72 l
151.708 16.27 l
151.778 19.158 l
151.848 22.367 l
151.918 25.88 l
151.988 29.677 l
152.058 33.737 l
152.128 38.039 l
152.268 47.266 l
152.339 52.141 l
152.409 57.155 l
152.549 67.486 l
152.829 88.554 l
152.899 93.735 l
152.969 98.824 l
153.109 108.613 l
153.179 113.259 l
153.249 117.705 l
153.389 125.899 l
153.465 129.903 l
153.541 133.563 l
153.617 136.855 l
153.693 139.759 l
153.769 142.255 l
153.845 144.327 l
153.921 145.962 l
153.997 147.15 l
154.073 147.882 l
154.149 148.155 l
154.225 147.967 l
154.301 147.32 l
154.377 146.217 l
154.453 144.667 l
154.529 142.679 l
154.605 140.268 l
154.681 137.448 l
154.757 134.24 l
154.833 130.663 l
154.909 126.742 l
154.985 122.502 l
155.061 117.971 l
155.213 108.159 l
155.289 102.941 l
155.365 97.561 l
155.517 86.456 l
155.821 63.89 l
155.897 58.389 l
155.973 53.017 l
156.125 42.797 l
156.201 38.017 l
156.277 33.497 l
156.353 29.267 l
156.429 25.356 l
156.505 21.787 l
156.581 18.584 l
156.657 15.767 l
156.733 13.355 l
156.809 11.363 l
156.885 9.803 l
156.961 8.684 l
157.037 8.015 l
157.113 7.798 l
157.189 8.035 l
157.265 8.724 l
157.341 9.859 l
157.417 11.432 l
157.493 13.433 l
157.569 15.849 l
157.645 18.662 l
157.721 21.854 l
157.797 25.404 l
157.873 29.288 l
157.949 33.48 l
158.025 37.953 l
158.101 42.676 l
158.253 52.749 l
158.324 57.675 l
158.395 62.707 l
158.536 72.97 l
158.82 93.475 l
158.891 98.426 l
158.962 103.251 l
159.104 112.412 l
159.175 116.696 l
159.246 120.75 l
159.387 128.079 l
159.458 131.313 l
159.529 134.235 l
159.6 136.83 l
159.671 139.082 l
159.742 140.98 l
159.813 142.513 l
159.884 143.673 l
159.955 144.454 l
160.026 144.853 l
160.097 144.867 l
160.168 144.497 l
160.238 143.746 l
160.309 142.619 l
160.38 141.122 l
160.451 139.266 l
160.522 137.06 l
160.593 134.519 l
160.664 131.657 l
160.735 128.492 l
160.806 125.041 l
160.877 121.325 l
160.948 117.366 l
161.089 108.811 l
161.16 104.264 l
161.231 99.573 l
161.373 89.866 l
161.657 69.94 l
161.728 65.018 l
161.799 60.176 l
161.94 50.841 l
162.011 46.402 l
162.082 42.147 l
162.224 34.29 l
162.295 30.731 l
162.366 27.445 l
162.437 24.451 l
162.508 21.764 l
162.579 19.401 l
162.65 17.372 l
162.721 15.69 l
162.791 14.364 l
162.868 13.335 l
162.945 12.738 l
163.022 12.575 l
163.099 12.847 l
163.176 13.549 l
163.253 14.678 l
163.329 16.224 l
163.406 18.176 l
163.483 20.519 l
163.56 23.238 l
163.637 26.312 l
163.714 29.72 l
163.791 33.439 l
163.867 37.443 l
164.021 46.193 l
164.098 50.879 l
164.175 55.731 l
164.329 65.795 l
164.636 86.41 l
164.713 91.462 l
164.79 96.405 l
164.943 105.835 l
165.02 110.258 l
165.097 114.448 l
165.174 118.376 l
165.251 122.017 l
165.328 125.348 l
165.405 128.346 l
165.482 130.993 l
165.558 133.271 l
165.635 135.166 l
165.712 136.667 l
165.789 137.765 l
165.866 138.453 l
165.943 138.729 l
166.02 138.59 l
166.096 138.04 l
166.173 137.083 l
166.25 135.728 l
166.327 133.984 l
166.404 131.864 l
166.481 129.384 l
166.558 126.562 l
166.634 123.417 l
166.711 119.973 l
166.788 116.252 l
166.865 112.282 l
166.942 108.09 l
167.096 99.155 l
167.172 94.475 l
167.249 89.695 l
167.403 79.967 l
167.71 60.763 l
167.786 56.286 l
167.861 51.961 l
167.937 47.816 l
168.012 43.878 l
168.088 40.172 l
168.163 36.721 l
168.239 33.547 l
168.314 30.669 l
168.39 28.106 l
168.465 25.873 l
168.54 23.984 l
168.616 22.449 l
168.691 21.278 l
168.767 20.477 l
168.842 20.05 l
168.918 19.998 l
168.993 20.321 l
169.069 21.015 l
169.144 22.074 l
169.22 23.49 l
169.295 25.253 l
169.371 27.349 l
169.446 29.764 l
169.521 32.48 l
169.597 35.48 l
169.672 38.742 l
169.823 45.961 l
169.899 49.869 l
169.974 53.942 l
170.125 62.472 l
170.201 66.872 l
170.276 71.323 l
170.427 80.261 l
170.502 84.689 l
170.578 89.051 l
170.729 97.464 l
170.804 101.462 l
170.88 105.284 l
170.955 108.908 l
171.031 112.309 l
171.106 115.468 l
171.181 118.362 l
171.257 120.976 l
171.332 123.292 l
171.408 125.296 l
171.483 126.977 l
171.559 128.325 l
171.634 129.332 l
171.71 129.993 l
171.785 130.305 l
171.861 130.268 l
171.936 129.882 l
172.011 129.152 l
172.087 128.085 l
172.162 126.688 l
172.238 124.973 l
172.313 122.951 l
172.389 120.638 l
172.464 118.05 l
172.54 115.205 l
172.61 112.337 l
172.68 109.281 l
172.821 102.677 l
173.103 88.065 l
173.173 84.243 l
173.243 80.399 l
173.384 72.73 l
173.666 58.082 l
173.736 54.686 l
173.807 51.436 l
173.877 48.35 l
173.947 45.444 l
174.018 42.736 l
174.088 40.24 l
174.158 37.97 l
174.229 35.937 l
174.299 34.153 l
174.37 32.627 l
174.44 31.366 l
174.51 30.377 l
174.581 29.665 l
174.651 29.231 l
174.721 29.079 l
174.792 29.206 l
174.862 29.613 l
174.933 30.293 l
175.003 31.244 l
175.073 32.458 l
175.144 33.926 l
175.214 35.64 l
175.285 37.588 l
175.355 39.758 l
175.425 42.136 l
175.496 44.707 l
175.636 50.367 l
175.707 53.42 l
175.777 56.598 l
175.918 63.252 l
175.988 66.688 l
176.059 70.169 l
176.199 77.188 l
176.27 80.683 l
176.34 84.142 l
176.481 90.872 l
176.551 94.104 l
176.622 97.222 l
176.692 100.209 l
176.763 103.047 l
176.833 105.721 l
176.903 108.216 l
176.974 110.518 l
177.044 112.615 l
177.12 114.643 l
177.197 116.403 l
177.273 117.884 l
177.349 119.077 l
177.426 119.977 l
177.502 120.577 l
177.578 120.875 l
177.655 120.871 l
177.731 120.565 l
177.807 119.963 l
177.884 119.069 l
177.96 117.891 l
178.036 116.438 l
178.113 114.723 l
178.189 112.758 l
178.265 110.558 l
178.342 108.14 l
178.418 105.521 l
178.571 99.76 l
178.647 96.659 l
178.723 93.442 l
178.876 86.747 l
178.952 83.318 l
179.028 79.867 l
179.181 72.992 l
179.257 69.617 l
179.334 66.315 l
179.486 60.02 l
179.563 57.07 l
179.639 54.278 l
179.715 51.664 l
179.792 49.244 l
179.868 47.035 l
179.944 45.051 l
180.021 43.305 l
180.097 41.809 l
180.173 40.57 l
180.25 39.597 l
180.326 38.896 l
180.402 38.469 l
180.479 38.319 l
180.555 38.444 l
180.631 38.844 l
180.708 39.514 l
180.784 40.447 l
180.86 41.636 l
180.937 43.071 l
181.013 44.74 l
181.089 46.632 l
181.166 48.731 l
181.242 51.021 l
181.318 53.485 l
181.394 56.106 l
181.471 58.863 l
181.623 64.706 l
181.929 77.1 l
182 80.011 l
182.071 82.891 l
182.214 88.486 l
182.285 91.167 l
182.356 93.75 l
182.499 98.554 l
182.57 100.747 l
182.641 102.784 l
182.712 104.652 l
182.784 106.339 l
182.855 107.838 l
182.926 109.138 l
182.997 110.232 l
183.069 111.116 l
183.14 111.783 l
183.211 112.231 l
183.282 112.458 l
183.354 112.463 l
183.425 112.247 l
183.496 111.813 l
183.567 111.163 l
183.639 110.304 l
183.71 109.241 l
183.781 107.982 l
183.852 106.535 l
183.924 104.91 l
183.995 103.119 l
184.066 101.172 l
184.209 96.867 l
184.28 94.537 l
184.351 92.107 l
184.494 87.016 l
184.779 76.364 l
184.85 73.702 l
184.921 71.075 l
185.064 65.988 l
185.135 63.56 l
185.206 61.23 l
185.349 56.921 l
185.42 54.967 l
185.491 53.165 l
185.562 51.524 l
185.634 50.054 l
185.705 48.765 l
185.776 47.664 l
185.847 46.757 l
185.919 46.05 l
185.99 45.546 l
186.061 45.249 l
186.132 45.158 l
186.204 45.276 l
186.275 45.599 l
186.346 46.125 l
186.417 46.852 l
186.489 47.772 l
186.558 48.857 l
186.628 50.115 l
186.698 51.538 l
186.768 53.118 l
186.838 54.843 l
186.908 56.703 l
187.047 60.781 l
187.117 62.973 l
187.187 65.248 l
187.327 69.994 l
187.606 79.843 l
187.676 82.291 l
187.746 84.703 l
187.885 89.359 l
187.955 91.576 l
188.025 93.699 l
188.165 97.614 l
188.235 99.383 l
188.305 101.011 l
188.374 102.489 l
188.444 103.806 l
188.514 104.957 l
188.584 105.932 l
188.654 106.728 l
188.724 107.339 l
188.793 107.761 l
188.863 107.991 l
188.933 108.03 l
189.003 107.876 l
189.073 107.532 l
189.143 106.998 l
189.213 106.279 l
189.282 105.379 l
189.352 104.303 l
189.422 103.06 l
189.492 101.656 l
189.562 100.1 l
189.632 98.403 l
189.701 96.574 l
189.841 92.568 l
189.911 90.416 l
189.981 88.183 l
190.12 83.528 l
190.4 73.872 l
190.47 71.474 l
190.54 69.112 l
190.679 64.555 l
190.749 62.388 l
190.819 60.314 l
190.959 56.496 l
191.034 54.636 l
191.11 52.941 l
191.186 51.426 l
191.262 50.101 l
191.338 48.975 l
191.413 48.058 l
191.489 47.357 l
191.565 46.876 l
191.641 46.619 l
191.717 46.589 l
191.792 46.787 l
191.868 47.21 l
191.944 47.857 l
192.02 48.722 l
192.095 49.8 l
192.171 51.084 l
192.247 52.564 l
192.323 54.229 l
192.399 56.069 l
192.474 58.07 l
192.55 60.217 l
192.626 62.496 l
192.778 67.38 l
192.853 69.951 l
192.929 72.583 l
193.081 77.955 l
193.384 88.579 l
193.46 91.097 l
193.535 93.522 l
193.611 95.837 l
193.687 98.023 l
193.763 100.066 l
193.839 101.949 l
193.914 103.659 l
193.99 105.183 l
194.066 106.509 l
194.142 107.626 l
194.218 108.527 l
194.293 109.204 l
194.369 109.651 l
194.445 109.864 l
194.521 109.842 l
194.596 109.583 l
194.672 109.088 l
194.748 108.361 l
194.824 107.405 l
194.9 106.228 l
194.975 104.836 l
195.051 103.239 l
195.127 101.447 l
195.203 99.473 l
195.279 97.331 l
195.354 95.035 l
195.506 90.046 l
195.809 78.986 l
195.88 76.303 l
195.95 73.614 l
196.092 68.288 l
196.163 65.685 l
196.233 63.144 l
196.375 58.309 l
196.445 56.047 l
196.516 53.908 l
196.587 51.905 l
196.658 50.052 l
196.728 48.361 l
196.799 46.843 l
196.87 45.508 l
196.94 44.365 l
197.011 43.422 l
197.082 42.686 l
197.153 42.161 l
197.223 41.853 l
197.294 41.764 l
197.365 41.895 l
197.435 42.246 l
197.506 42.817 l
197.577 43.605 l
197.648 44.606 l
197.718 45.814 l
197.789 47.223 l
197.86 48.825 l
197.93 50.611 l
198.001 52.572 l
198.072 54.695 l
198.143 56.968 l
198.213 59.378 l
198.355 64.552 l
198.638 75.871 l
198.708 78.803 l
198.779 81.742 l
198.92 87.566 l
198.991 90.416 l
199.062 93.2 l
199.203 98.503 l
199.274 100.989 l
199.345 103.343 l
199.415 105.551 l
199.486 107.599 l
199.557 109.472 l
199.627 111.159 l
199.698 112.65 l
199.769 113.933 l
199.84 115 l
199.91 115.844 l
199.981 116.458 l
200.052 116.838 l
200.122 116.98 l
200.193 116.883 l
200.264 116.545 l
200.335 115.968 l
200.411 115.075 l
200.488 113.909 l
200.565 112.476 l
200.641 110.786 l
200.718 108.848 l
200.795 106.676 l
200.871 104.283 l
200.948 101.687 l
201.024 98.903 l
201.101 95.951 l
201.254 89.623 l
201.561 75.9 l
201.638 72.385 l
201.714 68.886 l
201.868 62.033 l
201.944 58.728 l
202.021 55.535 l
202.174 49.581 l
202.251 46.863 l
202.328 44.343 l
202.404 42.042 l
202.481 39.976 l
202.558 38.162 l
202.634 36.612 l
202.711 35.339 l
202.788 34.354 l
202.864 33.665 l
202.941 33.278 l
203.018 33.198 l
203.094 33.426 l
203.171 33.963 l
203.247 34.806 l
203.324 35.95 l
203.401 37.39 l
203.477 39.117 l
203.554 41.12 l
203.631 43.386 l
203.707 45.902 l
203.784 48.65 l
203.861 51.612 l
204.014 58.102 l
204.091 61.585 l
204.167 65.196 l
204.321 72.704 l
204.627 88.132 l
204.704 91.919 l
204.781 95.626 l
204.934 102.69 l
205.011 105.998 l
205.087 109.125 l
205.164 112.049 l
205.241 114.747 l
205.312 117.046 l
205.384 119.117 l
205.455 120.946 l
205.527 122.522 l
205.598 123.833 l
205.67 124.871 l
205.742 125.628 l
205.813 126.098 l
205.885 126.277 l
205.956 126.164 l
206.028 125.757 l
206.099 125.057 l
206.171 124.068 l
206.243 122.795 l
206.314 121.243 l
206.386 119.42 l
206.457 117.338 l
206.529 115.006 l
206.601 112.439 l
206.672 109.65 l
206.744 106.655 l
206.815 103.471 l
206.958 96.613 l
207.03 92.977 l
207.102 89.232 l
207.245 81.503 l
207.531 65.733 l
207.603 61.862 l
207.674 58.068 l
207.817 50.797 l
207.889 47.366 l
207.961 44.099 l
208.104 38.136 l
208.175 35.478 l
208.247 33.059 l
208.318 30.892 l
208.39 28.993 l
208.462 27.374 l
208.533 26.046 l
208.605 25.016 l
208.676 24.294 l
208.748 23.884 l
208.819 23.79 l
208.891 24.014 l
208.963 24.555 l
209.034 25.412 l
209.106 26.581 l
209.177 28.055 l
209.249 29.828 l
209.321 31.889 l
209.392 34.228 l
209.464 36.832 l
209.535 39.686 l
209.607 42.775 l
209.678 46.08 l
209.822 53.265 l
209.892 57.026 l
209.962 60.917 l
210.102 69.001 l
210.383 85.73 l
210.453 89.892 l
210.523 93.997 l
210.664 101.946 l
210.734 105.743 l
210.804 109.393 l
210.944 116.167 l
211.015 119.251 l
211.085 122.108 l
211.155 124.722 l
211.225 127.077 l
211.295 129.157 l
211.365 130.952 l
211.436 132.45 l
211.506 133.64 l
211.576 134.517 l
211.646 135.072 l
211.716 135.303 l
211.786 135.207 l
211.857 134.784 l
211.927 134.034 l
211.997 132.961 l
212.067 131.57 l
212.137 129.869 l
212.208 127.865 l
212.278 125.569 l
212.348 122.993 l
212.418 120.152 l
212.488 117.059 l
212.629 110.19 l
212.699 106.451 l
212.769 102.536 l
212.909 94.265 l
213.19 76.618 l
213.26 72.12 l
213.33 67.638 l
213.471 58.822 l
213.541 54.539 l
213.611 50.371 l
213.751 42.478 l
213.822 38.798 l
213.892 35.325 l
213.962 32.078 l
214.032 29.076 l
214.102 26.338 l
214.172 23.879 l
214.243 21.713 l
214.313 19.855 l
214.389 18.199 l
214.465 16.93 l
214.541 16.057 l
214.617 15.587 l
214.693 15.524 l
214.77 15.87 l
214.846 16.623 l
214.922 17.78 l
214.998 19.335 l
215.074 21.277 l
215.15 23.596 l
215.226 26.277 l
215.302 29.303 l
215.378 32.655 l
215.531 40.25 l
215.607 44.444 l
215.683 48.868 l
215.835 58.285 l
216.14 78.524 l
216.216 83.683 l
216.292 88.815 l
216.444 98.857 l
216.52 103.702 l
216.596 108.385 l
216.749 117.144 l
216.825 121.161 l
216.901 124.899 l
216.977 128.334 l
217.053 131.441 l
217.129 134.199 l
217.205 136.59 l
217.281 138.597 l
217.358 140.205 l
217.434 141.403 l
217.51 142.183 l
217.586 142.537 l
217.662 142.464 l
217.738 141.961 l
217.814 141.033 l
217.89 139.683 l
217.967 137.92 l
218.043 135.755 l
218.119 133.201 l
218.195 130.273 l
218.271 126.992 l
218.347 123.376 l
218.423 119.45 l
218.575 110.77 l
218.652 106.072 l
218.728 101.175 l
218.88 90.913 l
219.184 69.474 l
219.255 64.483 l
219.327 59.556 l
219.469 50.009 l
219.54 45.443 l
219.611 41.052 l
219.753 32.894 l
219.824 29.174 l
219.895 25.723 l
219.966 22.562 l
220.037 19.709 l
220.108 17.18 l
220.179 14.991 l
220.25 13.155 l
220.321 11.683 l
220.392 10.584 l
220.463 9.864 l
220.534 9.529 l
220.605 9.582 l
220.676 10.021 l
220.747 10.847 l
220.818 12.053 l
220.889 13.634 l
220.96 15.582 l
221.032 17.886 l
221.103 20.533 l
221.174 23.508 l
221.245 26.796 l
221.316 30.377 l
221.458 38.337 l
221.529 42.672 l
221.6 47.212 l
221.742 56.798 l
222.026 77.23 l
222.097 82.43 l
222.168 87.608 l
222.31 97.781 l
222.381 102.716 l
222.452 107.513 l
222.594 116.581 l
222.666 120.801 l
222.737 124.778 l
222.808 128.489 l
222.879 131.913 l
222.95 135.03 l
223.021 137.821 l
223.092 140.271 l
223.163 142.365 l
223.234 144.09 l
223.305 145.437 l
223.376 146.397 l
223.447 146.965 l
223.518 147.136 l
223.589 146.91 l
223.66 146.287 l
223.731 145.27 l
223.808 143.731 l
223.885 141.745 l
223.962 139.327 l
224.039 136.492 l
224.116 133.258 l
224.193 129.646 l
224.27 125.682 l
224.347 121.39 l
224.424 116.799 l
224.501 111.94 l
224.655 101.55 l
224.963 79.068 l
225.04 73.312 l
225.117 67.578 l
225.271 56.332 l
225.348 50.894 l
225.425 45.63 l
225.579 35.76 l
225.656 31.221 l
225.733 26.988 l
225.81 23.088 l
225.887 19.549 l
225.964 16.395 l
226.041 13.646 l
226.118 11.321 l
226.195 9.436 l
226.272 8.005 l
226.349 7.036 l
226.426 6.538 l
226.503 6.512 l
226.58 6.96 l
226.657 7.878 l
226.734 9.262 l
226.811 11.101 l
226.888 13.385 l
226.965 16.096 l
227.042 19.219 l
227.119 22.731 l
227.196 26.61 l
227.273 30.829 l
227.427 40.175 l
227.503 45.24 l
227.58 50.52 l
227.734 61.587 l
228.042 84.695 l
228.119 90.449 l
228.196 96.117 l
228.35 107.043 l
228.427 112.228 l
228.504 117.18 l
228.658 126.256 l
228.734 130.249 l
228.809 133.901 l
228.885 137.189 l
228.961 140.092 l
229.036 142.591 l
229.112 144.67 l
229.187 146.315 l
229.263 147.517 l
229.339 148.266 l
229.414 148.559 l
229.49 148.393 l
229.565 147.77 l
229.641 146.694 l
229.716 145.171 l
229.792 143.212 l
229.868 140.829 l
229.943 138.038 l
230.019 134.856 l
230.094 131.305 l
230.17 127.407 l
230.246 123.188 l
230.321 118.675 l
230.472 108.885 l
230.548 103.671 l
230.623 98.289 l
230.775 87.163 l
231.077 64.47 l
231.153 58.919 l
231.228 53.489 l
231.379 43.131 l
231.455 38.27 l
231.53 33.663 l
231.682 25.327 l
231.757 21.653 l
231.833 18.339 l
231.908 15.407 l
231.984 12.876 l
232.06 10.762 l
232.135 9.078 l
232.211 7.835 l
232.286 7.04 l
232.362 6.699 l
232.437 6.813 l
232.513 7.382 l
232.589 8.401 l
232.664 9.863 l
232.74 11.759 l
232.815 14.077 l
232.891 16.8 l
232.967 19.912 l
233.042 23.391 l
233.118 27.215 l
233.193 31.359 l
233.269 35.796 l
233.344 40.497 l
233.496 50.567 l
233.566 55.51 l
233.637 60.572 l
233.778 70.935 l
234.06 91.804 l
234.13 96.879 l
234.201 101.84 l
234.342 111.31 l
234.412 115.765 l
234.483 120 l
234.624 127.718 l
234.694 131.158 l
234.765 134.292 l
234.835 137.104 l
234.906 139.577 l
234.976 141.699 l
235.047 143.458 l
235.117 144.843 l
235.188 145.849 l
235.258 146.469 l
235.329 146.7 l
235.399 146.542 l
235.47 145.996 l
235.54 145.066 l
235.611 143.757 l
235.681 142.076 l
235.752 140.035 l
235.822 137.644 l
235.893 134.918 l
235.963 131.873 l
236.034 128.525 l
236.104 124.895 l
236.175 121.002 l
236.316 112.521 l
236.386 107.981 l
236.457 103.276 l
236.598 93.475 l
236.88 73.101 l
236.95 68.014 l
237.021 62.987 l
237.162 53.226 l
237.232 48.546 l
237.303 44.035 l
237.444 35.62 l
237.515 31.763 l
237.585 28.168 l
237.656 24.856 l
237.726 21.844 l
237.797 19.148 l
237.867 16.785 l
237.938 14.766 l
238.008 13.102 l
238.085 11.709 l
238.161 10.753 l
238.237 10.239 l
238.314 10.169 l
238.39 10.544 l
238.467 11.36 l
238.543 12.61 l
238.62 14.286 l
238.696 16.376 l
238.773 18.865 l
238.849 21.736 l
238.925 24.969 l
239.002 28.542 l
239.078 32.431 l
239.231 41.048 l
239.308 45.717 l
239.384 50.587 l
239.537 60.792 l
239.843 82.102 l
239.919 87.41 l
239.996 92.64 l
240.149 102.728 l
240.225 107.519 l
240.302 112.099 l
240.454 120.509 l
240.531 124.285 l
240.607 127.74 l
240.684 130.854 l
240.76 133.606 l
240.837 135.978 l
240.913 137.956 l
240.99 139.528 l
241.066 140.684 l
241.143 141.417 l
241.219 141.723 l
241.295 141.603 l
241.372 141.056 l
241.448 140.089 l
241.525 138.707 l
241.601 136.923 l
241.678 134.748 l
241.754 132.198 l
241.831 129.291 l
241.907 126.047 l
241.983 122.489 l
242.06 118.64 l
242.136 114.528 l
242.289 105.627 l
242.366 100.898 l
242.442 96.026 l
242.595 85.984 l
242.901 65.656 l
242.972 61.045 l
243.044 56.541 l
243.186 47.957 l
243.258 43.926 l
243.329 40.1 l
243.472 33.148 l
243.543 30.062 l
243.615 27.258 l
243.686 24.753 l
243.757 22.561 l
243.829 20.692 l
243.9 19.158 l
243.971 17.966 l
244.043 17.123 l
244.114 16.631 l
244.186 16.494 l
244.257 16.71 l
244.328 17.278 l
244.4 18.193 l
244.471 19.449 l
244.542 21.038 l
244.614 22.95 l
244.685 25.171 l
244.757 27.69 l
244.828 30.489 l
244.899 33.552 l
244.971 36.86 l
245.042 40.394 l
245.185 48.051 l
245.256 52.128 l
245.328 56.339 l
245.47 65.062 l
245.756 82.987 l
245.827 87.415 l
245.899 91.77 l
246.041 100.16 l
246.113 104.146 l
246.184 107.964 l
246.327 115.004 l
246.398 118.186 l
246.47 121.12 l
246.541 123.789 l
246.612 126.177 l
246.684 128.272 l
246.755 130.063 l
246.826 131.54 l
246.898 132.695 l
246.969 133.523 l
247.041 134.02 l
247.112 134.184 l
247.183 134.015 l
247.255 133.516 l
247.326 132.691 l
247.397 131.544 l
247.469 130.086 l
247.539 128.361 l
247.609 126.356 l
247.679 124.083 l
247.749 121.555 l
247.819 118.788 l
247.889 115.798 l
248.029 109.22 l
248.099 105.671 l
248.169 101.975 l
248.308 94.231 l
248.588 77.965 l
248.658 73.87 l
248.728 69.812 l
248.868 61.891 l
248.938 58.073 l
249.008 54.379 l
249.148 47.443 l
249.218 44.239 l
249.288 41.235 l
249.358 38.447 l
249.428 35.89 l
249.498 33.578 l
249.568 31.522 l
249.638 29.734 l
249.708 28.223 l
249.778 26.996 l
249.848 26.059 l
249.918 25.417 l
249.988 25.071 l
250.058 25.023 l
250.128 25.272 l
250.198 25.815 l
250.268 26.648 l
250.338 27.765 l
250.408 29.159 l
250.478 30.82 l
250.548 32.739 l
250.617 34.903 l
250.687 37.299 l
250.827 42.728 l
250.897 45.728 l
250.967 48.895 l
251.107 55.655 l
251.387 70.31 l
251.457 74.087 l
251.527 77.866 l
251.667 85.344 l
251.737 89.001 l
251.807 92.576 l
251.947 99.397 l
252.023 102.872 l
252.099 106.158 l
252.175 109.235 l
252.251 112.082 l
252.327 114.682 l
252.402 117.018 l
252.478 119.075 l
252.554 120.841 l
252.63 122.306 l
252.706 123.46 l
252.782 124.299 l
252.858 124.816 l
252.934 125.011 l
253.01 124.883 l
253.086 124.435 l
253.162 123.671 l
253.237 122.598 l
253.313 121.225 l
253.389 119.563 l
253.465 117.623 l
253.541 115.421 l
253.617 112.973 l
253.693 110.296 l
253.769 107.41 l
253.845 104.336 l
253.921 101.094 l
254.073 94.202 l
254.376 79.468 l
254.452 75.734 l
254.528 72.031 l
254.68 64.817 l
254.756 61.355 l
254.832 58.02 l
254.984 51.82 l
255.059 48.995 l
255.135 46.379 l
255.211 43.989 l
255.287 41.84 l
255.363 39.945 l
255.439 38.316 l
255.515 36.963 l
255.591 35.894 l
255.667 35.114 l
255.743 34.629 l
255.819 34.438 l
255.895 34.543 l
255.97 34.941 l
256.046 35.628 l
256.122 36.598 l
256.198 37.843 l
256.274 39.352 l
256.35 41.115 l
256.426 43.117 l
256.502 45.344 l
256.578 47.779 l
256.654 50.405 l
256.805 56.151 l
256.876 59.02 l
256.947 61.984 l
257.089 68.126 l
257.372 80.733 l
257.443 83.841 l
257.514 86.893 l
257.656 92.761 l
257.726 95.541 l
257.797 98.197 l
257.939 103.075 l
258.01 105.269 l
258.081 107.282 l
258.151 109.103 l
258.222 110.723 l
258.293 112.131 l
258.364 113.321 l
258.435 114.287 l
258.506 115.023 l
258.576 115.526 l
258.647 115.794 l
258.718 115.826 l
258.789 115.624 l
258.86 115.19 l
258.931 114.527 l
259.001 113.64 l
259.072 112.537 l
259.143 111.224 l
259.214 109.71 l
259.285 108.007 l
259.356 106.124 l
259.426 104.075 l
259.497 101.872 l
259.639 97.064 l
259.71 94.49 l
259.781 91.822 l
259.922 86.279 l
260.206 74.842 l
260.277 72.012 l
260.347 69.23 l
260.489 63.873 l
260.56 61.331 l
260.631 58.9 l
260.772 54.43 l
260.843 52.418 l
260.914 50.57 l
260.985 48.896 l
261.056 47.407 l
261.127 46.112 l
261.197 45.016 l
261.268 44.127 l
261.339 43.449 l
261.418 42.945 l
261.497 42.711 l
261.576 42.747 l
261.655 43.052 l
261.734 43.623 l
261.814 44.452 l
261.893 45.535 l
261.972 46.859 l
262.051 48.415 l
262.13 50.19 l
262.209 52.168 l
262.288 54.333 l
262.367 56.668 l
262.446 59.154 l
262.604 64.498 l
262.683 67.314 l
262.762 70.195 l
262.921 76.065 l
263 79.007 l
263.079 81.924 l
263.237 87.589 l
263.316 90.294 l
263.395 92.886 l
263.474 95.345 l
263.553 97.652 l
263.632 99.79 l
263.711 101.742 l
263.79 103.493 l
263.87 105.032 l
263.949 106.345 l
264.028 107.424 l
264.107 108.261 l
264.186 108.85 l
264.265 109.188 l
264.344 109.271 l
264.423 109.101 l
264.502 108.68 l
264.581 108.01 l
264.66 107.1 l
264.739 105.955 l
264.818 104.587 l
264.898 103.006 l
264.977 101.225 l
265.056 99.26 l
265.135 97.125 l
265.214 94.839 l
265.293 92.419 l
265.451 87.258 l
265.767 76.242 l
265.846 73.47 l
265.926 70.736 l
266.084 65.464 l
266.163 62.968 l
266.242 60.593 l
266.321 58.356 l
266.4 56.275 l
S
Q
q
31.2 2.528 m
31.2 151.528 l
272.2 151.528 l
272.2 2.528 l
W*
Q
Q
Q
1 w
/DeviceRGB {} CS
[0 0 0] SC
/DeviceRGB {} cs
[0 0 0] sc
[] 0 d
2 J
0 j
10 M
Q
showpage
%%PageTrailer
pdfEndPage
%%Trailer
end
%%DocumentSuppliedResources:
%%EOF
