%!PS-Adobe-3.0 EPSF-3.0
%%Creator: Mathematica
%%LanguageLevel: 2
%%DocumentSuppliedResources: (atend)
%%BoundingBox: 0 0 240 149
%%HiResBoundingBox: 0 0 240 148.328
%%DocumentSuppliedResources: (atend)
%%EndComments
%%BeginProlog
%%BeginResource: procset xpdf 3.00 0
%%Copyright: Copyright 1996-2004 Glyph & Cog, LLC
/xpdf 75 dict def xpdf begin
% PDF special state
/pdfDictSize 15 def
/pdfSetup {
  3 1 roll 2 array astore
  /setpagedevice where {
    pop 3 dict begin
      /PageSize exch def
      /ImagingBBox null def
      { /Duplex true def } if
    currentdict end setpagedevice
  } {
    pop pop
  } ifelse
} def
/pdfStartPage {
  pdfDictSize dict begin
  /pdfFillCS [] def
  /pdfFillXform {} def
  /pdfStrokeCS [] def
  /pdfStrokeXform {} def
  /pdfFill [0] def
  /pdfStroke [0] def
  /pdfFillOP false def
  /pdfStrokeOP false def
  /pdfLastFill false def
  /pdfLastStroke false def
  /pdfTextMat [1 0 0 1 0 0] def
  /pdfFontSize 0 def
  /pdfCharSpacing 0 def
  /pdfTextRender 0 def
  /pdfTextRise 0 def
  /pdfWordSpacing 0 def
  /pdfHorizScaling 1 def
  /pdfTextClipPath [] def
} def
/pdfEndPage { end } def
% PDF color state
/cs { /pdfFillXform exch def dup /pdfFillCS exch def
      setcolorspace } def
/CS { /pdfStrokeXform exch def dup /pdfStrokeCS exch def
      setcolorspace } def
/sc { pdfLastFill not { pdfFillCS setcolorspace } if
      dup /pdfFill exch def aload pop pdfFillXform setcolor
     /pdfLastFill true def /pdfLastStroke false def } def
/SC { pdfLastStroke not { pdfStrokeCS setcolorspace } if
      dup /pdfStroke exch def aload pop pdfStrokeXform setcolor
     /pdfLastStroke true def /pdfLastFill false def } def
/op { /pdfFillOP exch def
      pdfLastFill { pdfFillOP setoverprint } if } def
/OP { /pdfStrokeOP exch def
      pdfLastStroke { pdfStrokeOP setoverprint } if } def
/fCol {
  pdfLastFill not {
    pdfFillCS setcolorspace
    pdfFill aload pop pdfFillXform setcolor
    pdfFillOP setoverprint
    /pdfLastFill true def /pdfLastStroke false def
  } if
} def
/sCol {
  pdfLastStroke not {
    pdfStrokeCS setcolorspace
    pdfStroke aload pop pdfStrokeXform setcolor
    pdfStrokeOP setoverprint
    /pdfLastStroke true def /pdfLastFill false def
  } if
} def
% build a font
/pdfMakeFont {
  4 3 roll findfont
  4 2 roll matrix scale makefont
  dup length dict begin
    { 1 index /FID ne { def } { pop pop } ifelse } forall
    /Encoding exch def
    currentdict
  end
  definefont pop
} def
/pdfMakeFont16 {
  exch findfont
  dup length dict begin
    { 1 index /FID ne { def } { pop pop } ifelse } forall
    /WMode exch def
    currentdict
  end
  definefont pop
} def
% graphics state operators
/q { gsave pdfDictSize dict begin } def
/Q {
  end grestore
  /pdfLastFill where {
    pop
    pdfLastFill {
      pdfFillOP setoverprint
    } {
      pdfStrokeOP setoverprint
    } ifelse
  } if
} def
/cm { concat } def
/d { setdash } def
/i { setflat } def
/j { setlinejoin } def
/J { setlinecap } def
/M { setmiterlimit } def
/w { setlinewidth } def
% path segment operators
/m { moveto } def
/l { lineto } def
/c { curveto } def
/re { 4 2 roll moveto 1 index 0 rlineto 0 exch rlineto
      neg 0 rlineto closepath } def
/h { closepath } def
% path painting operators
/S { sCol stroke } def
/Sf { fCol stroke } def
/f { fCol fill } def
/f* { fCol eofill } def
% clipping operators
/W { clip newpath } def
/W* { eoclip newpath } def
/Ws { strokepath clip newpath } def
% text state operators
/Tc { /pdfCharSpacing exch def } def
/Tf { dup /pdfFontSize exch def
      dup pdfHorizScaling mul exch matrix scale
      pdfTextMat matrix concatmatrix dup 4 0 put dup 5 0 put
      exch findfont exch makefont setfont } def
/Tr { /pdfTextRender exch def } def
/Ts { /pdfTextRise exch def } def
/Tw { /pdfWordSpacing exch def } def
/Tz { /pdfHorizScaling exch def } def
% text positioning operators
/Td { pdfTextMat transform moveto } def
/Tm { /pdfTextMat exch def } def
% text string operators
/cshow where {
  pop
  /cshow2 {
    dup {
      pop pop
      1 string dup 0 3 index put 3 index exec
    } exch cshow
    pop pop
  } def
}{
  /cshow2 {
    currentfont /FontType get 0 eq {
      0 2 2 index length 1 sub {
        2 copy get exch 1 add 2 index exch get
        2 copy exch 256 mul add
        2 string dup 0 6 5 roll put dup 1 5 4 roll put
        3 index exec
      } for
    } {
      dup {
        1 string dup 0 3 index put 3 index exec
      } forall
    } ifelse
    pop pop
  } def
} ifelse
/awcp {
  exch {
    false charpath
    5 index 5 index rmoveto
    6 index eq { 7 index 7 index rmoveto } if
  } exch cshow2
  6 {pop} repeat
} def
/Tj {
  fCol
  1 index stringwidth pdfTextMat idtransform pop
  sub 1 index length dup 0 ne { div } { pop pop 0 } ifelse
  pdfWordSpacing pdfHorizScaling mul 0 pdfTextMat dtransform 32
  4 3 roll pdfCharSpacing pdfHorizScaling mul add 0
  pdfTextMat dtransform
  6 5 roll Tj1
} def
/Tj16 {
  fCol
  2 index stringwidth pdfTextMat idtransform pop
  sub exch div
  pdfWordSpacing pdfHorizScaling mul 0 pdfTextMat dtransform 32
  4 3 roll pdfCharSpacing pdfHorizScaling mul add 0
  pdfTextMat dtransform
  6 5 roll Tj1
} def
/Tj16V {
  fCol
  2 index stringwidth pdfTextMat idtransform exch pop
  sub exch div
  0 pdfWordSpacing pdfTextMat dtransform 32
  4 3 roll pdfCharSpacing add 0 exch
  pdfTextMat dtransform
  6 5 roll Tj1
} def
/Tj1 {
  0 pdfTextRise pdfTextMat dtransform rmoveto
  currentpoint 8 2 roll
  pdfTextRender 1 and 0 eq {
    6 copy awidthshow
  } if
  pdfTextRender 3 and dup 1 eq exch 2 eq or {
    7 index 7 index moveto
    6 copy
    currentfont /FontType get 3 eq { fCol } { sCol } ifelse
    false awcp currentpoint stroke moveto
  } if
  pdfTextRender 4 and 0 ne {
    8 6 roll moveto
    false awcp
    /pdfTextClipPath [ pdfTextClipPath aload pop
      {/moveto cvx}
      {/lineto cvx}
      {/curveto cvx}
      {/closepath cvx}
    pathforall ] def
    currentpoint newpath moveto
  } {
    8 {pop} repeat
  } ifelse
  0 pdfTextRise neg pdfTextMat dtransform rmoveto
} def
/TJm { pdfFontSize 0.001 mul mul neg 0
       pdfTextMat dtransform rmoveto } def
/TJmV { pdfFontSize 0.001 mul mul neg 0 exch
        pdfTextMat dtransform rmoveto } def
/Tclip { pdfTextClipPath cvx exec clip newpath
         /pdfTextClipPath [] def } def
/Tclip* { pdfTextClipPath cvx exec eoclip newpath
         /pdfTextClipPath [] def } def
% Level 2 image operators
/pdfImBuf 100 string def
/pdfIm {
  image
  { currentfile pdfImBuf readline
    not { pop exit } if
    (%-EOD-) eq { exit } if } loop
} def
/pdfImM {
  fCol imagemask
  { currentfile pdfImBuf readline
    not { pop exit } if
    (%-EOD-) eq { exit } if } loop
} def
/pr { 2 index 2 index 3 2 roll putinterval 4 add } def
/pdfImClip {
  gsave
  0 2 4 index length 1 sub {
    dup 4 index exch 2 copy
    get 5 index div put
    1 add 3 index exch 2 copy
    get 3 index div put
  } for
  pop pop rectclip
} def
/pdfImClipEnd { grestore } def
% shading operators
/colordelta {
  false 0 1 3 index length 1 sub {
    dup 4 index exch get 3 index 3 2 roll get sub abs 0.004 gt {
      pop true
    } if
  } for
  exch pop exch pop
} def
/funcCol { func n array astore } def
/funcSH {
  dup 0 eq {
    true
  } {
    dup 6 eq {
      false
    } {
      4 index 4 index funcCol dup
      6 index 4 index funcCol dup
      3 1 roll colordelta 3 1 roll
      5 index 5 index funcCol dup
      3 1 roll colordelta 3 1 roll
      6 index 8 index funcCol dup
      3 1 roll colordelta 3 1 roll
      colordelta or or or
    } ifelse
  } ifelse
  {
    1 add
    4 index 3 index add 0.5 mul exch 4 index 3 index add 0.5 mul exch
    6 index 6 index 4 index 4 index 4 index funcSH
    2 index 6 index 6 index 4 index 4 index funcSH
    6 index 2 index 4 index 6 index 4 index funcSH
    5 3 roll 3 2 roll funcSH pop pop
  } {
    pop 3 index 2 index add 0.5 mul 3 index  2 index add 0.5 mul
    funcCol sc
    dup 4 index exch mat transform m
    3 index 3 index mat transform l
    1 index 3 index mat transform l
    mat transform l pop pop h f*
  } ifelse
} def
/axialCol {
  dup 0 lt {
    pop t0
  } {
    dup 1 gt {
      pop t1
    } {
      dt mul t0 add
    } ifelse
  } ifelse
  func n array astore
} def
/axialSH {
  dup 0 eq {
    true
  } {
    dup 8 eq {
      false
    } {
      2 index axialCol 2 index axialCol colordelta
    } ifelse
  } ifelse
  {
    1 add 3 1 roll 2 copy add 0.5 mul
    dup 4 3 roll exch 4 index axialSH
    exch 3 2 roll axialSH
  } {
    pop 2 copy add 0.5 mul
    axialCol sc
    exch dup dx mul x0 add exch dy mul y0 add
    3 2 roll dup dx mul x0 add exch dy mul y0 add
    dx abs dy abs ge {
      2 copy yMin sub dy mul dx div add yMin m
      yMax sub dy mul dx div add yMax l
      2 copy yMax sub dy mul dx div add yMax l
      yMin sub dy mul dx div add yMin l
      h f*
    } {
      exch 2 copy xMin sub dx mul dy div add xMin exch m
      xMax sub dx mul dy div add xMax exch l
      exch 2 copy xMax sub dx mul dy div add xMax exch l
      xMin sub dx mul dy div add xMin exch l
      h f*
    } ifelse
  } ifelse
} def
/radialCol {
  dup t0 lt {
    pop t0
  } {
    dup t1 gt {
      pop t1
    } if
  } ifelse
  func n array astore
} def
/radialSH {
  dup 0 eq {
    true
  } {
    dup 8 eq {
      false
    } {
      2 index dt mul t0 add radialCol
      2 index dt mul t0 add radialCol colordelta
    } ifelse
  } ifelse
  {
    1 add 3 1 roll 2 copy add 0.5 mul
    dup 4 3 roll exch 4 index radialSH
    exch 3 2 roll radialSH
  } {
    pop 2 copy add 0.5 mul dt mul t0 add
    radialCol sc
    encl {
      exch dup dx mul x0 add exch dup dy mul y0 add exch dr mul r0 add
      0 360 arc h
      dup dx mul x0 add exch dup dy mul y0 add exch dr mul r0 add
      360 0 arcn h f
    } {
      2 copy
      dup dx mul x0 add exch dup dy mul y0 add exch dr mul r0 add
      a1 a2 arcn
      dup dx mul x0 add exch dup dy mul y0 add exch dr mul r0 add
      a2 a1 arcn h
      dup dx mul x0 add exch dup dy mul y0 add exch dr mul r0 add
      a1 a2 arc
      dup dx mul x0 add exch dup dy mul y0 add exch dr mul r0 add
      a2 a1 arc h f
    } ifelse
  } ifelse
} def
end
%%EndResource
%%EndProlog
%%BeginSetup
xpdf begin
%%EndSetup
pdfStartPage
[] 0 d
1 i
0 j
0 J
10 M
1 w
/DeviceGray {} cs
[0] sc
/DeviceGray {} CS
[0] SC
false op
false OP
{} settransfer
q
[1 0 0 -1 0 148.328] cm
[1 0 0 1 -31.2 -3.2] cm
[1 0 0 1 0 0] cm
1 w
/DeviceRGB {} CS
[0 0 0] SC
/DeviceRGB {} cs
[0 0 0] sc
[] 0 d
2 J
0 j
10 M
31.2 3.2 m
31.2 151.528 l
271.2 151.528 l
271.2 3.2 l
W*
q
29.2 1.2 m
29.2 153.528 l
273.2 153.528 l
273.2 1.2 l
W*
q
31.2 2.528 m
31.2 151.528 l
271.2 151.528 l
271.2 2.528 l
W*
3.239 M
q
30.2 2.528 m
30.2 152.528 l
271.2 152.528 l
271.2 2.528 l
W*
Q
q
30.2 2.528 m
30.2 152.528 l
271.2 152.528 l
271.2 2.528 l
W*
Q
q
30.2 2.528 m
30.2 152.528 l
271.2 152.528 l
271.2 2.528 l
W*
/DeviceGray {} CS
[0] SC
/DeviceGray {} cs
[0] sc
0.4 w
[] 0 d
3.25 M
36 80.128 m
36.071 80.514 l
36.141 80.905 l
36.283 81.686 l
36.353 82.069 l
36.424 82.442 l
36.565 83.139 l
36.636 83.456 l
36.707 83.747 l
36.777 84.008 l
36.848 84.235 l
36.919 84.425 l
36.989 84.575 l
37.06 84.682 l
37.131 84.743 l
37.201 84.755 l
37.272 84.717 l
37.343 84.626 l
37.413 84.481 l
37.484 84.282 l
37.555 84.027 l
37.625 83.715 l
37.696 83.348 l
37.767 82.926 l
37.837 82.449 l
37.908 81.92 l
37.979 81.339 l
38.049 80.709 l
38.12 80.033 l
38.261 78.555 l
38.332 77.761 l
38.403 76.934 l
38.544 75.204 l
38.827 71.583 l
38.897 70.676 l
38.968 69.781 l
39.109 68.049 l
39.18 67.225 l
39.251 66.436 l
39.392 64.991 l
39.462 64.345 l
39.533 63.759 l
39.604 63.236 l
39.674 62.782 l
39.745 62.402 l
39.816 62.1 l
39.886 61.879 l
39.957 61.743 l
40.028 61.694 l
40.098 61.736 l
40.169 61.87 l
40.24 62.097 l
40.31 62.419 l
40.381 62.835 l
40.452 63.344 l
40.522 63.947 l
40.599 64.704 l
40.676 65.565 l
40.752 66.527 l
40.829 67.586 l
40.905 68.736 l
40.982 69.971 l
41.135 72.67 l
41.212 74.118 l
41.289 75.62 l
41.442 78.749 l
41.748 85.218 l
41.825 86.815 l
41.901 88.382 l
42.055 91.379 l
42.131 92.787 l
42.208 94.119 l
42.284 95.366 l
42.361 96.517 l
42.438 97.562 l
42.514 98.493 l
42.591 99.301 l
42.667 99.979 l
42.744 100.519 l
42.821 100.915 l
42.897 101.163 l
42.974 101.258 l
43.05 101.196 l
43.127 100.976 l
43.204 100.597 l
43.28 100.057 l
43.357 99.359 l
43.434 98.504 l
43.51 97.496 l
43.587 96.339 l
43.663 95.038 l
43.74 93.6 l
43.893 90.345 l
43.97 88.544 l
44.046 86.643 l
44.2 82.583 l
44.276 80.448 l
44.353 78.262 l
44.506 73.788 l
44.583 71.531 l
44.659 69.279 l
44.812 64.853 l
44.889 62.709 l
44.966 60.631 l
45.042 58.634 l
45.119 56.732 l
45.195 54.94 l
45.272 53.27 l
45.349 51.735 l
45.425 50.347 l
45.497 49.194 l
45.568 48.187 l
45.64 47.334 l
45.711 46.641 l
45.783 46.116 l
45.854 45.761 l
45.926 45.582 l
45.998 45.582 l
46.069 45.762 l
46.141 46.124 l
46.212 46.667 l
46.284 47.391 l
46.355 48.293 l
46.427 49.37 l
46.498 50.618 l
46.57 52.031 l
46.641 53.604 l
46.713 55.328 l
46.856 59.199 l
46.927 61.325 l
46.999 63.565 l
47.142 68.337 l
47.214 70.844 l
47.285 73.414 l
47.428 78.684 l
47.714 89.333 l
47.786 91.929 l
47.857 94.468 l
48 99.314 l
48.072 101.592 l
48.143 103.755 l
48.286 107.681 l
48.358 109.419 l
48.43 110.992 l
48.501 112.39 l
48.573 113.602 l
48.644 114.621 l
48.716 115.439 l
48.787 116.048 l
48.859 116.445 l
48.93 116.625 l
49.002 116.584 l
49.073 116.322 l
49.145 115.837 l
49.216 115.132 l
49.288 114.207 l
49.359 113.066 l
49.431 111.714 l
49.503 110.157 l
49.574 108.402 l
49.646 106.458 l
49.717 104.333 l
49.789 102.039 l
49.86 99.587 l
50.003 94.261 l
50.073 91.472 l
50.143 88.586 l
50.284 82.578 l
50.564 70.079 l
50.634 66.952 l
50.704 63.857 l
50.845 57.837 l
50.915 54.944 l
50.985 52.151 l
51.125 46.931 l
51.195 44.533 l
51.266 42.296 l
51.336 40.233 l
51.406 38.356 l
51.476 36.677 l
51.546 35.207 l
51.616 33.955 l
51.686 32.928 l
51.756 32.136 l
51.827 31.582 l
51.897 31.272 l
51.967 31.209 l
52.037 31.396 l
52.107 31.832 l
52.177 32.517 l
52.247 33.45 l
52.317 34.625 l
52.388 36.039 l
52.458 37.686 l
52.528 39.558 l
52.598 41.645 l
52.668 43.939 l
52.808 49.1 l
52.878 51.941 l
52.949 54.937 l
53.089 61.331 l
53.369 75.251 l
53.439 78.859 l
53.51 82.481 l
53.65 89.687 l
53.72 93.231 l
53.79 96.709 l
53.93 103.394 l
54 106.563 l
54.071 109.592 l
54.141 112.465 l
54.211 115.164 l
54.281 117.673 l
54.351 119.98 l
54.421 122.068 l
54.491 123.927 l
54.567 125.671 l
54.644 127.118 l
54.72 128.257 l
54.796 129.08 l
54.872 129.579 l
54.948 129.75 l
55.024 129.589 l
55.1 129.096 l
55.176 128.271 l
55.252 127.119 l
55.328 125.645 l
55.404 123.856 l
55.48 121.762 l
55.556 119.375 l
55.632 116.709 l
55.708 113.779 l
55.785 110.602 l
55.861 107.198 l
56.013 99.789 l
56.317 83.231 l
56.393 78.877 l
56.469 74.492 l
56.621 65.739 l
56.926 49.079 l
57.002 45.248 l
57.078 41.603 l
57.154 38.167 l
57.23 34.963 l
57.306 32.013 l
57.382 29.337 l
57.458 26.953 l
57.534 24.878 l
57.61 23.126 l
57.686 21.709 l
57.762 20.639 l
57.838 19.924 l
57.915 19.57 l
57.991 19.581 l
58.067 19.958 l
58.143 20.7 l
58.219 21.805 l
58.295 23.266 l
58.371 25.077 l
58.447 27.227 l
58.523 29.703 l
58.599 32.492 l
58.675 35.577 l
58.751 38.94 l
58.827 42.56 l
58.903 46.415 l
59.056 54.736 l
59.36 73.076 l
59.431 77.529 l
59.502 81.998 l
59.644 90.882 l
59.715 95.248 l
59.786 99.531 l
59.928 107.752 l
59.999 111.643 l
60.07 115.359 l
60.141 118.878 l
60.212 122.179 l
60.283 125.245 l
60.354 128.057 l
60.425 130.599 l
60.496 132.856 l
60.567 134.814 l
60.638 136.461 l
60.709 137.789 l
60.78 138.787 l
60.851 139.45 l
60.922 139.772 l
60.993 139.751 l
61.064 139.387 l
61.135 138.679 l
61.206 137.631 l
61.277 136.248 l
61.348 134.536 l
61.419 132.503 l
61.49 130.16 l
61.561 127.519 l
61.632 124.594 l
61.703 121.4 l
61.774 117.954 l
61.916 110.381 l
61.987 106.294 l
62.058 102.036 l
62.2 93.1 l
62.271 88.47 l
62.342 83.767 l
62.484 74.242 l
62.768 55.455 l
62.839 50.965 l
62.91 46.609 l
63.052 38.396 l
63.123 34.585 l
63.194 31 l
63.265 27.661 l
63.336 24.589 l
63.407 21.799 l
63.478 19.309 l
63.549 17.132 l
63.62 15.283 l
63.691 13.77 l
63.762 12.605 l
63.833 11.794 l
63.904 11.342 l
63.98 11.262 l
64.057 11.609 l
64.134 12.383 l
64.211 13.579 l
64.288 15.19 l
64.365 17.208 l
64.442 19.62 l
64.519 22.411 l
64.596 25.564 l
64.673 29.059 l
64.75 32.874 l
64.827 36.987 l
64.904 41.369 l
64.981 45.994 l
65.135 55.853 l
65.211 61.023 l
65.288 66.31 l
65.442 77.097 l
65.519 82.527 l
65.596 87.935 l
65.75 98.544 l
65.827 103.676 l
65.904 108.648 l
65.981 113.427 l
66.058 117.981 l
66.135 122.282 l
66.212 126.301 l
66.289 130.01 l
66.366 133.386 l
66.442 136.405 l
66.519 139.048 l
66.596 141.297 l
66.673 143.137 l
66.75 144.554 l
66.827 145.539 l
66.904 146.085 l
66.981 146.188 l
67.058 145.846 l
67.135 145.06 l
67.212 143.836 l
67.289 142.18 l
67.366 140.102 l
67.443 137.616 l
67.52 134.736 l
67.597 131.481 l
67.674 127.871 l
67.75 123.93 l
67.904 115.154 l
67.981 110.376 l
68.058 105.377 l
68.212 94.851 l
68.289 89.39 l
68.366 83.845 l
68.52 72.643 l
68.828 50.812 l
68.903 45.772 l
68.979 40.924 l
69.054 36.298 l
69.13 31.922 l
69.205 27.825 l
69.281 24.032 l
69.356 20.568 l
69.432 17.454 l
69.507 14.71 l
69.583 12.354 l
69.658 10.401 l
69.734 8.863 l
69.81 7.75 l
69.885 7.07 l
69.961 6.827 l
70.036 7.024 l
70.112 7.659 l
70.187 8.728 l
70.263 10.226 l
70.338 12.143 l
70.414 14.468 l
70.489 17.186 l
70.565 20.281 l
70.64 23.734 l
70.716 27.523 l
70.791 31.625 l
70.943 40.664 l
71.018 45.545 l
71.094 50.627 l
71.245 61.267 l
71.32 66.758 l
71.396 72.318 l
71.547 83.506 l
71.622 89.064 l
71.698 94.551 l
71.849 105.178 l
71.925 110.25 l
72 115.12 l
72.076 119.757 l
72.151 124.131 l
72.227 128.215 l
72.302 131.983 l
72.378 135.413 l
72.453 138.482 l
72.529 141.171 l
72.604 143.463 l
72.68 145.344 l
72.755 146.803 l
72.831 147.829 l
72.906 148.416 l
72.982 148.562 l
73.058 148.264 l
73.133 147.524 l
73.209 146.348 l
73.284 144.742 l
73.36 142.717 l
73.435 140.284 l
73.511 137.461 l
73.586 134.263 l
73.662 130.711 l
73.732 127.098 l
73.803 123.216 l
73.944 114.73 l
74.014 110.173 l
74.085 105.438 l
74.225 95.542 l
74.296 90.435 l
74.366 85.257 l
74.507 74.805 l
74.789 54.31 l
74.86 49.434 l
74.93 44.711 l
75.001 40.167 l
75.071 35.826 l
75.141 31.711 l
75.212 27.846 l
75.282 24.25 l
75.353 20.944 l
75.423 17.944 l
75.494 15.268 l
75.564 12.93 l
75.635 10.942 l
75.705 9.314 l
75.776 8.056 l
75.846 7.174 l
75.916 6.673 l
75.987 6.555 l
76.057 6.821 l
76.128 7.468 l
76.198 8.494 l
76.269 9.892 l
76.339 11.654 l
76.41 13.771 l
76.48 16.231 l
76.551 19.021 l
76.621 22.124 l
76.692 25.524 l
76.762 29.202 l
76.832 33.139 l
76.903 37.311 l
77.044 46.273 l
77.114 51.013 l
77.185 55.892 l
77.326 65.959 l
77.607 86.552 l
77.678 91.633 l
77.748 96.632 l
77.889 106.276 l
77.96 110.868 l
78.03 115.274 l
78.171 123.433 l
78.248 127.443 l
78.324 131.129 l
78.4 134.468 l
78.477 137.44 l
78.553 140.025 l
78.63 142.208 l
78.706 143.975 l
78.782 145.316 l
78.859 146.223 l
78.935 146.69 l
79.012 146.714 l
79.088 146.298 l
79.164 145.443 l
79.241 144.156 l
79.317 142.446 l
79.394 140.324 l
79.47 137.804 l
79.546 134.904 l
79.623 131.642 l
79.699 128.04 l
79.776 124.12 l
79.852 119.91 l
80.005 110.727 l
80.081 105.813 l
80.158 100.727 l
80.31 90.169 l
80.616 68.466 l
80.692 63.12 l
80.769 57.875 l
80.922 47.82 l
80.998 43.074 l
81.074 38.554 l
81.227 30.311 l
81.304 26.638 l
81.38 23.295 l
81.456 20.304 l
81.533 17.682 l
81.609 15.446 l
81.686 13.608 l
81.762 12.18 l
81.838 11.17 l
81.915 10.584 l
81.991 10.424 l
82.068 10.69 l
82.144 11.381 l
82.22 12.489 l
82.297 14.008 l
82.373 15.927 l
82.45 18.232 l
82.526 20.909 l
82.602 23.938 l
82.679 27.3 l
82.755 30.972 l
82.832 34.931 l
82.908 39.15 l
83.061 48.257 l
83.132 52.761 l
83.204 57.39 l
83.346 66.92 l
83.632 86.318 l
83.703 91.08 l
83.774 95.754 l
83.917 104.734 l
83.988 108.991 l
84.059 113.062 l
84.202 120.556 l
84.273 123.939 l
84.345 127.054 l
84.416 129.885 l
84.487 132.417 l
84.559 134.636 l
84.63 136.532 l
84.701 138.094 l
84.773 139.315 l
84.844 140.188 l
84.915 140.711 l
84.987 140.88 l
85.058 140.697 l
85.129 140.163 l
85.201 139.282 l
85.272 138.06 l
85.343 136.505 l
85.415 134.627 l
85.486 132.437 l
85.557 129.948 l
85.629 127.175 l
85.7 124.134 l
85.771 120.843 l
85.914 113.59 l
85.985 109.668 l
86.057 105.581 l
86.199 96.999 l
86.485 78.903 l
86.556 74.332 l
86.627 69.793 l
86.77 60.914 l
86.841 56.621 l
86.912 52.459 l
87.055 44.615 l
87.126 40.975 l
87.198 37.55 l
87.269 34.359 l
87.34 31.417 l
87.412 28.741 l
87.483 26.345 l
87.554 24.241 l
87.626 22.439 l
87.696 20.975 l
87.766 19.817 l
87.836 18.97 l
87.905 18.437 l
87.975 18.221 l
88.045 18.321 l
88.115 18.736 l
88.185 19.462 l
88.255 20.493 l
88.325 21.824 l
88.395 23.446 l
88.465 25.349 l
88.535 27.522 l
88.605 29.953 l
88.675 32.626 l
88.744 35.527 l
88.814 38.64 l
88.884 41.947 l
89.024 49.067 l
89.304 64.768 l
89.374 68.873 l
89.444 73.006 l
89.584 81.267 l
89.863 97.154 l
89.933 100.87 l
90.003 104.445 l
90.073 107.859 l
90.143 111.095 l
90.213 114.137 l
90.283 116.968 l
90.353 119.576 l
90.423 121.946 l
90.493 124.068 l
90.562 125.93 l
90.632 127.525 l
90.702 128.845 l
90.772 129.884 l
90.842 130.638 l
90.912 131.104 l
90.982 131.281 l
91.052 131.169 l
91.122 130.772 l
91.192 130.091 l
91.262 129.132 l
91.332 127.902 l
91.402 126.409 l
91.471 124.661 l
91.541 122.67 l
91.611 120.448 l
91.681 118.006 l
91.821 112.527 l
91.891 109.519 l
91.961 106.356 l
92.101 99.634 l
92.177 95.809 l
92.253 91.89 l
92.404 83.874 l
92.48 79.827 l
92.556 75.789 l
92.708 67.84 l
92.784 63.978 l
92.859 60.224 l
93.011 53.131 l
93.087 49.834 l
93.163 46.731 l
93.239 43.839 l
93.315 41.177 l
93.39 38.758 l
93.466 36.598 l
93.542 34.707 l
93.618 33.097 l
93.694 31.775 l
93.77 30.749 l
93.846 30.021 l
93.922 29.597 l
93.997 29.475 l
94.073 29.654 l
94.149 30.132 l
94.225 30.904 l
94.301 31.962 l
94.377 33.299 l
94.453 34.903 l
94.528 36.762 l
94.604 38.864 l
94.68 41.192 l
94.832 46.465 l
94.908 49.372 l
94.984 52.434 l
95.135 58.941 l
95.211 62.342 l
95.287 65.812 l
95.439 72.871 l
95.742 86.829 l
95.818 90.157 l
95.894 93.379 l
95.97 96.475 l
96.046 99.427 l
96.122 102.216 l
96.198 104.827 l
96.273 107.244 l
96.349 109.454 l
96.425 111.444 l
96.501 113.203 l
96.577 114.723 l
96.653 115.995 l
96.729 117.013 l
96.804 117.774 l
96.88 118.274 l
96.956 118.512 l
97.027 118.499 l
97.098 118.261 l
97.169 117.801 l
97.239 117.123 l
97.31 116.232 l
97.381 115.136 l
97.452 113.842 l
97.523 112.359 l
97.593 110.697 l
97.664 108.866 l
97.806 104.745 l
97.876 102.48 l
97.947 100.097 l
98.089 95.035 l
98.16 92.385 l
98.23 89.676 l
98.372 84.144 l
98.655 73.059 l
98.726 70.372 l
98.797 67.749 l
98.938 62.749 l
99.009 60.398 l
99.08 58.163 l
99.221 54.083 l
99.292 52.259 l
99.363 50.591 l
99.434 49.087 l
99.505 47.752 l
99.575 46.594 l
99.646 45.616 l
99.717 44.823 l
99.788 44.216 l
99.859 43.798 l
99.929 43.569 l
100 43.527 l
100.071 43.672 l
100.142 44.001 l
100.213 44.51 l
100.283 45.193 l
100.354 46.047 l
100.425 47.063 l
100.496 48.234 l
100.566 49.553 l
100.637 51.011 l
100.708 52.597 l
100.779 54.301 l
100.92 58.021 l
100.991 60.014 l
101.062 62.079 l
101.204 66.376 l
101.487 75.287 l
101.563 77.692 l
101.64 80.063 l
101.794 84.642 l
101.87 86.821 l
101.947 88.91 l
102.101 92.764 l
102.177 94.507 l
102.254 96.114 l
102.331 97.576 l
102.408 98.887 l
102.484 100.038 l
102.561 101.026 l
102.638 101.846 l
102.714 102.494 l
102.791 102.969 l
102.868 103.271 l
102.945 103.4 l
103.021 103.358 l
103.098 103.148 l
103.175 102.773 l
103.252 102.24 l
103.328 101.553 l
103.405 100.72 l
103.482 99.748 l
103.559 98.647 l
103.635 97.426 l
103.712 96.095 l
103.789 94.664 l
103.942 91.55 l
104.019 89.89 l
104.096 88.178 l
104.249 84.646 l
104.556 77.499 l
104.633 75.765 l
104.71 74.075 l
104.863 70.867 l
104.94 69.37 l
105.016 67.955 l
105.093 66.63 l
105.17 65.403 l
105.247 64.281 l
105.323 63.268 l
105.4 62.369 l
105.477 61.588 l
105.554 60.929 l
105.63 60.392 l
105.707 59.98 l
105.784 59.691 l
105.861 59.526 l
105.937 59.483 l
106.014 59.56 l
106.091 59.752 l
106.167 60.057 l
106.244 60.47 l
106.321 60.985 l
106.398 61.596 l
106.473 62.283 l
106.548 63.05 l
106.624 63.889 l
106.699 64.794 l
106.774 65.757 l
106.85 66.768 l
107 68.908 l
107.076 70.019 l
107.151 71.147 l
107.302 73.42 l
107.603 77.815 l
107.678 78.84 l
107.754 79.823 l
107.829 80.758 l
107.904 81.639 l
107.98 82.463 l
108.055 83.225 l
108.13 83.921 l
108.206 84.548 l
108.281 85.104 l
108.356 85.588 l
108.432 85.998 l
108.507 86.334 l
108.582 86.595 l
108.658 86.782 l
108.733 86.897 l
108.808 86.942 l
108.884 86.917 l
108.959 86.827 l
109.034 86.674 l
109.11 86.462 l
109.185 86.195 l
109.26 85.877 l
109.336 85.513 l
109.411 85.107 l
109.486 84.665 l
109.562 84.192 l
109.712 83.174 l
110.014 80.999 l
110.089 80.457 l
110.164 79.925 l
110.315 78.91 l
110.39 78.436 l
110.466 77.988 l
110.541 77.569 l
110.616 77.184 l
110.692 76.833 l
110.767 76.519 l
110.842 76.245 l
110.918 76.009 l
110.993 75.814 l
111.068 75.66 l
111.143 75.545 l
111.219 75.47 l
111.289 75.435 l
111.359 75.432 l
111.43 75.46 l
111.5 75.517 l
111.57 75.601 l
111.64 75.709 l
111.711 75.84 l
111.781 75.99 l
111.851 76.156 l
111.921 76.336 l
112.062 76.725 l
112.132 76.928 l
112.202 77.131 l
112.343 77.527 l
112.413 77.713 l
112.483 77.888 l
112.554 78.048 l
112.624 78.19 l
112.694 78.312 l
112.764 78.411 l
112.835 78.486 l
112.905 78.533 l
112.975 78.552 l
113.045 78.54 l
113.116 78.498 l
113.186 78.423 l
113.256 78.316 l
113.326 78.175 l
113.397 78.002 l
113.467 77.796 l
113.537 77.559 l
113.607 77.291 l
113.678 76.994 l
113.748 76.67 l
113.818 76.32 l
113.888 75.947 l
114.029 75.143 l
114.099 74.718 l
114.169 74.281 l
114.31 73.389 l
114.591 71.635 l
114.661 71.227 l
114.732 70.839 l
114.802 70.475 l
114.872 70.14 l
114.942 69.836 l
115.013 69.569 l
115.083 69.341 l
115.153 69.156 l
115.223 69.017 l
115.294 68.927 l
115.364 68.889 l
115.434 68.904 l
115.504 68.975 l
115.575 69.104 l
115.645 69.291 l
115.715 69.538 l
115.791 69.873 l
115.867 70.279 l
115.944 70.755 l
116.02 71.299 l
116.096 71.91 l
116.172 72.585 l
116.325 74.116 l
116.401 74.964 l
116.477 75.861 l
116.629 77.779 l
116.934 81.941 l
117.01 83.007 l
117.087 84.069 l
117.239 86.147 l
117.315 87.147 l
117.391 88.11 l
117.544 89.892 l
117.62 90.697 l
117.696 91.433 l
117.772 92.094 l
117.849 92.673 l
117.925 93.164 l
118.001 93.561 l
118.077 93.859 l
118.153 94.053 l
118.23 94.14 l
118.306 94.117 l
118.382 93.979 l
118.458 93.727 l
118.534 93.359 l
118.611 92.875 l
118.687 92.276 l
118.763 91.563 l
118.839 90.739 l
118.915 89.806 l
118.992 88.77 l
119.068 87.634 l
119.144 86.405 l
119.22 85.089 l
119.373 82.226 l
119.449 80.695 l
119.525 79.11 l
119.677 75.818 l
119.982 69.044 l
120.058 67.377 l
120.135 65.743 l
120.287 62.624 l
120.363 61.162 l
120.439 59.779 l
120.516 58.486 l
120.592 57.293 l
120.663 56.279 l
120.734 55.369 l
120.805 54.569 l
120.876 53.886 l
120.947 53.326 l
121.018 52.893 l
121.09 52.593 l
121.161 52.429 l
121.232 52.404 l
121.303 52.52 l
121.374 52.78 l
121.445 53.182 l
121.516 53.728 l
121.587 54.416 l
121.659 55.244 l
121.73 56.209 l
121.801 57.308 l
121.872 58.537 l
121.943 59.889 l
122.014 61.359 l
122.085 62.94 l
122.156 64.625 l
122.299 68.271 l
122.37 70.214 l
122.441 72.223 l
122.583 76.397 l
122.868 85.045 l
122.939 87.199 l
123.01 89.324 l
123.152 93.44 l
123.223 95.407 l
123.294 97.295 l
123.437 100.793 l
123.508 102.381 l
123.579 103.846 l
123.65 105.18 l
123.721 106.373 l
123.792 107.417 l
123.863 108.305 l
123.934 109.028 l
124.006 109.583 l
124.077 109.962 l
124.148 110.163 l
124.219 110.182 l
124.29 110.017 l
124.361 109.667 l
124.432 109.132 l
124.503 108.414 l
124.574 107.513 l
124.646 106.434 l
124.717 105.18 l
124.788 103.758 l
124.859 102.172 l
124.93 100.432 l
125.001 98.544 l
125.143 94.365 l
125.22 91.899 l
125.298 89.312 l
125.452 83.834 l
125.76 72.163 l
125.837 69.206 l
125.914 66.272 l
126.068 60.552 l
126.145 57.806 l
126.222 55.16 l
126.376 50.245 l
126.454 48.011 l
126.531 45.947 l
126.608 44.07 l
126.685 42.393 l
126.762 40.929 l
126.839 39.69 l
126.916 38.687 l
126.993 37.928 l
127.07 37.42 l
127.147 37.169 l
127.224 37.18 l
127.301 37.453 l
127.378 37.991 l
127.455 38.791 l
127.532 39.851 l
127.61 41.166 l
127.687 42.73 l
127.764 44.534 l
127.841 46.568 l
127.918 48.822 l
127.995 51.281 l
128.072 53.933 l
128.226 59.745 l
128.303 62.87 l
128.38 66.117 l
128.534 72.889 l
128.843 86.935 l
128.92 90.418 l
128.997 93.843 l
129.151 100.427 l
129.228 103.541 l
129.305 106.509 l
129.459 111.92 l
129.536 114.326 l
129.613 116.509 l
129.69 118.451 l
129.767 120.14 l
129.844 121.562 l
129.921 122.706 l
129.999 123.562 l
130.076 124.123 l
130.151 124.38 l
130.227 124.343 l
130.303 124.01 l
130.378 123.382 l
130.454 122.459 l
130.53 121.247 l
130.605 119.751 l
130.681 117.978 l
130.757 115.937 l
130.832 113.641 l
130.908 111.101 l
130.984 108.332 l
131.059 105.351 l
131.135 102.174 l
131.286 95.312 l
131.362 91.667 l
131.437 87.91 l
131.589 80.149 l
131.891 64.326 l
131.967 60.453 l
132.043 56.663 l
132.194 49.429 l
132.27 46.032 l
132.345 42.813 l
132.421 39.791 l
132.497 36.988 l
132.572 34.422 l
132.648 32.112 l
132.724 30.072 l
132.799 28.318 l
132.875 26.862 l
132.951 25.716 l
133.026 24.887 l
133.102 24.383 l
133.178 24.209 l
133.253 24.367 l
133.329 24.86 l
133.405 25.684 l
133.48 26.838 l
133.556 28.315 l
133.632 30.107 l
133.707 32.206 l
133.783 34.599 l
133.859 37.273 l
133.934 40.212 l
134.01 43.4 l
134.086 46.816 l
134.161 50.442 l
134.313 58.233 l
134.388 62.35 l
134.464 66.581 l
134.615 75.283 l
134.918 92.874 l
134.988 96.866 l
135.059 100.769 l
135.2 108.22 l
135.271 111.728 l
135.341 115.062 l
135.483 121.139 l
135.553 123.846 l
135.624 126.311 l
135.694 128.519 l
135.765 130.457 l
135.836 132.113 l
135.906 133.477 l
135.977 134.54 l
136.047 135.296 l
136.118 135.739 l
136.188 135.865 l
136.259 135.672 l
136.33 135.161 l
136.4 134.332 l
136.471 133.19 l
136.541 131.738 l
136.612 129.985 l
136.683 127.937 l
136.753 125.606 l
136.824 123.003 l
136.894 120.142 l
136.965 117.036 l
137.035 113.703 l
137.177 106.424 l
137.247 102.516 l
137.318 98.457 l
137.459 89.974 l
137.741 72.192 l
137.812 67.717 l
137.882 63.279 l
138.024 54.614 l
138.094 50.433 l
138.165 46.386 l
138.306 38.779 l
138.377 35.263 l
138.447 31.964 l
138.518 28.903 l
138.588 26.096 l
138.659 23.559 l
138.729 21.307 l
138.8 19.354 l
138.871 17.712 l
138.941 16.389 l
139.012 15.394 l
139.082 14.734 l
139.153 14.414 l
139.224 14.435 l
139.294 14.8 l
139.365 15.506 l
139.435 16.552 l
139.512 18.063 l
139.588 19.959 l
139.665 22.229 l
139.741 24.859 l
139.818 27.834 l
139.895 31.135 l
139.971 34.742 l
140.048 38.632 l
140.124 42.783 l
140.201 47.167 l
140.354 56.526 l
140.66 76.755 l
140.736 81.941 l
140.813 87.111 l
140.966 97.275 l
141.042 102.202 l
141.119 106.984 l
141.272 115.986 l
141.349 120.148 l
141.425 124.047 l
141.502 127.657 l
141.578 130.954 l
141.655 133.917 l
141.731 136.525 l
141.808 138.761 l
141.884 140.609 l
141.961 142.057 l
142.037 143.095 l
142.114 143.714 l
142.19 143.91 l
142.267 143.68 l
142.343 143.025 l
142.42 141.949 l
142.496 140.457 l
142.573 138.557 l
142.65 136.262 l
142.726 133.585 l
142.803 130.541 l
142.879 127.151 l
142.956 123.435 l
143.109 115.12 l
143.185 110.573 l
143.262 105.804 l
143.415 95.723 l
143.721 74.299 l
143.797 68.879 l
143.874 63.503 l
144.027 53.021 l
144.104 47.983 l
144.18 43.124 l
144.333 34.066 l
144.405 30.192 l
144.476 26.576 l
144.548 23.236 l
144.619 20.194 l
144.69 17.465 l
144.762 15.066 l
144.833 13.011 l
144.905 11.311 l
144.976 9.978 l
145.048 9.018 l
145.119 8.438 l
145.191 8.242 l
145.262 8.43 l
145.334 9.004 l
145.405 9.959 l
145.476 11.292 l
145.548 12.995 l
145.619 15.059 l
145.691 17.473 l
145.762 20.224 l
145.834 23.297 l
145.905 26.676 l
146.048 34.274 l
146.119 38.452 l
146.191 42.851 l
146.334 52.217 l
146.62 72.474 l
146.691 77.692 l
146.763 82.914 l
146.905 93.253 l
146.977 98.311 l
147.048 103.258 l
147.191 112.706 l
147.263 117.154 l
147.334 121.385 l
147.406 125.374 l
147.477 129.099 l
147.549 132.539 l
147.62 135.674 l
147.691 138.487 l
147.763 140.961 l
147.834 143.083 l
147.906 144.84 l
147.977 146.223 l
148.049 147.223 l
148.12 147.834 l
148.192 148.053 l
148.263 147.878 l
148.335 147.31 l
148.406 146.352 l
148.477 145.009 l
148.549 143.288 l
148.62 141.198 l
148.692 138.751 l
148.763 135.961 l
148.835 132.843 l
148.906 129.414 l
148.976 125.768 l
149.046 121.862 l
149.186 113.35 l
149.256 108.791 l
149.326 104.061 l
149.467 94.192 l
149.537 89.106 l
149.607 83.956 l
149.747 73.571 l
150.027 53.245 l
150.097 48.416 l
150.167 43.74 l
150.237 39.244 l
150.307 34.951 l
150.377 30.884 l
150.447 27.065 l
150.517 23.515 l
150.587 20.253 l
150.657 17.296 l
150.727 14.661 l
150.797 12.361 l
150.867 10.409 l
150.938 8.815 l
151.008 7.589 l
151.078 6.736 l
151.148 6.261 l
151.218 6.167 l
151.288 6.454 l
151.358 7.12 l
151.428 8.163 l
151.498 9.577 l
151.568 11.353 l
151.638 13.483 l
151.708 15.954 l
151.778 18.754 l
151.848 21.868 l
151.918 25.278 l
151.988 28.966 l
152.058 32.913 l
152.128 37.098 l
152.268 46.087 l
152.339 50.843 l
152.409 55.74 l
152.549 65.851 l
152.829 86.57 l
152.899 91.691 l
152.969 96.734 l
153.109 106.475 l
153.179 111.122 l
153.249 115.586 l
153.389 123.871 l
153.465 127.956 l
153.541 131.72 l
153.617 135.139 l
153.693 138.193 l
153.769 140.861 l
153.845 143.128 l
153.921 144.979 l
153.997 146.402 l
154.073 147.39 l
154.149 147.936 l
154.225 148.037 l
154.301 147.693 l
154.377 146.906 l
154.453 145.681 l
154.529 144.028 l
154.605 141.955 l
154.681 139.478 l
154.757 136.611 l
154.833 133.374 l
154.909 129.787 l
154.985 125.873 l
155.061 121.657 l
155.213 112.429 l
155.289 107.476 l
155.365 102.339 l
155.517 91.641 l
155.821 69.517 l
155.897 64.038 l
155.973 58.649 l
156.125 48.279 l
156.201 43.361 l
156.277 38.664 l
156.429 30.048 l
156.505 26.182 l
156.581 22.643 l
156.657 19.454 l
156.733 16.634 l
156.809 14.2 l
156.885 12.168 l
156.961 10.549 l
157.037 9.353 l
157.113 8.588 l
157.189 8.256 l
157.265 8.361 l
157.341 8.9 l
157.417 9.869 l
157.493 11.262 l
157.569 13.069 l
157.645 15.278 l
157.721 17.874 l
157.797 20.841 l
157.873 24.159 l
157.949 27.806 l
158.025 31.759 l
158.101 35.992 l
158.253 45.19 l
158.324 49.762 l
158.395 54.477 l
158.536 64.234 l
158.82 84.287 l
158.891 89.252 l
158.962 94.143 l
159.104 103.594 l
159.175 108.103 l
159.246 112.436 l
159.387 120.476 l
159.458 124.14 l
159.529 127.541 l
159.6 130.659 l
159.671 133.479 l
159.742 135.986 l
159.813 138.166 l
159.884 140.007 l
159.955 141.502 l
160.026 142.642 l
160.097 143.421 l
160.168 143.836 l
160.238 143.886 l
160.309 143.57 l
160.38 142.893 l
160.451 141.857 l
160.522 140.471 l
160.593 138.741 l
160.664 136.678 l
160.735 134.295 l
160.806 131.606 l
160.877 128.625 l
160.948 125.37 l
161.089 118.113 l
161.16 114.152 l
161.231 110 l
161.373 101.212 l
161.657 82.408 l
161.728 77.603 l
161.799 72.809 l
161.94 63.359 l
162.011 58.756 l
162.082 54.266 l
162.224 45.727 l
162.295 41.724 l
162.366 37.927 l
162.437 34.356 l
162.508 31.032 l
162.579 27.971 l
162.65 25.19 l
162.721 22.703 l
162.791 20.522 l
162.868 18.519 l
162.945 16.9 l
163.022 15.677 l
163.099 14.854 l
163.176 14.437 l
163.253 14.426 l
163.329 14.821 l
163.406 15.618 l
163.483 16.809 l
163.56 18.387 l
163.637 20.339 l
163.714 22.652 l
163.791 25.309 l
163.867 28.293 l
163.944 31.582 l
164.021 35.154 l
164.098 38.986 l
164.175 43.051 l
164.329 51.773 l
164.636 70.754 l
164.713 75.639 l
164.79 80.517 l
164.943 90.125 l
165.02 94.794 l
165.097 99.333 l
165.251 107.904 l
165.328 111.883 l
165.405 115.624 l
165.482 119.104 l
165.558 122.301 l
165.635 125.195 l
165.712 127.77 l
165.789 130.009 l
165.866 131.9 l
165.943 133.432 l
166.02 134.596 l
166.096 135.387 l
166.173 135.8 l
166.25 135.836 l
166.327 135.494 l
166.404 134.78 l
166.481 133.699 l
166.558 132.26 l
166.634 130.473 l
166.711 128.353 l
166.788 125.913 l
166.865 123.172 l
166.942 120.148 l
167.096 113.337 l
167.172 109.597 l
167.249 105.666 l
167.403 97.34 l
167.71 79.618 l
167.786 75.214 l
167.861 70.845 l
168.012 62.318 l
168.088 58.213 l
168.163 54.247 l
168.314 46.828 l
168.39 43.42 l
168.465 40.239 l
168.54 37.305 l
168.616 34.635 l
168.691 32.244 l
168.767 30.146 l
168.842 28.351 l
168.918 26.871 l
168.993 25.712 l
169.069 24.88 l
169.144 24.378 l
169.22 24.209 l
169.295 24.37 l
169.371 24.859 l
169.446 25.672 l
169.521 26.802 l
169.597 28.239 l
169.672 29.974 l
169.748 31.993 l
169.823 34.282 l
169.899 36.827 l
169.974 39.608 l
170.125 45.807 l
170.201 49.183 l
170.276 52.714 l
170.427 60.15 l
170.729 75.837 l
170.804 79.784 l
170.88 83.692 l
171.031 91.293 l
171.106 94.94 l
171.181 98.456 l
171.332 105.006 l
171.408 108.002 l
171.483 110.788 l
171.559 113.349 l
171.634 115.67 l
171.71 117.737 l
171.785 119.539 l
171.861 121.068 l
171.936 122.314 l
172.011 123.273 l
172.087 123.941 l
172.162 124.314 l
172.238 124.393 l
172.313 124.179 l
172.389 123.675 l
172.464 122.887 l
172.54 121.822 l
172.61 120.586 l
172.68 119.124 l
172.751 117.446 l
172.821 115.563 l
172.892 113.486 l
172.962 111.227 l
173.103 106.221 l
173.173 103.503 l
173.243 100.662 l
173.384 94.679 l
173.666 81.987 l
173.736 78.765 l
173.807 75.56 l
173.947 69.265 l
174.018 66.21 l
174.088 63.238 l
174.229 57.605 l
174.299 54.973 l
174.37 52.483 l
174.44 50.146 l
174.51 47.975 l
174.581 45.98 l
174.651 44.171 l
174.721 42.555 l
174.792 41.141 l
174.862 39.934 l
174.933 38.939 l
175.003 38.161 l
175.073 37.601 l
175.144 37.262 l
175.214 37.142 l
175.285 37.241 l
175.355 37.557 l
175.425 38.085 l
175.496 38.823 l
175.566 39.762 l
175.636 40.898 l
175.707 42.221 l
175.777 43.724 l
175.848 45.396 l
175.918 47.226 l
175.988 49.204 l
176.059 51.317 l
176.199 55.897 l
176.481 66.085 l
176.551 68.762 l
176.622 71.46 l
176.763 76.862 l
177.044 87.279 l
177.12 89.923 l
177.197 92.46 l
177.273 94.873 l
177.349 97.148 l
177.426 99.273 l
177.502 101.235 l
177.578 103.023 l
177.655 104.627 l
177.731 106.039 l
177.807 107.253 l
177.884 108.262 l
177.96 109.062 l
178.036 109.651 l
178.113 110.026 l
178.189 110.189 l
178.265 110.14 l
178.342 109.882 l
178.418 109.42 l
178.494 108.758 l
178.571 107.903 l
178.647 106.864 l
178.723 105.649 l
178.799 104.268 l
178.876 102.733 l
178.952 101.054 l
179.028 99.245 l
179.181 95.291 l
179.486 86.442 l
179.563 84.122 l
179.639 81.791 l
179.792 77.153 l
179.868 74.877 l
179.944 72.649 l
180.097 68.389 l
180.173 66.385 l
180.25 64.479 l
180.326 62.684 l
180.402 61.01 l
180.479 59.465 l
180.555 58.059 l
180.631 56.797 l
180.708 55.687 l
180.784 54.733 l
180.86 53.94 l
180.937 53.309 l
181.013 52.843 l
181.089 52.542 l
181.166 52.406 l
181.242 52.432 l
181.318 52.619 l
181.394 52.962 l
181.471 53.456 l
181.547 54.097 l
181.623 54.876 l
181.7 55.787 l
181.776 56.822 l
181.852 57.971 l
181.929 59.225 l
182 60.482 l
182.071 61.812 l
182.214 64.66 l
182.499 70.837 l
182.57 72.427 l
182.641 74.015 l
182.784 77.153 l
183.069 83.029 l
183.14 84.368 l
183.211 85.64 l
183.282 86.841 l
183.354 87.963 l
183.425 89.003 l
183.496 89.954 l
183.567 90.814 l
183.639 91.58 l
183.71 92.248 l
183.781 92.816 l
183.852 93.284 l
183.924 93.65 l
183.995 93.915 l
184.066 94.079 l
184.137 94.144 l
184.209 94.11 l
184.28 93.981 l
184.351 93.76 l
184.422 93.449 l
184.494 93.053 l
184.565 92.576 l
184.636 92.023 l
184.707 91.399 l
184.779 90.71 l
184.85 89.961 l
184.921 89.159 l
185.064 87.418 l
185.349 83.579 l
185.42 82.583 l
185.491 81.586 l
185.634 79.613 l
185.705 78.648 l
185.776 77.707 l
185.919 75.913 l
185.99 75.071 l
186.061 74.271 l
186.132 73.517 l
186.204 72.812 l
186.275 72.16 l
186.346 71.564 l
186.417 71.025 l
186.489 70.545 l
186.558 70.133 l
186.628 69.78 l
186.698 69.487 l
186.768 69.253 l
186.838 69.077 l
186.908 68.959 l
186.978 68.898 l
187.047 68.891 l
187.117 68.937 l
187.187 69.034 l
187.257 69.179 l
187.327 69.369 l
187.397 69.601 l
187.466 69.872 l
187.536 70.177 l
187.606 70.514 l
187.676 70.879 l
187.746 71.267 l
187.885 72.098 l
188.165 73.866 l
188.235 74.307 l
188.305 74.741 l
188.444 75.571 l
188.514 75.961 l
188.584 76.331 l
188.724 77 l
188.793 77.295 l
188.863 77.561 l
188.933 77.797 l
189.003 78.001 l
189.073 78.174 l
189.143 78.314 l
189.213 78.421 l
189.282 78.496 l
189.352 78.539 l
189.422 78.552 l
189.492 78.534 l
189.562 78.489 l
189.632 78.416 l
189.701 78.319 l
189.771 78.199 l
189.841 78.059 l
189.911 77.901 l
189.981 77.729 l
190.12 77.351 l
190.19 77.152 l
190.26 76.95 l
190.4 76.551 l
190.47 76.36 l
190.54 76.179 l
190.609 76.012 l
190.679 75.86 l
190.749 75.727 l
190.819 75.616 l
190.889 75.529 l
190.959 75.468 l
191.034 75.434 l
191.11 75.435 l
191.186 75.474 l
191.262 75.552 l
191.338 75.67 l
191.413 75.829 l
191.489 76.028 l
191.565 76.269 l
191.641 76.549 l
191.717 76.869 l
191.792 77.225 l
191.868 77.617 l
191.944 78.042 l
192.02 78.496 l
192.171 79.481 l
192.247 80.004 l
192.323 80.541 l
192.474 81.639 l
192.55 82.191 l
192.626 82.737 l
192.778 83.791 l
192.853 84.288 l
192.929 84.758 l
193.005 85.196 l
193.081 85.595 l
193.156 85.952 l
193.232 86.26 l
193.308 86.517 l
193.384 86.716 l
193.46 86.855 l
193.535 86.93 l
193.611 86.937 l
193.687 86.874 l
193.763 86.739 l
193.839 86.53 l
193.914 86.246 l
193.99 85.887 l
194.066 85.453 l
194.142 84.945 l
194.218 84.363 l
194.293 83.71 l
194.369 82.989 l
194.445 82.202 l
194.596 80.448 l
194.672 79.491 l
194.748 78.486 l
194.9 76.362 l
195.203 71.844 l
195.279 70.704 l
195.354 69.574 l
195.506 67.385 l
195.582 66.342 l
195.657 65.344 l
195.809 63.516 l
195.88 62.755 l
195.95 62.06 l
196.021 61.437 l
196.092 60.891 l
196.163 60.429 l
196.233 60.053 l
196.304 59.769 l
196.375 59.581 l
196.445 59.49 l
196.516 59.5 l
196.587 59.614 l
196.658 59.831 l
196.728 60.154 l
196.799 60.583 l
196.87 61.117 l
196.94 61.754 l
197.011 62.494 l
197.082 63.334 l
197.153 64.271 l
197.223 65.3 l
197.294 66.419 l
197.365 67.622 l
197.506 70.256 l
197.577 71.675 l
197.648 73.153 l
197.789 76.254 l
198.072 82.798 l
198.143 84.452 l
198.213 86.095 l
198.355 89.307 l
198.425 90.856 l
198.496 92.355 l
198.638 95.164 l
198.708 96.456 l
198.779 97.661 l
198.85 98.771 l
198.92 99.778 l
198.991 100.674 l
199.062 101.454 l
199.132 102.11 l
199.203 102.637 l
199.274 103.03 l
199.345 103.286 l
199.415 103.4 l
199.486 103.369 l
199.557 103.193 l
199.627 102.869 l
199.698 102.399 l
199.769 101.781 l
199.84 101.019 l
199.91 100.113 l
199.981 99.068 l
200.052 97.888 l
200.122 96.577 l
200.193 95.141 l
200.335 91.921 l
200.411 89.999 l
200.488 87.968 l
200.641 83.624 l
200.948 74.197 l
201.024 71.772 l
201.101 69.353 l
201.254 64.592 l
201.331 62.283 l
201.408 60.043 l
201.561 55.832 l
201.638 53.892 l
201.714 52.08 l
201.791 50.412 l
201.868 48.899 l
201.944 47.553 l
202.021 46.386 l
202.098 45.406 l
202.174 44.624 l
202.251 44.045 l
202.328 43.677 l
202.404 43.524 l
202.481 43.59 l
202.558 43.877 l
202.634 44.385 l
202.711 45.113 l
202.788 46.06 l
202.864 47.221 l
202.941 48.59 l
203.018 50.162 l
203.094 51.928 l
203.171 53.878 l
203.247 56.002 l
203.401 60.721 l
203.477 63.288 l
203.554 65.973 l
203.707 71.632 l
204.014 83.594 l
204.091 86.607 l
204.167 89.59 l
204.321 95.385 l
204.397 98.159 l
204.474 100.824 l
204.627 105.755 l
204.704 107.987 l
204.781 110.041 l
204.857 111.902 l
204.934 113.557 l
205.011 114.991 l
205.087 116.195 l
205.164 117.159 l
205.241 117.872 l
205.312 118.308 l
205.384 118.516 l
205.455 118.493 l
205.527 118.238 l
205.598 117.75 l
205.67 117.03 l
205.742 116.08 l
205.813 114.904 l
205.885 113.507 l
205.956 111.895 l
206.028 110.076 l
206.099 108.058 l
206.171 105.852 l
206.243 103.467 l
206.386 98.216 l
206.457 95.376 l
206.529 92.414 l
206.672 86.184 l
206.958 72.997 l
207.03 69.655 l
207.102 66.333 l
207.245 59.822 l
207.316 56.672 l
207.388 53.617 l
207.531 47.862 l
207.603 45.196 l
207.674 42.694 l
207.746 40.37 l
207.817 38.238 l
207.889 36.313 l
207.961 34.606 l
208.032 33.129 l
208.104 31.891 l
208.175 30.901 l
208.247 30.166 l
208.318 29.692 l
208.39 29.484 l
208.462 29.543 l
208.533 29.873 l
208.605 30.471 l
208.676 31.337 l
208.748 32.468 l
208.819 33.859 l
208.891 35.503 l
208.963 37.392 l
209.034 39.518 l
209.106 41.869 l
209.249 47.201 l
209.321 50.153 l
209.392 53.276 l
209.535 59.966 l
209.822 74.598 l
209.892 78.326 l
209.962 82.069 l
210.102 89.52 l
210.172 93.187 l
210.243 96.789 l
210.383 103.717 l
210.453 107.004 l
210.523 110.148 l
210.593 113.132 l
210.664 115.938 l
210.734 118.551 l
210.804 120.954 l
210.874 123.135 l
210.944 125.079 l
211.015 126.775 l
211.085 128.214 l
211.155 129.385 l
211.225 130.281 l
211.295 130.895 l
211.365 131.224 l
211.436 131.263 l
211.506 131.012 l
211.576 130.47 l
211.646 129.638 l
211.716 128.521 l
211.786 127.121 l
211.857 125.447 l
211.927 123.505 l
211.997 121.305 l
212.067 118.858 l
212.137 116.175 l
212.208 113.271 l
212.348 106.856 l
212.418 103.38 l
212.488 99.747 l
212.629 92.09 l
212.699 88.106 l
212.769 84.047 l
212.909 75.789 l
213.19 59.34 l
213.26 55.373 l
213.33 51.508 l
213.471 44.168 l
213.541 40.734 l
213.611 37.484 l
213.751 31.606 l
213.822 29.012 l
213.892 26.669 l
213.962 24.59 l
214.032 22.787 l
214.102 21.271 l
214.172 20.052 l
214.243 19.137 l
214.313 18.533 l
214.389 18.233 l
214.465 18.307 l
214.541 18.757 l
214.617 19.58 l
214.693 20.773 l
214.77 22.33 l
214.846 24.242 l
214.922 26.498 l
214.998 29.086 l
215.074 31.991 l
215.15 35.194 l
215.226 38.678 l
215.302 42.42 l
215.378 46.398 l
215.531 54.962 l
215.607 59.495 l
215.683 64.159 l
215.835 73.759 l
216.14 93.195 l
216.216 97.922 l
216.292 102.536 l
216.444 111.305 l
216.52 115.402 l
216.596 119.273 l
216.672 122.891 l
216.749 126.232 l
216.825 129.275 l
216.901 131.999 l
216.977 134.385 l
217.053 136.418 l
217.129 138.083 l
217.205 139.369 l
217.281 140.266 l
217.358 140.767 l
217.434 140.868 l
217.51 140.567 l
217.586 139.864 l
217.662 138.763 l
217.738 137.27 l
217.814 135.392 l
217.89 133.142 l
217.967 130.531 l
218.043 127.575 l
218.119 124.293 l
218.195 120.704 l
218.271 116.831 l
218.347 112.696 l
218.423 108.325 l
218.575 98.987 l
218.652 94.078 l
218.728 89.05 l
218.88 78.763 l
219.184 58.181 l
219.255 53.551 l
219.327 49.042 l
219.469 40.485 l
219.54 36.485 l
219.611 32.702 l
219.753 25.868 l
219.824 22.857 l
219.895 20.139 l
219.966 17.732 l
220.037 15.648 l
220.108 13.9 l
220.179 12.498 l
220.25 11.451 l
220.321 10.765 l
220.392 10.445 l
220.463 10.494 l
220.534 10.912 l
220.605 11.697 l
220.676 12.846 l
220.747 14.352 l
220.818 16.21 l
220.889 18.408 l
220.96 20.936 l
221.032 23.78 l
221.103 26.925 l
221.174 30.354 l
221.245 34.049 l
221.316 37.99 l
221.458 46.521 l
221.529 51.066 l
221.6 55.764 l
221.742 65.516 l
222.026 85.684 l
222.097 90.702 l
222.168 95.655 l
222.31 105.256 l
222.381 109.851 l
222.452 114.273 l
222.594 122.505 l
222.666 126.268 l
222.737 129.767 l
222.808 132.982 l
222.879 135.895 l
222.95 138.49 l
223.021 140.752 l
223.092 142.668 l
223.163 144.226 l
223.234 145.418 l
223.305 146.237 l
223.376 146.677 l
223.447 146.735 l
223.518 146.411 l
223.589 145.706 l
223.66 144.624 l
223.731 143.169 l
223.808 141.182 l
223.885 138.778 l
223.962 135.975 l
224.039 132.788 l
224.116 129.238 l
224.193 125.349 l
224.347 116.65 l
224.424 111.897 l
224.501 106.915 l
224.655 96.393 l
224.963 74.089 l
225.04 68.46 l
225.117 62.883 l
225.271 52.03 l
225.348 46.824 l
225.425 41.811 l
225.579 32.492 l
225.656 28.248 l
225.733 24.317 l
225.81 20.727 l
225.887 17.5 l
225.964 14.658 l
226.041 12.22 l
226.118 10.201 l
226.195 8.615 l
226.272 7.473 l
226.349 6.782 l
226.426 6.548 l
226.503 6.771 l
226.58 7.452 l
226.657 8.585 l
226.734 10.164 l
226.811 12.178 l
226.888 14.615 l
226.965 17.46 l
227.042 20.694 l
227.119 24.295 l
227.196 28.242 l
227.273 32.509 l
227.427 41.888 l
227.503 46.941 l
227.58 52.192 l
227.734 63.154 l
228.042 85.907 l
228.119 91.553 l
228.196 97.109 l
228.35 107.805 l
228.427 112.877 l
228.504 117.719 l
228.658 126.593 l
228.734 130.498 l
228.809 134.072 l
228.885 137.292 l
228.961 140.139 l
229.036 142.595 l
229.112 144.644 l
229.187 146.273 l
229.263 147.473 l
229.339 148.236 l
229.414 148.557 l
229.49 148.434 l
229.565 147.869 l
229.641 146.863 l
229.716 145.425 l
229.792 143.563 l
229.868 141.289 l
229.943 138.616 l
230.019 135.563 l
230.094 132.147 l
230.17 128.391 l
230.246 124.318 l
230.321 119.953 l
230.472 110.461 l
230.548 105.392 l
230.623 100.151 l
230.775 89.283 l
231.077 66.964 l
231.153 61.466 l
231.228 56.07 l
231.379 45.718 l
231.455 40.826 l
231.53 36.165 l
231.682 27.65 l
231.757 23.848 l
231.833 20.382 l
231.908 17.274 l
231.984 14.543 l
232.06 12.205 l
232.135 10.274 l
232.211 8.764 l
232.286 7.682 l
232.362 7.035 l
232.437 6.827 l
232.513 7.059 l
232.589 7.728 l
232.664 8.832 l
232.74 10.361 l
232.815 12.306 l
232.891 14.655 l
232.967 17.392 l
233.042 20.5 l
233.118 23.96 l
233.193 27.749 l
233.269 31.843 l
233.344 36.217 l
233.496 45.69 l
233.566 50.385 l
233.637 55.223 l
233.778 65.215 l
234.06 85.699 l
234.13 90.762 l
234.201 95.746 l
234.342 105.371 l
234.412 109.96 l
234.483 114.366 l
234.624 122.537 l
234.694 126.258 l
234.765 129.709 l
234.835 132.871 l
234.906 135.729 l
234.976 138.266 l
235.047 140.469 l
235.117 142.327 l
235.188 143.83 l
235.258 144.97 l
235.329 145.743 l
235.399 146.143 l
235.47 146.17 l
235.54 145.824 l
235.611 145.107 l
235.681 144.024 l
235.752 142.581 l
235.822 140.787 l
235.893 138.652 l
235.963 136.188 l
236.034 133.41 l
236.104 130.332 l
236.175 126.971 l
236.316 119.482 l
236.386 115.394 l
236.457 111.106 l
236.598 102.03 l
236.88 82.585 l
236.95 77.608 l
237.021 72.64 l
237.162 62.835 l
237.232 58.052 l
237.303 53.383 l
237.444 44.486 l
237.515 40.307 l
237.585 36.337 l
237.656 32.598 l
237.726 29.109 l
237.797 25.889 l
237.867 22.955 l
237.938 20.322 l
238.008 18.003 l
238.085 15.86 l
238.161 14.113 l
238.237 12.773 l
238.314 11.848 l
238.39 11.343 l
238.467 11.26 l
238.543 11.599 l
238.62 12.356 l
238.696 13.525 l
238.773 15.098 l
238.849 17.064 l
238.925 19.409 l
239.002 22.117 l
239.078 25.17 l
239.155 28.548 l
239.231 32.228 l
239.308 36.186 l
239.384 40.395 l
239.537 49.457 l
239.843 69.306 l
239.919 74.442 l
239.996 79.581 l
240.149 89.74 l
240.225 94.694 l
240.302 99.523 l
240.454 108.686 l
240.531 112.961 l
240.607 116.996 l
240.684 120.766 l
240.76 124.247 l
240.837 127.419 l
240.913 130.262 l
240.99 132.759 l
241.066 134.894 l
241.143 136.656 l
241.219 138.035 l
241.295 139.022 l
241.372 139.613 l
241.448 139.805 l
241.525 139.599 l
241.601 138.997 l
241.678 138.004 l
241.754 136.629 l
241.831 134.88 l
241.907 132.771 l
241.983 130.316 l
242.06 127.533 l
242.136 124.44 l
242.213 121.058 l
242.289 117.41 l
242.366 113.52 l
242.442 109.414 l
242.595 100.663 l
242.901 81.823 l
242.972 77.331 l
243.044 72.855 l
243.186 64.052 l
243.258 59.773 l
243.329 55.609 l
243.472 47.711 l
243.543 44.02 l
243.615 40.529 l
243.686 37.256 l
243.757 34.219 l
243.829 31.433 l
243.9 28.913 l
243.971 26.672 l
244.043 24.722 l
244.114 23.072 l
244.186 21.73 l
244.257 20.703 l
244.328 19.995 l
244.4 19.608 l
244.471 19.544 l
244.542 19.802 l
244.614 20.378 l
244.685 21.269 l
244.757 22.467 l
244.828 23.965 l
244.899 25.754 l
244.971 27.822 l
245.042 30.156 l
245.113 32.743 l
245.185 35.566 l
245.256 38.609 l
245.328 41.854 l
245.47 48.872 l
245.756 64.44 l
245.827 68.521 l
245.899 72.633 l
246.041 80.856 l
246.327 96.659 l
246.398 100.348 l
246.47 103.892 l
246.541 107.271 l
246.612 110.468 l
246.684 113.464 l
246.755 116.246 l
246.826 118.797 l
246.898 121.105 l
246.969 123.158 l
247.041 124.947 l
247.112 126.461 l
247.183 127.696 l
247.255 128.644 l
247.326 129.302 l
247.397 129.668 l
247.469 129.741 l
247.539 129.53 l
247.609 129.041 l
247.679 128.279 l
247.749 127.249 l
247.819 125.958 l
247.889 124.414 l
247.959 122.627 l
248.029 120.607 l
248.099 118.368 l
248.169 115.922 l
248.308 110.467 l
248.378 107.49 l
248.448 104.368 l
248.588 97.763 l
248.658 94.316 l
248.728 90.798 l
248.868 83.627 l
249.148 69.29 l
249.218 65.819 l
249.288 62.43 l
249.428 55.97 l
249.498 52.932 l
249.568 50.044 l
249.708 44.772 l
249.778 42.415 l
249.848 40.259 l
249.918 38.316 l
249.988 36.593 l
250.058 35.099 l
250.128 33.841 l
250.198 32.824 l
250.268 32.051 l
250.338 31.526 l
250.408 31.249 l
250.478 31.22 l
250.548 31.439 l
250.617 31.901 l
250.687 32.604 l
250.757 33.541 l
250.827 34.706 l
250.897 36.092 l
250.967 37.689 l
251.037 39.487 l
251.107 41.475 l
251.177 43.641 l
251.247 45.972 l
251.387 51.075 l
251.457 53.817 l
251.527 56.665 l
251.667 62.616 l
251.947 75.063 l
252.023 78.455 l
252.099 81.811 l
252.251 88.338 l
252.327 91.467 l
252.402 94.481 l
252.554 100.093 l
252.63 102.658 l
252.706 105.041 l
252.782 107.229 l
252.858 109.21 l
252.934 110.973 l
253.01 112.509 l
253.086 113.81 l
253.162 114.87 l
253.237 115.684 l
253.313 116.249 l
253.389 116.564 l
253.465 116.629 l
253.541 116.446 l
253.617 116.018 l
253.693 115.351 l
253.769 114.45 l
253.845 113.325 l
253.921 111.983 l
253.997 110.436 l
254.073 108.695 l
254.148 106.774 l
254.224 104.686 l
254.376 100.072 l
254.452 97.577 l
254.528 94.979 l
254.68 89.548 l
254.984 78.25 l
255.059 75.441 l
255.135 72.674 l
255.287 67.335 l
255.363 64.795 l
255.439 62.363 l
255.591 57.876 l
255.667 55.847 l
255.743 53.977 l
255.819 52.277 l
255.895 50.754 l
255.97 49.417 l
256.046 48.272 l
256.122 47.324 l
256.198 46.578 l
256.274 46.035 l
256.35 45.696 l
256.426 45.562 l
256.502 45.631 l
256.578 45.899 l
256.654 46.363 l
256.73 47.018 l
256.805 47.857 l
256.876 48.798 l
256.947 49.886 l
257.018 51.112 l
257.089 52.469 l
257.16 53.946 l
257.231 55.534 l
257.372 59.003 l
257.443 60.862 l
257.514 62.789 l
257.656 66.798 l
257.939 75.108 l
258.01 77.177 l
258.081 79.219 l
258.222 83.179 l
258.293 85.076 l
258.364 86.904 l
258.506 90.316 l
258.576 91.883 l
258.647 93.347 l
258.718 94.702 l
258.789 95.941 l
258.86 97.059 l
258.931 98.051 l
259.001 98.913 l
259.072 99.644 l
259.143 100.239 l
259.214 100.698 l
259.285 101.021 l
259.356 101.207 l
259.426 101.258 l
259.497 101.175 l
259.568 100.961 l
259.639 100.619 l
259.71 100.154 l
259.781 99.569 l
259.852 98.87 l
259.922 98.064 l
259.993 97.155 l
260.064 96.152 l
260.206 93.89 l
260.277 92.648 l
260.347 91.342 l
260.489 88.575 l
260.772 82.669 l
260.843 81.168 l
260.914 79.673 l
261.056 76.741 l
261.127 75.32 l
261.197 73.938 l
261.339 71.324 l
261.418 69.967 l
261.497 68.694 l
261.576 67.511 l
261.655 66.427 l
261.734 65.445 l
261.814 64.572 l
261.893 63.811 l
261.972 63.165 l
262.051 62.635 l
262.13 62.224 l
262.209 61.931 l
262.288 61.755 l
262.367 61.694 l
262.446 61.747 l
262.525 61.91 l
262.604 62.178 l
262.683 62.547 l
262.762 63.011 l
262.842 63.564 l
262.921 64.2 l
263 64.911 l
263.079 65.689 l
263.237 67.418 l
263.316 68.351 l
263.395 69.318 l
263.553 71.322 l
263.87 75.372 l
263.949 76.347 l
264.028 77.292 l
264.107 78.2 l
264.186 79.065 l
264.265 79.882 l
264.344 80.646 l
264.423 81.353 l
264.502 81.998 l
264.581 82.579 l
264.66 83.093 l
264.739 83.539 l
264.818 83.915 l
264.898 84.22 l
264.977 84.456 l
265.056 84.623 l
265.135 84.722 l
265.214 84.756 l
265.293 84.728 l
265.372 84.639 l
265.451 84.494 l
265.53 84.298 l
265.609 84.054 l
265.688 83.766 l
265.767 83.441 l
265.846 83.084 l
265.926 82.699 l
266.084 81.87 l
266.163 81.437 l
266.242 80.998 l
266.321 80.56 l
266.4 80.128 l
S
Q
q
30.2 2.528 m
30.2 152.528 l
271.2 152.528 l
271.2 2.528 l
W*
Q
Q
Q
1 w
/DeviceRGB {} CS
[0 0 0] SC
/DeviceRGB {} cs
[0 0 0] sc
[] 0 d
2 J
0 j
10 M
Q
showpage
%%PageTrailer
pdfEndPage
%%Trailer
end
%%DocumentSuppliedResources:
%%EOF
