%!PS-Adobe-3.0 EPSF-3.0
%%Creator: fig2dev Version 3.2 Patchlevel 5
%%LanguageLevel: 2
%%DocumentSuppliedResources: (atend)
%%BoundingBox: 0 0 288 284
%%DocumentSuppliedResources: (atend)
%%EndComments
%%BeginProlog
%%BeginResource: procset xpdf 3.00 0
%%Copyright: Copyright 1996-2004 Glyph & Cog, LLC
/xpdf 75 dict def xpdf begin
% PDF special state
/pdfDictSize 15 def
/pdfSetup {
  3 1 roll 2 array astore
  /setpagedevice where {
    pop 3 dict begin
      /PageSize exch def
      /ImagingBBox null def
      { /Duplex true def } if
    currentdict end setpagedevice
  } {
    pop pop
  } ifelse
} def
/pdfStartPage {
  pdfDictSize dict begin
  /pdfFillCS [] def
  /pdfFillXform {} def
  /pdfStrokeCS [] def
  /pdfStrokeXform {} def
  /pdfFill [0] def
  /pdfStroke [0] def
  /pdfFillOP false def
  /pdfStrokeOP false def
  /pdfLastFill false def
  /pdfLastStroke false def
  /pdfTextMat [1 0 0 1 0 0] def
  /pdfFontSize 0 def
  /pdfCharSpacing 0 def
  /pdfTextRender 0 def
  /pdfTextRise 0 def
  /pdfWordSpacing 0 def
  /pdfHorizScaling 1 def
  /pdfTextClipPath [] def
} def
/pdfEndPage { end } def
% PDF color state
/cs { /pdfFillXform exch def dup /pdfFillCS exch def
      setcolorspace } def
/CS { /pdfStrokeXform exch def dup /pdfStrokeCS exch def
      setcolorspace } def
/sc { pdfLastFill not { pdfFillCS setcolorspace } if
      dup /pdfFill exch def aload pop pdfFillXform setcolor
     /pdfLastFill true def /pdfLastStroke false def } def
/SC { pdfLastStroke not { pdfStrokeCS setcolorspace } if
      dup /pdfStroke exch def aload pop pdfStrokeXform setcolor
     /pdfLastStroke true def /pdfLastFill false def } def
/op { /pdfFillOP exch def
      pdfLastFill { pdfFillOP setoverprint } if } def
/OP { /pdfStrokeOP exch def
      pdfLastStroke { pdfStrokeOP setoverprint } if } def
/fCol {
  pdfLastFill not {
    pdfFillCS setcolorspace
    pdfFill aload pop pdfFillXform setcolor
    pdfFillOP setoverprint
    /pdfLastFill true def /pdfLastStroke false def
  } if
} def
/sCol {
  pdfLastStroke not {
    pdfStrokeCS setcolorspace
    pdfStroke aload pop pdfStrokeXform setcolor
    pdfStrokeOP setoverprint
    /pdfLastStroke true def /pdfLastFill false def
  } if
} def
% build a font
/pdfMakeFont {
  4 3 roll findfont
  4 2 roll matrix scale makefont
  dup length dict begin
    { 1 index /FID ne { def } { pop pop } ifelse } forall
    /Encoding exch def
    currentdict
  end
  definefont pop
} def
/pdfMakeFont16 {
  exch findfont
  dup length dict begin
    { 1 index /FID ne { def } { pop pop } ifelse } forall
    /WMode exch def
    currentdict
  end
  definefont pop
} def
% graphics state operators
/q { gsave pdfDictSize dict begin } def
/Q {
  end grestore
  /pdfLastFill where {
    pop
    pdfLastFill {
      pdfFillOP setoverprint
    } {
      pdfStrokeOP setoverprint
    } ifelse
  } if
} def
/cm { concat } def
/d { setdash } def
/i { setflat } def
/j { setlinejoin } def
/J { setlinecap } def
/M { setmiterlimit } def
/w { setlinewidth } def
% path segment operators
/m { moveto } def
/l { lineto } def
/c { curveto } def
/re { 4 2 roll moveto 1 index 0 rlineto 0 exch rlineto
      neg 0 rlineto closepath } def
/h { closepath } def
% path painting operators
/S { sCol stroke } def
/Sf { fCol stroke } def
/f { fCol fill } def
/f* { fCol eofill } def
% clipping operators
/W { clip newpath } def
/W* { eoclip newpath } def
/Ws { strokepath clip newpath } def
% text state operators
/Tc { /pdfCharSpacing exch def } def
/Tf { dup /pdfFontSize exch def
      dup pdfHorizScaling mul exch matrix scale
      pdfTextMat matrix concatmatrix dup 4 0 put dup 5 0 put
      exch findfont exch makefont setfont } def
/Tr { /pdfTextRender exch def } def
/Ts { /pdfTextRise exch def } def
/Tw { /pdfWordSpacing exch def } def
/Tz { /pdfHorizScaling exch def } def
% text positioning operators
/Td { pdfTextMat transform moveto } def
/Tm { /pdfTextMat exch def } def
% text string operators
/cshow where {
  pop
  /cshow2 {
    dup {
      pop pop
      1 string dup 0 3 index put 3 index exec
    } exch cshow
    pop pop
  } def
}{
  /cshow2 {
    currentfont /FontType get 0 eq {
      0 2 2 index length 1 sub {
        2 copy get exch 1 add 2 index exch get
        2 copy exch 256 mul add
        2 string dup 0 6 5 roll put dup 1 5 4 roll put
        3 index exec
      } for
    } {
      dup {
        1 string dup 0 3 index put 3 index exec
      } forall
    } ifelse
    pop pop
  } def
} ifelse
/awcp {
  exch {
    false charpath
    5 index 5 index rmoveto
    6 index eq { 7 index 7 index rmoveto } if
  } exch cshow2
  6 {pop} repeat
} def
/Tj {
  fCol
  1 index stringwidth pdfTextMat idtransform pop
  sub 1 index length dup 0 ne { div } { pop pop 0 } ifelse
  pdfWordSpacing pdfHorizScaling mul 0 pdfTextMat dtransform 32
  4 3 roll pdfCharSpacing pdfHorizScaling mul add 0
  pdfTextMat dtransform
  6 5 roll Tj1
} def
/Tj16 {
  fCol
  2 index stringwidth pdfTextMat idtransform pop
  sub exch div
  pdfWordSpacing pdfHorizScaling mul 0 pdfTextMat dtransform 32
  4 3 roll pdfCharSpacing pdfHorizScaling mul add 0
  pdfTextMat dtransform
  6 5 roll Tj1
} def
/Tj16V {
  fCol
  2 index stringwidth pdfTextMat idtransform exch pop
  sub exch div
  0 pdfWordSpacing pdfTextMat dtransform 32
  4 3 roll pdfCharSpacing add 0 exch
  pdfTextMat dtransform
  6 5 roll Tj1
} def
/Tj1 {
  0 pdfTextRise pdfTextMat dtransform rmoveto
  currentpoint 8 2 roll
  pdfTextRender 1 and 0 eq {
    6 copy awidthshow
  } if
  pdfTextRender 3 and dup 1 eq exch 2 eq or {
    7 index 7 index moveto
    6 copy
    currentfont /FontType get 3 eq { fCol } { sCol } ifelse
    false awcp currentpoint stroke moveto
  } if
  pdfTextRender 4 and 0 ne {
    8 6 roll moveto
    false awcp
    /pdfTextClipPath [ pdfTextClipPath aload pop
      {/moveto cvx}
      {/lineto cvx}
      {/curveto cvx}
      {/closepath cvx}
    pathforall ] def
    currentpoint newpath moveto
  } {
    8 {pop} repeat
  } ifelse
  0 pdfTextRise neg pdfTextMat dtransform rmoveto
} def
/TJm { pdfFontSize 0.001 mul mul neg 0
       pdfTextMat dtransform rmoveto } def
/TJmV { pdfFontSize 0.001 mul mul neg 0 exch
        pdfTextMat dtransform rmoveto } def
/Tclip { pdfTextClipPath cvx exec clip newpath
         /pdfTextClipPath [] def } def
/Tclip* { pdfTextClipPath cvx exec eoclip newpath
         /pdfTextClipPath [] def } def
% Level 2 image operators
/pdfImBuf 100 string def
/pdfIm {
  image
  { currentfile pdfImBuf readline
    not { pop exit } if
    (%-EOD-) eq { exit } if } loop
} def
/pdfImM {
  fCol imagemask
  { currentfile pdfImBuf readline
    not { pop exit } if
    (%-EOD-) eq { exit } if } loop
} def
/pr { 2 index 2 index 3 2 roll putinterval 4 add } def
/pdfImClip {
  gsave
  0 2 4 index length 1 sub {
    dup 4 index exch 2 copy
    get 5 index div put
    1 add 3 index exch 2 copy
    get 3 index div put
  } for
  pop pop rectclip
} def
/pdfImClipEnd { grestore } def
% shading operators
/colordelta {
  false 0 1 3 index length 1 sub {
    dup 4 index exch get 3 index 3 2 roll get sub abs 0.004 gt {
      pop true
    } if
  } for
  exch pop exch pop
} def
/funcCol { func n array astore } def
/funcSH {
  dup 0 eq {
    true
  } {
    dup 6 eq {
      false
    } {
      4 index 4 index funcCol dup
      6 index 4 index funcCol dup
      3 1 roll colordelta 3 1 roll
      5 index 5 index funcCol dup
      3 1 roll colordelta 3 1 roll
      6 index 8 index funcCol dup
      3 1 roll colordelta 3 1 roll
      colordelta or or or
    } ifelse
  } ifelse
  {
    1 add
    4 index 3 index add 0.5 mul exch 4 index 3 index add 0.5 mul exch
    6 index 6 index 4 index 4 index 4 index funcSH
    2 index 6 index 6 index 4 index 4 index funcSH
    6 index 2 index 4 index 6 index 4 index funcSH
    5 3 roll 3 2 roll funcSH pop pop
  } {
    pop 3 index 2 index add 0.5 mul 3 index  2 index add 0.5 mul
    funcCol sc
    dup 4 index exch mat transform m
    3 index 3 index mat transform l
    1 index 3 index mat transform l
    mat transform l pop pop h f*
  } ifelse
} def
/axialCol {
  dup 0 lt {
    pop t0
  } {
    dup 1 gt {
      pop t1
    } {
      dt mul t0 add
    } ifelse
  } ifelse
  func n array astore
} def
/axialSH {
  dup 0 eq {
    true
  } {
    dup 8 eq {
      false
    } {
      2 index axialCol 2 index axialCol colordelta
    } ifelse
  } ifelse
  {
    1 add 3 1 roll 2 copy add 0.5 mul
    dup 4 3 roll exch 4 index axialSH
    exch 3 2 roll axialSH
  } {
    pop 2 copy add 0.5 mul
    axialCol sc
    exch dup dx mul x0 add exch dy mul y0 add
    3 2 roll dup dx mul x0 add exch dy mul y0 add
    dx abs dy abs ge {
      2 copy yMin sub dy mul dx div add yMin m
      yMax sub dy mul dx div add yMax l
      2 copy yMax sub dy mul dx div add yMax l
      yMin sub dy mul dx div add yMin l
      h f*
    } {
      exch 2 copy xMin sub dx mul dy div add xMin exch m
      xMax sub dx mul dy div add xMax exch l
      exch 2 copy xMax sub dx mul dy div add xMax exch l
      xMin sub dx mul dy div add xMin exch l
      h f*
    } ifelse
  } ifelse
} def
/radialCol {
  dup t0 lt {
    pop t0
  } {
    dup t1 gt {
      pop t1
    } if
  } ifelse
  func n array astore
} def
/radialSH {
  dup 0 eq {
    true
  } {
    dup 8 eq {
      false
    } {
      2 index dt mul t0 add radialCol
      2 index dt mul t0 add radialCol colordelta
    } ifelse
  } ifelse
  {
    1 add 3 1 roll 2 copy add 0.5 mul
    dup 4 3 roll exch 4 index radialSH
    exch 3 2 roll radialSH
  } {
    pop 2 copy add 0.5 mul dt mul t0 add
    radialCol sc
    encl {
      exch dup dx mul x0 add exch dup dy mul y0 add exch dr mul r0 add
      0 360 arc h
      dup dx mul x0 add exch dup dy mul y0 add exch dr mul r0 add
      360 0 arcn h f
    } {
      2 copy
      dup dx mul x0 add exch dup dy mul y0 add exch dr mul r0 add
      a1 a2 arcn
      dup dx mul x0 add exch dup dy mul y0 add exch dr mul r0 add
      a2 a1 arcn h
      dup dx mul x0 add exch dup dy mul y0 add exch dr mul r0 add
      a1 a2 arc
      dup dx mul x0 add exch dup dy mul y0 add exch dr mul r0 add
      a2 a1 arc h f
    } ifelse
  } ifelse
} def
end
%%EndResource
%%EndProlog
%%BeginSetup
xpdf begin
%%EndSetup
pdfStartPage
[] 0 d
1 i
0 j
0 J
10 M
1 w
/DeviceGray {} cs
[0] sc
/DeviceGray {} CS
[0] SC
false op
false OP
{} settransfer
q
q
[0.1 0 0 0.1 0 0] cm
/DeviceRGB {} cs
[0.8496 0.8496 0.8496] sc
1424.45 14.2109 1445.62 2806.2 re
f*
4.7242 w
/DeviceRGB {} CS
[1 1 1] SC
1424.45 14.2109 1445.62 2806.2 re
S
9.4485 w
/DeviceRGB {} CS
[0 0 0] SC
1424.45 2820.41 m
1424.45 14.2109 l
S
4.7242 w
290.625 1403.14 m
7.1719 1403.14 l
S
q
0 2840 m
0 0 l
2880 0 l
2880 2840 l
0 2840 l
h
1387.91 1323.14 m
1445.23 1399.36 l
1415 1422.04 l
1357.68 1345.82 l
1357.68 1345.82 l
1418.15 1394.95 l
1387.91 1323.14 l
h
W*
574.082 269.32 m
1424.45 1403.14 l
S
Q
/DeviceGray {} cs
[0] sc
1387.91 1323.14 m
1418.15 1394.95 l
1357.68 1345.82 l
1387.91 1323.14 l
f*
1387.91 1323.14 m
1418.15 1394.95 l
1357.68 1345.82 l
1387.91 1323.14 l
h
S
q
0 2840 m
0 0 l
2880 0 l
2880 2840 l
0 2840 l
h
640.852 2479.64 m
583.531 2555.86 l
553.293 2533.18 l
610.617 2456.96 l
610.617 2456.96 l
580.379 2528.77 l
640.852 2479.64 l
h
W*
[37.794] 0 d
1424.45 1403.14 m
574.082 2536.96 l
S
Q
640.852 2479.64 m
580.379 2528.77 l
610.617 2456.96 l
640.852 2479.64 l
f*
640.852 2479.64 m
580.379 2528.77 l
610.617 2456.96 l
640.852 2479.64 l
h
S
290.625 1403.14 m
2841.72 1403.14 l
S
q
0 2840 m
0 0 l
2880 0 l
2880 2840 l
0 2840 l
h
2526.77 2199.34 m
2602.99 2256.66 l
2580.31 2286.89 l
2504.09 2229.57 l
2504.09 2229.57 l
2575.9 2259.8 l
2526.77 2199.34 l
h
W*
1450.27 1415.74 m
2584.09 2266.11 l
S
Q
2526.77 2199.34 m
2575.9 2259.8 l
2504.09 2229.57 l
2526.77 2199.34 l
f*
2526.77 2199.34 m
2575.9 2259.8 l
2504.09 2229.57 l
2526.77 2199.34 l
h
S
1314.84 1562.5 m
1428.86 1645.02 l
1546.02 1484.4 l
S
q
0 2840 m
0 0 l
2880 0 l
2880 2840 l
0 2840 l
h
1747.59 1742.66 m
1703.49 1801.87 l
1680.82 1784.86 l
1724.91 1725.65 l
1724.91 1725.65 l
1707.9 1771.63 l
1747.59 1742.66 l
h
W*
1867.89 1558.73 m
1697.82 1785.49 l
S
Q
1747.59 1742.66 m
1707.9 1771.63 l
1724.91 1725.65 l
1747.59 1742.66 l
f*
9.4485 w
1747.59 1742.66 m
1707.9 1771.63 l
1724.91 1725.65 l
1747.59 1742.66 l
h
S
q
0 2840 m
0 0 l
2880 0 l
2880 2840 l
0 2840 l
h
1814.36 1785.49 m
1770.26 1844.7 l
1747.59 1827.7 l
1791.68 1768.48 l
1791.68 1768.48 l
1774.67 1814.46 l
1814.36 1785.49 l
h
W*
4.7242 w
1934.66 1601.56 m
1764.59 1828.32 l
S
Q
1814.36 1785.49 m
1774.67 1814.46 l
1791.68 1768.48 l
1814.36 1785.49 l
f*
1814.36 1785.49 m
1774.67 1814.46 l
1791.68 1768.48 l
1814.36 1785.49 l
h
S
q
0 2840 m
0 0 l
2880 0 l
2880 2840 l
0 2840 l
h
1871.05 1842.18 m
1826.95 1901.39 l
1804.28 1884.38 l
1848.37 1825.18 l
1848.37 1825.18 l
1831.36 1871.16 l
1871.05 1842.18 l
h
W*
4.7242 w
1991.36 1658.25 m
1821.28 1885.02 l
S
Q
1871.05 1842.18 m
1831.36 1871.16 l
1848.37 1825.18 l
1871.05 1842.18 l
f*
1871.05 1842.18 m
1831.36 1871.16 l
1848.37 1825.18 l
1871.05 1842.18 l
h
S
q
0 2840 m
0 0 l
2880 0 l
2880 2840 l
0 2840 l
h
1956.08 1870.53 m
1911.99 1929.74 l
1889.31 1912.73 l
1933.41 1853.52 l
1933.41 1853.52 l
1916.4 1899.5 l
1956.08 1870.53 l
h
W*
4.7242 w
2076.39 1686.6 m
1906.32 1913.36 l
S
Q
1956.08 1870.53 m
1916.4 1899.5 l
1933.41 1853.52 l
1956.08 1870.53 l
f*
1956.08 1870.53 m
1916.4 1899.5 l
1933.41 1853.52 l
1956.08 1870.53 l
h
S
q
0 2840 m
0 0 l
2880 0 l
2880 2840 l
0 2840 l
h
1672.62 1700.45 m
1628.54 1759.66 l
1605.86 1742.66 l
1649.95 1683.45 l
1649.95 1683.45 l
1632.94 1729.43 l
1672.62 1700.45 l
h
W*
4.7242 w
1792.94 1516.52 m
1622.86 1743.29 l
S
Q
1672.62 1700.45 m
1632.94 1729.43 l
1649.95 1683.45 l
1672.62 1700.45 l
f*
1672.62 1700.45 m
1632.94 1729.43 l
1649.95 1683.45 l
1672.62 1700.45 l
h
S
Q
Q
showpage
%%PageTrailer
pdfEndPage
%%Trailer
end
%%DocumentSuppliedResources:
%%EOF
