%!PS-Adobe-3.0 EPSF-3.0
%%Creator: Mathematica
%%LanguageLevel: 2
%%DocumentSuppliedResources: (atend)
%%BoundingBox: 0 0 43 220
%%HiResBoundingBox: 0 0 42.116 220
%%DocumentSuppliedResources: (atend)
%%EndComments
%%BeginProlog
%%BeginResource: procset xpdf 3.00 0
%%Copyright: Copyright 1996-2004 Glyph & Cog, LLC
/xpdf 75 dict def xpdf begin
% PDF special state
/pdfDictSize 15 def
/pdfSetup {
  3 1 roll 2 array astore
  /setpagedevice where {
    pop 3 dict begin
      /PageSize exch def
      /ImagingBBox null def
      { /Duplex true def } if
    currentdict end setpagedevice
  } {
    pop pop
  } ifelse
} def
/pdfStartPage {
  pdfDictSize dict begin
  /pdfFillCS [] def
  /pdfFillXform {} def
  /pdfStrokeCS [] def
  /pdfStrokeXform {} def
  /pdfFill [0] def
  /pdfStroke [0] def
  /pdfFillOP false def
  /pdfStrokeOP false def
  /pdfLastFill false def
  /pdfLastStroke false def
  /pdfTextMat [1 0 0 1 0 0] def
  /pdfFontSize 0 def
  /pdfCharSpacing 0 def
  /pdfTextRender 0 def
  /pdfTextRise 0 def
  /pdfWordSpacing 0 def
  /pdfHorizScaling 1 def
  /pdfTextClipPath [] def
} def
/pdfEndPage { end } def
% PDF color state
/cs { /pdfFillXform exch def dup /pdfFillCS exch def
      setcolorspace } def
/CS { /pdfStrokeXform exch def dup /pdfStrokeCS exch def
      setcolorspace } def
/sc { pdfLastFill not { pdfFillCS setcolorspace } if
      dup /pdfFill exch def aload pop pdfFillXform setcolor
     /pdfLastFill true def /pdfLastStroke false def } def
/SC { pdfLastStroke not { pdfStrokeCS setcolorspace } if
      dup /pdfStroke exch def aload pop pdfStrokeXform setcolor
     /pdfLastStroke true def /pdfLastFill false def } def
/op { /pdfFillOP exch def
      pdfLastFill { pdfFillOP setoverprint } if } def
/OP { /pdfStrokeOP exch def
      pdfLastStroke { pdfStrokeOP setoverprint } if } def
/fCol {
  pdfLastFill not {
    pdfFillCS setcolorspace
    pdfFill aload pop pdfFillXform setcolor
    pdfFillOP setoverprint
    /pdfLastFill true def /pdfLastStroke false def
  } if
} def
/sCol {
  pdfLastStroke not {
    pdfStrokeCS setcolorspace
    pdfStroke aload pop pdfStrokeXform setcolor
    pdfStrokeOP setoverprint
    /pdfLastStroke true def /pdfLastFill false def
  } if
} def
% build a font
/pdfMakeFont {
  4 3 roll findfont
  4 2 roll matrix scale makefont
  dup length dict begin
    { 1 index /FID ne { def } { pop pop } ifelse } forall
    /Encoding exch def
    currentdict
  end
  definefont pop
} def
/pdfMakeFont16 {
  exch findfont
  dup length dict begin
    { 1 index /FID ne { def } { pop pop } ifelse } forall
    /WMode exch def
    currentdict
  end
  definefont pop
} def
% graphics state operators
/q { gsave pdfDictSize dict begin } def
/Q {
  end grestore
  /pdfLastFill where {
    pop
    pdfLastFill {
      pdfFillOP setoverprint
    } {
      pdfStrokeOP setoverprint
    } ifelse
  } if
} def
/cm { concat } def
/d { setdash } def
/i { setflat } def
/j { setlinejoin } def
/J { setlinecap } def
/M { setmiterlimit } def
/w { setlinewidth } def
% path segment operators
/m { moveto } def
/l { lineto } def
/c { curveto } def
/re { 4 2 roll moveto 1 index 0 rlineto 0 exch rlineto
      neg 0 rlineto closepath } def
/h { closepath } def
% path painting operators
/S { sCol stroke } def
/Sf { fCol stroke } def
/f { fCol fill } def
/f* { fCol eofill } def
% clipping operators
/W { clip newpath } def
/W* { eoclip newpath } def
/Ws { strokepath clip newpath } def
% text state operators
/Tc { /pdfCharSpacing exch def } def
/Tf { dup /pdfFontSize exch def
      dup pdfHorizScaling mul exch matrix scale
      pdfTextMat matrix concatmatrix dup 4 0 put dup 5 0 put
      exch findfont exch makefont setfont } def
/Tr { /pdfTextRender exch def } def
/Ts { /pdfTextRise exch def } def
/Tw { /pdfWordSpacing exch def } def
/Tz { /pdfHorizScaling exch def } def
% text positioning operators
/Td { pdfTextMat transform moveto } def
/Tm { /pdfTextMat exch def } def
% text string operators
/cshow where {
  pop
  /cshow2 {
    dup {
      pop pop
      1 string dup 0 3 index put 3 index exec
    } exch cshow
    pop pop
  } def
}{
  /cshow2 {
    currentfont /FontType get 0 eq {
      0 2 2 index length 1 sub {
        2 copy get exch 1 add 2 index exch get
        2 copy exch 256 mul add
        2 string dup 0 6 5 roll put dup 1 5 4 roll put
        3 index exec
      } for
    } {
      dup {
        1 string dup 0 3 index put 3 index exec
      } forall
    } ifelse
    pop pop
  } def
} ifelse
/awcp {
  exch {
    false charpath
    5 index 5 index rmoveto
    6 index eq { 7 index 7 index rmoveto } if
  } exch cshow2
  6 {pop} repeat
} def
/Tj {
  fCol
  1 index stringwidth pdfTextMat idtransform pop
  sub 1 index length dup 0 ne { div } { pop pop 0 } ifelse
  pdfWordSpacing pdfHorizScaling mul 0 pdfTextMat dtransform 32
  4 3 roll pdfCharSpacing pdfHorizScaling mul add 0
  pdfTextMat dtransform
  6 5 roll Tj1
} def
/Tj16 {
  fCol
  2 index stringwidth pdfTextMat idtransform pop
  sub exch div
  pdfWordSpacing pdfHorizScaling mul 0 pdfTextMat dtransform 32
  4 3 roll pdfCharSpacing pdfHorizScaling mul add 0
  pdfTextMat dtransform
  6 5 roll Tj1
} def
/Tj16V {
  fCol
  2 index stringwidth pdfTextMat idtransform exch pop
  sub exch div
  0 pdfWordSpacing pdfTextMat dtransform 32
  4 3 roll pdfCharSpacing add 0 exch
  pdfTextMat dtransform
  6 5 roll Tj1
} def
/Tj1 {
  0 pdfTextRise pdfTextMat dtransform rmoveto
  currentpoint 8 2 roll
  pdfTextRender 1 and 0 eq {
    6 copy awidthshow
  } if
  pdfTextRender 3 and dup 1 eq exch 2 eq or {
    7 index 7 index moveto
    6 copy
    currentfont /FontType get 3 eq { fCol } { sCol } ifelse
    false awcp currentpoint stroke moveto
  } if
  pdfTextRender 4 and 0 ne {
    8 6 roll moveto
    false awcp
    /pdfTextClipPath [ pdfTextClipPath aload pop
      {/moveto cvx}
      {/lineto cvx}
      {/curveto cvx}
      {/closepath cvx}
    pathforall ] def
    currentpoint newpath moveto
  } {
    8 {pop} repeat
  } ifelse
  0 pdfTextRise neg pdfTextMat dtransform rmoveto
} def
/TJm { pdfFontSize 0.001 mul mul neg 0
       pdfTextMat dtransform rmoveto } def
/TJmV { pdfFontSize 0.001 mul mul neg 0 exch
        pdfTextMat dtransform rmoveto } def
/Tclip { pdfTextClipPath cvx exec clip newpath
         /pdfTextClipPath [] def } def
/Tclip* { pdfTextClipPath cvx exec eoclip newpath
         /pdfTextClipPath [] def } def
% Level 2 image operators
/pdfImBuf 100 string def
/pdfIm {
  image
  { currentfile pdfImBuf readline
    not { pop exit } if
    (%-EOD-) eq { exit } if } loop
} def
/pdfImM {
  fCol imagemask
  { currentfile pdfImBuf readline
    not { pop exit } if
    (%-EOD-) eq { exit } if } loop
} def
/pr { 2 index 2 index 3 2 roll putinterval 4 add } def
/pdfImClip {
  gsave
  0 2 4 index length 1 sub {
    dup 4 index exch 2 copy
    get 5 index div put
    1 add 3 index exch 2 copy
    get 3 index div put
  } for
  pop pop rectclip
} def
/pdfImClipEnd { grestore } def
% shading operators
/colordelta {
  false 0 1 3 index length 1 sub {
    dup 4 index exch get 3 index 3 2 roll get sub abs 0.004 gt {
      pop true
    } if
  } for
  exch pop exch pop
} def
/funcCol { func n array astore } def
/funcSH {
  dup 0 eq {
    true
  } {
    dup 6 eq {
      false
    } {
      4 index 4 index funcCol dup
      6 index 4 index funcCol dup
      3 1 roll colordelta 3 1 roll
      5 index 5 index funcCol dup
      3 1 roll colordelta 3 1 roll
      6 index 8 index funcCol dup
      3 1 roll colordelta 3 1 roll
      colordelta or or or
    } ifelse
  } ifelse
  {
    1 add
    4 index 3 index add 0.5 mul exch 4 index 3 index add 0.5 mul exch
    6 index 6 index 4 index 4 index 4 index funcSH
    2 index 6 index 6 index 4 index 4 index funcSH
    6 index 2 index 4 index 6 index 4 index funcSH
    5 3 roll 3 2 roll funcSH pop pop
  } {
    pop 3 index 2 index add 0.5 mul 3 index  2 index add 0.5 mul
    funcCol sc
    dup 4 index exch mat transform m
    3 index 3 index mat transform l
    1 index 3 index mat transform l
    mat transform l pop pop h f*
  } ifelse
} def
/axialCol {
  dup 0 lt {
    pop t0
  } {
    dup 1 gt {
      pop t1
    } {
      dt mul t0 add
    } ifelse
  } ifelse
  func n array astore
} def
/axialSH {
  dup 0 eq {
    true
  } {
    dup 8 eq {
      false
    } {
      2 index axialCol 2 index axialCol colordelta
    } ifelse
  } ifelse
  {
    1 add 3 1 roll 2 copy add 0.5 mul
    dup 4 3 roll exch 4 index axialSH
    exch 3 2 roll axialSH
  } {
    pop 2 copy add 0.5 mul
    axialCol sc
    exch dup dx mul x0 add exch dy mul y0 add
    3 2 roll dup dx mul x0 add exch dy mul y0 add
    dx abs dy abs ge {
      2 copy yMin sub dy mul dx div add yMin m
      yMax sub dy mul dx div add yMax l
      2 copy yMax sub dy mul dx div add yMax l
      yMin sub dy mul dx div add yMin l
      h f*
    } {
      exch 2 copy xMin sub dx mul dy div add xMin exch m
      xMax sub dx mul dy div add xMax exch l
      exch 2 copy xMax sub dx mul dy div add xMax exch l
      xMin sub dx mul dy div add xMin exch l
      h f*
    } ifelse
  } ifelse
} def
/radialCol {
  dup t0 lt {
    pop t0
  } {
    dup t1 gt {
      pop t1
    } if
  } ifelse
  func n array astore
} def
/radialSH {
  dup 0 eq {
    true
  } {
    dup 8 eq {
      false
    } {
      2 index dt mul t0 add radialCol
      2 index dt mul t0 add radialCol colordelta
    } ifelse
  } ifelse
  {
    1 add 3 1 roll 2 copy add 0.5 mul
    dup 4 3 roll exch 4 index radialSH
    exch 3 2 roll radialSH
  } {
    pop 2 copy add 0.5 mul dt mul t0 add
    radialCol sc
    encl {
      exch dup dx mul x0 add exch dup dy mul y0 add exch dr mul r0 add
      0 360 arc h
      dup dx mul x0 add exch dup dy mul y0 add exch dr mul r0 add
      360 0 arcn h f
    } {
      2 copy
      dup dx mul x0 add exch dup dy mul y0 add exch dr mul r0 add
      a1 a2 arcn
      dup dx mul x0 add exch dup dy mul y0 add exch dr mul r0 add
      a2 a1 arcn h
      dup dx mul x0 add exch dup dy mul y0 add exch dr mul r0 add
      a1 a2 arc
      dup dx mul x0 add exch dup dy mul y0 add exch dr mul r0 add
      a2 a1 arc h f
    } ifelse
  } ifelse
} def
end
%%EndResource
%%EndProlog
%%BeginSetup
xpdf begin
%%EndSetup
pdfStartPage
[] 0 d
1 i
0 j
0 J
10 M
1 w
/DeviceGray {} cs
[0] sc
/DeviceGray {} CS
[0] SC
false op
false OP
{} settransfer
q
[1 0 0 -1 0 220] cm
[1 0 0 1 -31.2 -4.8] cm
[1 0 0 1 0 0] cm
1 w
/DeviceRGB {} CS
[0 0 0] SC
/DeviceRGB {} cs
[0 0 0] sc
[] 0 d
2 J
0 j
10 M
31.2 4.8 m
31.2 224.8 l
73.316 224.8 l
73.316 4.8 l
W*
q
29.2 2.8 m
29.2 226.8 l
75.316 226.8 l
75.316 2.8 l
W*
q
31.2 4.8 m
31.2 224.8 l
74.2 224.8 l
74.2 4.8 l
W*
3.239 M
/DeviceGray {} CS
[0] SC
/DeviceGray {} cs
[0] sc
0.4 w
[] 0 d
3.25 M
q
0 J
52.258 114.8 m
56.11 114.8 l
S
Q
55.582 113.295 m
55.666 113.466 l
55.849 113.877 l
55.946 114.124 l
56.031 114.373 l
56.089 114.605 l
56.11 114.8 l
56.089 114.977 l
56.031 115.206 l
55.946 115.463 l
55.849 115.726 l
55.666 116.174 l
55.582 116.365 l
61.301 114.8 l
55.582 113.295 l
f*
[] 0 d
q
0 J
52.258 114.8 m
56.209 114.385 l
S
Q
55.527 112.943 m
55.628 113.105 l
55.854 113.494 l
55.976 113.729 l
56.086 113.968 l
56.169 114.193 l
56.209 114.385 l
56.208 114.563 l
56.173 114.796 l
56.116 115.061 l
56.047 115.333 l
55.911 115.798 l
55.848 115.997 l
61.372 113.842 l
55.527 112.943 l
f*
[] 0 d
q
0 J
52.258 114.8 m
56.511 113.896 l
S
Q
55.682 112.533 m
55.799 112.683 l
56.064 113.047 l
56.211 113.268 l
56.345 113.494 l
56.451 113.709 l
56.511 113.896 l
56.528 114.073 l
56.518 114.309 l
56.489 114.578 l
56.449 114.856 l
56.363 115.333 l
56.32 115.537 l
61.589 112.817 l
55.682 112.533 l
f*
[] 0 d
q
0 J
52.258 114.8 m
57.025 113.251 l
S
Q
56.058 111.983 m
56.19 112.12 l
56.492 112.454 l
56.661 112.658 l
56.818 112.869 l
56.945 113.072 l
57.025 113.251 l
57.06 113.425 l
57.075 113.661 l
57.075 113.932 l
57.063 114.212 l
57.027 114.695 l
57.007 114.903 l
61.962 111.647 l
56.058 111.983 l
f*
[] 0 d
q
0 J
52.258 114.8 m
57.766 112.347 l
S
Q
56.672 111.187 m
56.818 111.309 l
57.153 111.61 l
57.342 111.796 l
57.521 111.989 l
57.669 112.177 l
57.766 112.347 l
57.82 112.517 l
57.859 112.75 l
57.887 113.019 l
57.905 113.299 l
57.92 113.784 l
57.921 113.992 l
62.509 110.236 l
56.672 111.187 l
f*
[] 0 d
q
0 J
52.258 114.8 m
58.758 111.047 l
S
Q
57.549 110.007 m
57.707 110.114 l
58.071 110.378 l
58.279 110.543 l
58.477 110.716 l
58.643 110.888 l
58.758 111.047 l
58.829 111.21 l
58.893 111.438 l
58.949 111.703 l
58.996 111.979 l
59.061 112.459 l
59.084 112.666 l
63.254 108.451 l
57.549 110.007 l
f*
[] 0 d
q
0 J
52.258 114.8 m
60.029 109.154 l
S
Q
58.717 108.246 m
58.886 108.336 l
59.276 108.56 l
59.5 108.703 l
59.714 108.854 l
59.898 109.008 l
60.029 109.154 l
60.117 109.309 l
60.204 109.528 l
60.287 109.786 l
60.363 110.056 l
60.478 110.527 l
60.522 110.73 l
64.229 106.102 l
58.717 108.246 l
f*
[] 0 d
q
0 J
52.258 114.8 m
61.608 106.381 l
S
Q
60.209 105.616 m
60.385 105.687 l
60.797 105.869 l
61.034 105.988 l
61.264 106.116 l
61.462 106.249 l
61.608 106.381 l
61.711 106.526 l
61.821 106.735 l
61.93 106.983 l
62.034 107.243 l
62.198 107.7 l
62.263 107.898 l
65.466 102.907 l
60.209 105.616 l
f*
[] 0 d
q
0 J
52.258 114.8 m
63.512 102.301 l
S
Q
62.04 101.686 m
62.223 101.739 l
62.651 101.877 l
62.9 101.97 l
63.142 102.074 l
63.353 102.185 l
63.512 102.301 l
63.63 102.434 l
63.761 102.631 l
63.895 102.866 l
64.025 103.114 l
64.236 103.551 l
64.322 103.741 l
66.986 98.443 l
62.04 101.686 l
f*
[] 0 d
q
0 J
52.258 114.8 m
65.711 96.284 l
S
Q
64.183 95.826 m
64.371 95.859 l
64.811 95.952 l
65.068 96.018 l
65.319 96.096 l
65.541 96.185 l
65.711 96.284 l
65.842 96.404 l
65.993 96.586 l
66.151 96.805 l
66.307 97.038 l
66.562 97.451 l
66.667 97.631 l
68.762 92.084 l
64.183 95.826 l
f*
[] 0 d
q
0 J
52.258 114.8 m
68.05 87.447 l
S
Q
66.483 87.152 m
66.673 87.165 l
67.12 87.211 l
67.383 87.25 l
67.641 87.302 l
67.871 87.367 l
68.05 87.447 l
68.193 87.553 l
68.362 87.718 l
68.543 87.92 l
68.721 88.136 l
69.018 88.519 l
69.142 88.687 l
70.646 82.951 l
66.483 87.152 l
f*
[] 0 d
q
0 J
52.258 114.8 m
70.09 74.748 l
S
Q
68.501 74.618 m
68.691 74.611 l
69.141 74.61 l
69.406 74.622 l
69.668 74.646 l
69.904 74.687 l
70.09 74.748 l
70.244 74.838 l
70.429 74.985 l
70.63 75.167 l
70.83 75.362 l
71.165 75.713 l
71.305 75.867 l
72.202 70.005 l
68.501 74.618 l
f*
[] 0 d
q
0 J
52.258 114.8 m
70.869 57.52 l
S
Q
69.275 57.557 m
69.463 57.53 l
69.911 57.483 l
70.176 57.466 l
70.439 57.463 l
70.677 57.479 l
70.869 57.52 l
71.031 57.594 l
71.231 57.721 l
71.449 57.88 l
71.669 58.054 l
72.039 58.367 l
72.195 58.506 l
72.473 52.583 l
69.275 57.557 l
f*
[] 0 d
q
0 J
52.258 114.8 m
68.794 37.006 l
S
Q
67.212 37.209 m
67.396 37.163 l
67.836 37.069 l
68.098 37.025 l
68.359 36.994 l
68.598 36.985 l
68.794 37.006 l
68.962 37.062 l
69.174 37.167 l
69.408 37.303 l
69.645 37.453 l
70.046 37.726 l
70.215 37.848 l
69.873 31.928 l
67.212 37.209 l
f*
[] 0 d
q
0 J
52.258 114.8 m
62.375 18.538 l
S
Q
60.823 18.906 m
61.002 18.84 l
61.43 18.701 l
61.686 18.63 l
61.942 18.572 l
62.179 18.538 l
62.375 18.538 l
62.549 18.577 l
62.771 18.659 l
63.018 18.77 l
63.269 18.894 l
63.696 19.124 l
63.877 19.227 l
62.918 13.375 l
60.823 18.906 l
f*
[] 0 d
q
0 J
52.258 114.8 m
52.258 10.8 l
S
Q
50.753 11.328 m
50.924 11.244 l
51.335 11.061 l
51.582 10.963 l
51.831 10.879 l
52.062 10.82 l
52.258 10.8 l
52.435 10.82 l
52.663 10.879 l
52.921 10.963 l
53.184 11.061 l
53.632 11.244 l
53.823 11.328 l
52.258 5.609 l
50.753 11.328 l
f*
[] 0 d
q
0 J
52.258 114.8 m
42.14 18.538 l
S
Q
40.699 19.221 m
40.86 19.119 l
41.249 18.894 l
41.485 18.771 l
41.724 18.661 l
41.948 18.579 l
42.14 18.538 l
42.318 18.54 l
42.552 18.574 l
42.817 18.631 l
43.088 18.701 l
43.554 18.836 l
43.752 18.9 l
41.598 13.375 l
40.699 19.221 l
f*
[] 0 d
q
0 J
52.258 114.8 m
35.722 37.006 l
S
Q
34.36 37.835 m
34.51 37.718 l
34.873 37.453 l
35.095 37.306 l
35.321 37.172 l
35.535 37.066 l
35.722 37.006 l
35.899 36.989 l
36.135 36.999 l
36.405 37.028 l
36.682 37.068 l
37.159 37.154 l
37.363 37.197 l
34.643 31.928 l
34.36 37.835 l
f*
[] 0 d
q
0 J
52.258 114.8 m
33.647 57.52 l
S
Q
32.378 58.487 m
32.515 58.355 l
32.849 58.053 l
33.054 57.884 l
33.265 57.727 l
33.467 57.6 l
33.647 57.52 l
33.821 57.485 l
34.057 57.47 l
34.327 57.471 l
34.607 57.482 l
35.091 57.518 l
35.298 57.539 l
32.042 52.583 l
32.378 58.487 l
f*
[] 0 d
q
0 J
52.258 114.8 m
34.425 74.748 l
S
Q
33.265 75.842 m
33.388 75.696 l
33.688 75.361 l
33.874 75.172 l
34.067 74.994 l
34.255 74.846 l
34.425 74.748 l
34.595 74.694 l
34.828 74.655 l
35.097 74.627 l
35.377 74.609 l
35.862 74.594 l
36.07 74.593 l
32.314 70.005 l
33.265 75.842 l
f*
[] 0 d
q
0 J
52.258 114.8 m
36.466 87.447 l
S
Q
35.426 88.657 m
35.533 88.499 l
35.797 88.135 l
35.962 87.927 l
36.135 87.729 l
36.307 87.562 l
36.466 87.447 l
36.629 87.376 l
36.856 87.313 l
37.122 87.257 l
37.398 87.21 l
37.878 87.145 l
38.085 87.122 l
33.87 82.951 l
35.426 88.657 l
f*
[] 0 d
q
0 J
52.258 114.8 m
38.805 96.284 l
S
Q
37.897 97.595 m
37.987 97.427 l
38.211 97.037 l
38.354 96.813 l
38.506 96.598 l
38.659 96.415 l
38.805 96.284 l
38.96 96.196 l
39.179 96.109 l
39.437 96.026 l
39.707 95.95 l
40.178 95.835 l
40.381 95.791 l
35.753 92.084 l
37.897 97.595 l
f*
[] 0 d
q
0 J
52.258 114.8 m
41.004 102.301 l
S
Q
40.239 103.701 m
40.31 103.524 l
40.492 103.113 l
40.61 102.875 l
40.739 102.646 l
40.872 102.447 l
41.004 102.301 l
41.149 102.198 l
41.358 102.088 l
41.606 101.979 l
41.866 101.875 l
42.322 101.712 l
42.52 101.646 l
37.53 98.443 l
40.239 103.701 l
f*
[] 0 d
q
0 J
52.258 114.8 m
42.908 106.381 l
S
Q
42.293 107.853 m
42.345 107.669 l
42.484 107.242 l
42.576 106.993 l
42.68 106.751 l
42.792 106.54 l
42.908 106.381 l
43.041 106.263 l
43.238 106.132 l
43.473 105.998 l
43.721 105.867 l
44.157 105.657 l
44.347 105.571 l
39.05 102.907 l
42.293 107.853 l
f*
[] 0 d
q
0 J
52.258 114.8 m
44.487 109.154 l
S
Q
44.029 110.682 m
44.062 110.494 l
44.155 110.054 l
44.221 109.797 l
44.299 109.546 l
44.388 109.324 l
44.487 109.154 l
44.607 109.023 l
44.789 108.872 l
45.008 108.713 l
45.241 108.558 l
45.654 108.303 l
45.834 108.198 l
40.287 106.102 l
44.029 110.682 l
f*
[] 0 d
q
0 J
52.258 114.8 m
45.757 111.047 l
S
Q
45.462 112.614 m
45.475 112.424 l
45.521 111.977 l
45.56 111.714 l
45.612 111.456 l
45.677 111.226 l
45.757 111.047 l
45.863 110.904 l
46.028 110.735 l
46.23 110.554 l
46.446 110.375 l
46.829 110.079 l
46.997 109.955 l
41.261 108.451 l
45.462 112.614 l
f*
[] 0 d
q
0 J
52.258 114.8 m
46.749 112.347 l
S
Q
46.619 113.937 m
46.612 113.747 l
46.612 113.297 l
46.623 113.032 l
46.647 112.77 l
46.688 112.534 l
46.749 112.347 l
46.84 112.194 l
46.986 112.009 l
47.168 111.808 l
47.364 111.608 l
47.714 111.272 l
47.868 111.132 l
42.007 110.236 l
46.619 113.937 l
f*
[] 0 d
q
0 J
52.258 114.8 m
47.491 113.251 l
S
Q
47.528 114.846 m
47.501 114.657 l
47.453 114.21 l
47.437 113.945 l
47.434 113.682 l
47.45 113.443 l
47.491 113.251 l
47.565 113.089 l
47.691 112.89 l
47.851 112.671 l
48.025 112.451 l
48.338 112.081 l
48.477 111.926 l
42.553 111.647 l
47.528 114.846 l
f*
[] 0 d
q
0 J
52.258 114.8 m
48.005 113.896 l
S
Q
48.208 115.478 m
48.162 115.293 l
48.067 114.853 l
48.023 114.591 l
47.993 114.33 l
47.984 114.091 l
48.005 113.896 l
48.061 113.727 l
48.166 113.516 l
48.302 113.281 l
48.452 113.045 l
48.725 112.644 l
48.846 112.475 l
42.927 112.817 l
48.208 115.478 l
f*
[] 0 d
q
0 J
52.258 114.8 m
48.307 114.385 l
S
Q
48.674 115.937 m
48.609 115.758 l
48.469 115.33 l
48.398 115.074 l
48.34 114.818 l
48.306 114.581 l
48.307 114.385 l
48.345 114.211 l
48.427 113.99 l
48.538 113.742 l
48.662 113.491 l
48.892 113.064 l
48.995 112.883 l
43.144 113.842 l
48.674 115.937 l
f*
[] 0 d
q
0 J
52.258 114.8 m
48.406 114.8 l
S
Q
48.934 116.305 m
48.85 116.134 l
48.667 115.723 l
48.569 115.476 l
48.485 115.227 l
48.426 114.995 l
48.406 114.8 l
48.426 114.623 l
48.485 114.394 l
48.569 114.137 l
48.667 113.874 l
48.85 113.426 l
48.934 113.235 l
43.215 114.8 l
48.934 116.305 l
f*
[] 0 d
q
0 J
52.258 114.8 m
48.307 115.215 l
S
Q
48.989 116.657 m
48.888 116.495 l
48.662 116.106 l
48.539 115.871 l
48.43 115.632 l
48.347 115.407 l
48.307 115.215 l
48.308 115.037 l
48.342 114.804 l
48.399 114.539 l
48.469 114.267 l
48.604 113.802 l
48.668 113.603 l
43.144 115.758 l
48.989 116.657 l
f*
[] 0 d
q
0 J
52.258 114.8 m
48.005 115.704 l
S
Q
48.834 117.067 m
48.716 116.917 l
48.451 116.553 l
48.305 116.332 l
48.17 116.106 l
48.065 115.891 l
48.005 115.704 l
47.987 115.527 l
47.997 115.291 l
48.026 115.022 l
48.067 114.744 l
48.153 114.267 l
48.195 114.063 l
42.927 116.783 l
48.834 117.067 l
f*
[] 0 d
q
0 J
52.258 114.8 m
47.491 116.349 l
S
Q
48.458 117.617 m
48.325 117.48 l
48.024 117.146 l
47.855 116.942 l
47.698 116.731 l
47.57 116.528 l
47.491 116.349 l
47.455 116.175 l
47.44 115.939 l
47.441 115.668 l
47.453 115.388 l
47.488 114.905 l
47.509 114.697 l
42.553 117.953 l
48.458 117.617 l
f*
[] 0 d
q
0 J
52.258 114.8 m
46.749 117.253 l
S
Q
47.844 118.413 m
47.697 118.291 l
47.363 117.99 l
47.173 117.804 l
46.995 117.611 l
46.847 117.423 l
46.749 117.253 l
46.696 117.083 l
46.656 116.85 l
46.629 116.581 l
46.611 116.301 l
46.596 115.816 l
46.595 115.608 l
42.007 119.364 l
47.844 118.413 l
f*
[] 0 d
q
0 J
52.258 114.8 m
45.757 118.553 l
S
Q
46.967 119.593 m
46.809 119.486 l
46.445 119.222 l
46.237 119.057 l
46.039 118.884 l
45.872 118.712 l
45.757 118.553 l
45.686 118.39 l
45.623 118.162 l
45.567 117.897 l
45.52 117.621 l
45.455 117.141 l
45.432 116.934 l
41.261 121.149 l
46.967 119.593 l
f*
[] 0 d
q
0 J
52.258 114.8 m
44.487 120.446 l
S
Q
45.798 121.354 m
45.63 121.264 l
45.24 121.04 l
45.016 120.897 l
44.801 120.746 l
44.618 120.592 l
44.487 120.446 l
44.399 120.291 l
44.312 120.072 l
44.229 119.814 l
44.153 119.544 l
44.038 119.073 l
43.994 118.87 l
40.287 123.498 l
45.798 121.354 l
f*
[] 0 d
q
0 J
52.258 114.8 m
42.908 123.219 l
S
Q
44.307 123.984 m
44.13 123.913 l
43.719 123.731 l
43.481 123.612 l
43.252 123.484 l
43.053 123.351 l
42.908 123.219 l
42.804 123.074 l
42.695 122.865 l
42.585 122.617 l
42.482 122.357 l
42.318 121.9 l
42.253 121.702 l
39.05 126.693 l
44.307 123.984 l
f*
[] 0 d
q
0 J
52.258 114.8 m
41.004 127.299 l
S
Q
42.476 127.914 m
42.292 127.861 l
41.864 127.723 l
41.616 127.63 l
41.374 127.526 l
41.163 127.415 l
41.004 127.299 l
40.886 127.166 l
40.755 126.969 l
40.62 126.734 l
40.49 126.486 l
40.28 126.049 l
40.194 125.859 l
37.53 131.157 l
42.476 127.914 l
f*
[] 0 d
q
0 J
52.258 114.8 m
38.805 133.316 l
S
Q
40.333 133.774 m
40.145 133.741 l
39.705 133.648 l
39.448 133.582 l
39.197 133.504 l
38.975 133.415 l
38.805 133.316 l
38.674 133.196 l
38.523 133.014 l
38.364 132.795 l
38.209 132.562 l
37.954 132.149 l
37.849 131.969 l
35.753 137.516 l
40.333 133.774 l
f*
[] 0 d
q
0 J
52.258 114.8 m
36.466 142.153 l
S
Q
38.033 142.448 m
37.843 142.435 l
37.396 142.389 l
37.133 142.35 l
36.875 142.298 l
36.645 142.233 l
36.466 142.153 l
36.323 142.047 l
36.154 141.882 l
35.973 141.68 l
35.794 141.464 l
35.498 141.081 l
35.374 140.913 l
33.87 146.649 l
38.033 142.448 l
f*
[] 0 d
q
0 J
52.258 114.8 m
34.425 154.852 l
S
Q
36.015 154.982 m
35.825 154.989 l
35.375 154.99 l
35.11 154.978 l
34.848 154.954 l
34.612 154.913 l
34.425 154.852 l
34.272 154.762 l
34.087 154.615 l
33.886 154.433 l
33.686 154.238 l
33.351 153.887 l
33.21 153.733 l
32.314 159.595 l
36.015 154.982 l
f*
[] 0 d
q
0 J
52.258 114.8 m
33.647 172.08 l
S
Q
35.241 172.043 m
35.052 172.07 l
34.605 172.117 l
34.34 172.134 l
34.077 172.137 l
33.839 172.121 l
33.647 172.08 l
33.485 172.006 l
33.285 171.879 l
33.066 171.72 l
32.847 171.546 l
32.477 171.233 l
32.321 171.094 l
32.042 177.017 l
35.241 172.043 l
f*
[] 0 d
q
0 J
52.258 114.8 m
35.722 192.594 l
S
Q
37.304 192.391 m
37.119 192.437 l
36.679 192.531 l
36.418 192.575 l
36.156 192.606 l
35.917 192.615 l
35.722 192.594 l
35.553 192.538 l
35.342 192.433 l
35.108 192.297 l
34.871 192.147 l
34.47 191.874 l
34.301 191.752 l
34.643 197.672 l
37.304 192.391 l
f*
[] 0 d
q
0 J
52.258 114.8 m
42.14 211.062 l
S
Q
43.692 210.694 m
43.513 210.76 l
43.086 210.899 l
42.83 210.97 l
42.573 211.028 l
42.337 211.062 l
42.14 211.062 l
41.967 211.023 l
41.745 210.941 l
41.498 210.83 l
41.247 210.706 l
40.82 210.476 l
40.639 210.373 l
41.598 216.225 l
43.692 210.694 l
f*
[] 0 d
q
0 J
52.258 114.8 m
52.258 218.8 l
S
Q
53.763 218.272 m
53.592 218.356 l
53.181 218.539 l
52.934 218.637 l
52.685 218.721 l
52.453 218.78 l
52.258 218.8 l
52.081 218.78 l
51.852 218.721 l
51.595 218.637 l
51.332 218.539 l
50.883 218.356 l
50.693 218.272 l
52.258 223.991 l
53.763 218.272 l
f*
[] 0 d
q
0 J
52.258 114.8 m
62.375 211.062 l
S
Q
63.817 210.379 m
63.656 210.481 l
63.266 210.706 l
63.031 210.829 l
62.792 210.939 l
62.568 211.021 l
62.375 211.062 l
62.197 211.06 l
61.964 211.026 l
61.699 210.969 l
61.427 210.899 l
60.962 210.764 l
60.764 210.7 l
62.918 216.225 l
63.817 210.379 l
f*
[] 0 d
q
0 J
52.258 114.8 m
68.794 192.594 l
S
Q
70.156 191.765 m
70.006 191.882 l
69.642 192.147 l
69.421 192.294 l
69.195 192.428 l
68.98 192.534 l
68.794 192.594 l
68.616 192.611 l
68.38 192.601 l
68.111 192.572 l
67.834 192.532 l
67.357 192.446 l
67.153 192.403 l
69.873 197.672 l
70.156 191.765 l
f*
[] 0 d
q
0 J
52.258 114.8 m
70.869 172.08 l
S
Q
72.137 171.113 m
72.001 171.245 l
71.667 171.547 l
71.462 171.716 l
71.251 171.873 l
71.049 172 l
70.869 172.08 l
70.695 172.115 l
70.459 172.13 l
70.188 172.129 l
69.908 172.118 l
69.425 172.082 l
69.217 172.061 l
72.473 177.017 l
72.137 171.113 l
f*
[] 0 d
q
0 J
52.258 114.8 m
70.09 154.852 l
S
Q
71.25 153.758 m
71.128 153.904 l
70.828 154.239 l
70.642 154.428 l
70.448 154.606 l
70.261 154.754 l
70.09 154.852 l
69.921 154.906 l
69.688 154.945 l
69.418 154.973 l
69.139 154.991 l
68.654 155.006 l
68.446 155.007 l
72.202 159.595 l
71.25 153.758 l
f*
[] 0 d
q
0 J
52.258 114.8 m
68.05 142.153 l
S
Q
69.089 140.943 m
68.983 141.101 l
68.719 141.465 l
68.554 141.673 l
68.381 141.871 l
68.209 142.038 l
68.05 142.153 l
67.887 142.224 l
67.659 142.287 l
67.394 142.343 l
67.118 142.39 l
66.638 142.455 l
66.43 142.478 l
70.646 146.649 l
69.089 140.943 l
f*
[] 0 d
q
0 J
52.258 114.8 m
65.711 133.316 l
S
Q
66.618 132.005 m
66.529 132.173 l
66.305 132.563 l
66.162 132.787 l
66.01 133.002 l
65.857 133.185 l
65.711 133.316 l
65.556 133.404 l
65.336 133.491 l
65.079 133.574 l
64.809 133.65 l
64.338 133.765 l
64.134 133.809 l
68.762 137.516 l
66.618 132.005 l
f*
[] 0 d
q
0 J
52.258 114.8 m
63.512 127.299 l
S
Q
64.277 125.899 m
64.206 126.076 l
64.024 126.487 l
63.905 126.725 l
63.777 126.954 l
63.644 127.153 l
63.512 127.299 l
63.367 127.402 l
63.158 127.512 l
62.91 127.621 l
62.65 127.725 l
62.193 127.888 l
61.995 127.954 l
66.986 131.157 l
64.277 125.899 l
f*
[] 0 d
q
0 J
52.258 114.8 m
61.608 123.219 l
S
Q
62.223 121.747 m
62.171 121.931 l
62.032 122.358 l
61.939 122.607 l
61.835 122.849 l
61.724 123.06 l
61.608 123.219 l
61.475 123.337 l
61.278 123.468 l
61.043 123.602 l
60.795 123.733 l
60.358 123.943 l
60.168 124.029 l
65.466 126.693 l
62.223 121.747 l
f*
[] 0 d
q
0 J
52.258 114.8 m
60.029 120.446 l
S
Q
60.487 118.918 m
60.454 119.106 l
60.361 119.546 l
60.295 119.803 l
60.217 120.054 l
60.128 120.276 l
60.029 120.446 l
59.909 120.577 l
59.727 120.728 l
59.508 120.887 l
59.274 121.042 l
58.862 121.297 l
58.682 121.402 l
64.229 123.498 l
60.487 118.918 l
f*
[] 0 d
q
0 J
52.258 114.8 m
58.758 118.553 l
S
Q
59.054 116.986 m
59.041 117.176 l
58.994 117.623 l
58.955 117.886 l
58.904 118.144 l
58.839 118.374 l
58.758 118.553 l
58.653 118.696 l
58.487 118.865 l
58.286 119.046 l
58.07 119.225 l
57.687 119.521 l
57.519 119.645 l
63.254 121.149 l
59.054 116.986 l
f*
[] 0 d
q
0 J
52.258 114.8 m
57.766 117.253 l
S
Q
57.896 115.663 m
57.903 115.853 l
57.904 116.303 l
57.892 116.568 l
57.868 116.83 l
57.828 117.066 l
57.766 117.253 l
57.676 117.406 l
57.53 117.591 l
57.348 117.792 l
57.152 117.992 l
56.802 118.328 l
56.648 118.468 l
62.509 119.364 l
57.896 115.663 l
f*
[] 0 d
q
0 J
52.258 114.8 m
57.025 116.349 l
S
Q
56.988 114.754 m
57.015 114.943 l
57.062 115.39 l
57.079 115.655 l
57.082 115.918 l
57.066 116.157 l
57.025 116.349 l
56.951 116.511 l
56.825 116.71 l
56.665 116.929 l
56.491 117.149 l
56.178 117.519 l
56.039 117.674 l
61.962 117.953 l
56.988 114.754 l
f*
[] 0 d
q
0 J
52.258 114.8 m
56.511 115.704 l
S
Q
56.308 114.122 m
56.354 114.307 l
56.448 114.747 l
56.492 115.009 l
56.523 115.27 l
56.532 115.509 l
56.511 115.704 l
56.455 115.873 l
56.35 116.084 l
56.214 116.319 l
56.064 116.555 l
55.791 116.956 l
55.669 117.125 l
61.589 116.783 l
56.308 114.122 l
f*
[] 0 d
q
0 J
52.258 114.8 m
56.209 115.215 l
S
Q
55.842 113.663 m
55.907 113.842 l
56.047 114.27 l
56.118 114.526 l
56.176 114.782 l
56.21 115.019 l
56.209 115.215 l
56.171 115.389 l
56.088 115.61 l
55.978 115.858 l
55.853 116.109 l
55.624 116.536 l
55.521 116.717 l
61.372 115.758 l
55.842 113.663 l
f*
Q
Q
1 w
/DeviceRGB {} CS
[0 0 0] SC
/DeviceRGB {} cs
[0 0 0] sc
[] 0 d
2 J
0 j
10 M
Q
showpage
%%PageTrailer
pdfEndPage
%%Trailer
end
%%DocumentSuppliedResources:
%%EOF
