%!PS-Adobe-3.0 EPSF-3.0
%%Creator: Mathematica
%%LanguageLevel: 2
%%DocumentSuppliedResources: (atend)
%%BoundingBox: 0 0 240 240
%%HiResBoundingBox: 0 0 240 239.616
%%DocumentSuppliedResources: (atend)
%%EndComments
%%BeginProlog
%%BeginResource: procset xpdf 3.00 0
%%Copyright: Copyright 1996-2004 Glyph & Cog, LLC
/xpdf 75 dict def xpdf begin
% PDF special state
/pdfDictSize 15 def
/pdfSetup {
  3 1 roll 2 array astore
  /setpagedevice where {
    pop 3 dict begin
      /PageSize exch def
      /ImagingBBox null def
      { /Duplex true def } if
    currentdict end setpagedevice
  } {
    pop pop
  } ifelse
} def
/pdfStartPage {
  pdfDictSize dict begin
  /pdfFillCS [] def
  /pdfFillXform {} def
  /pdfStrokeCS [] def
  /pdfStrokeXform {} def
  /pdfFill [0] def
  /pdfStroke [0] def
  /pdfFillOP false def
  /pdfStrokeOP false def
  /pdfLastFill false def
  /pdfLastStroke false def
  /pdfTextMat [1 0 0 1 0 0] def
  /pdfFontSize 0 def
  /pdfCharSpacing 0 def
  /pdfTextRender 0 def
  /pdfTextRise 0 def
  /pdfWordSpacing 0 def
  /pdfHorizScaling 1 def
  /pdfTextClipPath [] def
} def
/pdfEndPage { end } def
% PDF color state
/cs { /pdfFillXform exch def dup /pdfFillCS exch def
      setcolorspace } def
/CS { /pdfStrokeXform exch def dup /pdfStrokeCS exch def
      setcolorspace } def
/sc { pdfLastFill not { pdfFillCS setcolorspace } if
      dup /pdfFill exch def aload pop pdfFillXform setcolor
     /pdfLastFill true def /pdfLastStroke false def } def
/SC { pdfLastStroke not { pdfStrokeCS setcolorspace } if
      dup /pdfStroke exch def aload pop pdfStrokeXform setcolor
     /pdfLastStroke true def /pdfLastFill false def } def
/op { /pdfFillOP exch def
      pdfLastFill { pdfFillOP setoverprint } if } def
/OP { /pdfStrokeOP exch def
      pdfLastStroke { pdfStrokeOP setoverprint } if } def
/fCol {
  pdfLastFill not {
    pdfFillCS setcolorspace
    pdfFill aload pop pdfFillXform setcolor
    pdfFillOP setoverprint
    /pdfLastFill true def /pdfLastStroke false def
  } if
} def
/sCol {
  pdfLastStroke not {
    pdfStrokeCS setcolorspace
    pdfStroke aload pop pdfStrokeXform setcolor
    pdfStrokeOP setoverprint
    /pdfLastStroke true def /pdfLastFill false def
  } if
} def
% build a font
/pdfMakeFont {
  4 3 roll findfont
  4 2 roll matrix scale makefont
  dup length dict begin
    { 1 index /FID ne { def } { pop pop } ifelse } forall
    /Encoding exch def
    currentdict
  end
  definefont pop
} def
/pdfMakeFont16 {
  exch findfont
  dup length dict begin
    { 1 index /FID ne { def } { pop pop } ifelse } forall
    /WMode exch def
    currentdict
  end
  definefont pop
} def
% graphics state operators
/q { gsave pdfDictSize dict begin } def
/Q {
  end grestore
  /pdfLastFill where {
    pop
    pdfLastFill {
      pdfFillOP setoverprint
    } {
      pdfStrokeOP setoverprint
    } ifelse
  } if
} def
/cm { concat } def
/d { setdash } def
/i { setflat } def
/j { setlinejoin } def
/J { setlinecap } def
/M { setmiterlimit } def
/w { setlinewidth } def
% path segment operators
/m { moveto } def
/l { lineto } def
/c { curveto } def
/re { 4 2 roll moveto 1 index 0 rlineto 0 exch rlineto
      neg 0 rlineto closepath } def
/h { closepath } def
% path painting operators
/S { sCol stroke } def
/Sf { fCol stroke } def
/f { fCol fill } def
/f* { fCol eofill } def
% clipping operators
/W { clip newpath } def
/W* { eoclip newpath } def
/Ws { strokepath clip newpath } def
% text state operators
/Tc { /pdfCharSpacing exch def } def
/Tf { dup /pdfFontSize exch def
      dup pdfHorizScaling mul exch matrix scale
      pdfTextMat matrix concatmatrix dup 4 0 put dup 5 0 put
      exch findfont exch makefont setfont } def
/Tr { /pdfTextRender exch def } def
/Ts { /pdfTextRise exch def } def
/Tw { /pdfWordSpacing exch def } def
/Tz { /pdfHorizScaling exch def } def
% text positioning operators
/Td { pdfTextMat transform moveto } def
/Tm { /pdfTextMat exch def } def
% text string operators
/cshow where {
  pop
  /cshow2 {
    dup {
      pop pop
      1 string dup 0 3 index put 3 index exec
    } exch cshow
    pop pop
  } def
}{
  /cshow2 {
    currentfont /FontType get 0 eq {
      0 2 2 index length 1 sub {
        2 copy get exch 1 add 2 index exch get
        2 copy exch 256 mul add
        2 string dup 0 6 5 roll put dup 1 5 4 roll put
        3 index exec
      } for
    } {
      dup {
        1 string dup 0 3 index put 3 index exec
      } forall
    } ifelse
    pop pop
  } def
} ifelse
/awcp {
  exch {
    false charpath
    5 index 5 index rmoveto
    6 index eq { 7 index 7 index rmoveto } if
  } exch cshow2
  6 {pop} repeat
} def
/Tj {
  fCol
  1 index stringwidth pdfTextMat idtransform pop
  sub 1 index length dup 0 ne { div } { pop pop 0 } ifelse
  pdfWordSpacing pdfHorizScaling mul 0 pdfTextMat dtransform 32
  4 3 roll pdfCharSpacing pdfHorizScaling mul add 0
  pdfTextMat dtransform
  6 5 roll Tj1
} def
/Tj16 {
  fCol
  2 index stringwidth pdfTextMat idtransform pop
  sub exch div
  pdfWordSpacing pdfHorizScaling mul 0 pdfTextMat dtransform 32
  4 3 roll pdfCharSpacing pdfHorizScaling mul add 0
  pdfTextMat dtransform
  6 5 roll Tj1
} def
/Tj16V {
  fCol
  2 index stringwidth pdfTextMat idtransform exch pop
  sub exch div
  0 pdfWordSpacing pdfTextMat dtransform 32
  4 3 roll pdfCharSpacing add 0 exch
  pdfTextMat dtransform
  6 5 roll Tj1
} def
/Tj1 {
  0 pdfTextRise pdfTextMat dtransform rmoveto
  currentpoint 8 2 roll
  pdfTextRender 1 and 0 eq {
    6 copy awidthshow
  } if
  pdfTextRender 3 and dup 1 eq exch 2 eq or {
    7 index 7 index moveto
    6 copy
    currentfont /FontType get 3 eq { fCol } { sCol } ifelse
    false awcp currentpoint stroke moveto
  } if
  pdfTextRender 4 and 0 ne {
    8 6 roll moveto
    false awcp
    /pdfTextClipPath [ pdfTextClipPath aload pop
      {/moveto cvx}
      {/lineto cvx}
      {/curveto cvx}
      {/closepath cvx}
    pathforall ] def
    currentpoint newpath moveto
  } {
    8 {pop} repeat
  } ifelse
  0 pdfTextRise neg pdfTextMat dtransform rmoveto
} def
/TJm { pdfFontSize 0.001 mul mul neg 0
       pdfTextMat dtransform rmoveto } def
/TJmV { pdfFontSize 0.001 mul mul neg 0 exch
        pdfTextMat dtransform rmoveto } def
/Tclip { pdfTextClipPath cvx exec clip newpath
         /pdfTextClipPath [] def } def
/Tclip* { pdfTextClipPath cvx exec eoclip newpath
         /pdfTextClipPath [] def } def
% Level 2 image operators
/pdfImBuf 100 string def
/pdfIm {
  image
  { currentfile pdfImBuf readline
    not { pop exit } if
    (%-EOD-) eq { exit } if } loop
} def
/pdfImM {
  fCol imagemask
  { currentfile pdfImBuf readline
    not { pop exit } if
    (%-EOD-) eq { exit } if } loop
} def
/pr { 2 index 2 index 3 2 roll putinterval 4 add } def
/pdfImClip {
  gsave
  0 2 4 index length 1 sub {
    dup 4 index exch 2 copy
    get 5 index div put
    1 add 3 index exch 2 copy
    get 3 index div put
  } for
  pop pop rectclip
} def
/pdfImClipEnd { grestore } def
% shading operators
/colordelta {
  false 0 1 3 index length 1 sub {
    dup 4 index exch get 3 index 3 2 roll get sub abs 0.004 gt {
      pop true
    } if
  } for
  exch pop exch pop
} def
/funcCol { func n array astore } def
/funcSH {
  dup 0 eq {
    true
  } {
    dup 6 eq {
      false
    } {
      4 index 4 index funcCol dup
      6 index 4 index funcCol dup
      3 1 roll colordelta 3 1 roll
      5 index 5 index funcCol dup
      3 1 roll colordelta 3 1 roll
      6 index 8 index funcCol dup
      3 1 roll colordelta 3 1 roll
      colordelta or or or
    } ifelse
  } ifelse
  {
    1 add
    4 index 3 index add 0.5 mul exch 4 index 3 index add 0.5 mul exch
    6 index 6 index 4 index 4 index 4 index funcSH
    2 index 6 index 6 index 4 index 4 index funcSH
    6 index 2 index 4 index 6 index 4 index funcSH
    5 3 roll 3 2 roll funcSH pop pop
  } {
    pop 3 index 2 index add 0.5 mul 3 index  2 index add 0.5 mul
    funcCol sc
    dup 4 index exch mat transform m
    3 index 3 index mat transform l
    1 index 3 index mat transform l
    mat transform l pop pop h f*
  } ifelse
} def
/axialCol {
  dup 0 lt {
    pop t0
  } {
    dup 1 gt {
      pop t1
    } {
      dt mul t0 add
    } ifelse
  } ifelse
  func n array astore
} def
/axialSH {
  dup 0 eq {
    true
  } {
    dup 8 eq {
      false
    } {
      2 index axialCol 2 index axialCol colordelta
    } ifelse
  } ifelse
  {
    1 add 3 1 roll 2 copy add 0.5 mul
    dup 4 3 roll exch 4 index axialSH
    exch 3 2 roll axialSH
  } {
    pop 2 copy add 0.5 mul
    axialCol sc
    exch dup dx mul x0 add exch dy mul y0 add
    3 2 roll dup dx mul x0 add exch dy mul y0 add
    dx abs dy abs ge {
      2 copy yMin sub dy mul dx div add yMin m
      yMax sub dy mul dx div add yMax l
      2 copy yMax sub dy mul dx div add yMax l
      yMin sub dy mul dx div add yMin l
      h f*
    } {
      exch 2 copy xMin sub dx mul dy div add xMin exch m
      xMax sub dx mul dy div add xMax exch l
      exch 2 copy xMax sub dx mul dy div add xMax exch l
      xMin sub dx mul dy div add xMin exch l
      h f*
    } ifelse
  } ifelse
} def
/radialCol {
  dup t0 lt {
    pop t0
  } {
    dup t1 gt {
      pop t1
    } if
  } ifelse
  func n array astore
} def
/radialSH {
  dup 0 eq {
    true
  } {
    dup 8 eq {
      false
    } {
      2 index dt mul t0 add radialCol
      2 index dt mul t0 add radialCol colordelta
    } ifelse
  } ifelse
  {
    1 add 3 1 roll 2 copy add 0.5 mul
    dup 4 3 roll exch 4 index radialSH
    exch 3 2 roll radialSH
  } {
    pop 2 copy add 0.5 mul dt mul t0 add
    radialCol sc
    encl {
      exch dup dx mul x0 add exch dup dy mul y0 add exch dr mul r0 add
      0 360 arc h
      dup dx mul x0 add exch dup dy mul y0 add exch dr mul r0 add
      360 0 arcn h f
    } {
      2 copy
      dup dx mul x0 add exch dup dy mul y0 add exch dr mul r0 add
      a1 a2 arcn
      dup dx mul x0 add exch dup dy mul y0 add exch dr mul r0 add
      a2 a1 arcn h
      dup dx mul x0 add exch dup dy mul y0 add exch dr mul r0 add
      a1 a2 arc
      dup dx mul x0 add exch dup dy mul y0 add exch dr mul r0 add
      a2 a1 arc h f
    } ifelse
  } ifelse
} def
end
%%EndResource
%%EndProlog
%%BeginSetup
xpdf begin
%%EndSetup
pdfStartPage
[] 0 d
1 i
0 j
0 J
10 M
1 w
/DeviceGray {} cs
[0] sc
/DeviceGray {} CS
[0] SC
false op
false OP
{} settransfer
q
[1 0 0 -1 0 239.616] cm
[1 0 0 1 -31.2 -3.2] cm
[1 0 0 1 0 0] cm
1 w
/DeviceRGB {} CS
[0 0 0] SC
/DeviceRGB {} cs
[0 0 0] sc
[] 0 d
2 J
0 j
10 M
31.2 3.2 m
31.2 242.816 l
271.2 242.816 l
271.2 3.2 l
W*
q
29.2 1.2 m
29.2 244.816 l
273.2 244.816 l
273.2 1.2 l
W*
q
31.2 2.816 m
31.2 242.816 l
271.2 242.816 l
271.2 2.816 l
W*
3.239 M
/DeviceGray {} CS
[0] SC
/DeviceGray {} cs
[0] sc
0.4 w
[] 0 d
3.25 M
q
0 J
151.2 123.008 m
257.686 123.008 l
S
Q
256.8 120.482 m
256.941 120.769 l
257.249 121.458 l
257.412 121.873 l
257.554 122.291 l
257.652 122.68 l
257.686 123.008 l
257.652 123.305 l
257.554 123.689 l
257.412 124.121 l
257.249 124.562 l
256.941 125.315 l
256.8 125.635 l
266.4 123.008 l
256.8 120.482 l
f*
[] 0 d
q
0 J
151.2 123.008 m
257.103 111.877 l
S
Q
255.957 109.457 m
256.127 109.728 l
256.506 110.382 l
256.712 110.777 l
256.896 111.178 l
257.035 111.555 l
257.103 111.877 l
257.1 112.176 l
257.042 112.568 l
256.947 113.013 l
256.83 113.468 l
256.603 114.249 l
256.496 114.583 l
265.769 110.966 l
255.957 109.457 l
f*
[] 0 d
q
0 J
151.2 123.008 m
255.359 100.868 l
S
Q
253.967 98.581 m
254.165 98.833 l
254.609 99.443 l
254.855 99.815 l
255.081 100.194 l
255.258 100.555 l
255.359 100.868 l
255.388 101.166 l
255.371 101.562 l
255.323 102.014 l
255.254 102.479 l
255.11 103.28 l
255.039 103.622 l
263.883 99.057 l
253.967 98.581 l
f*
[] 0 d
q
0 J
151.2 123.008 m
252.474 90.102 l
S
Q
250.851 87.973 m
251.074 88.203 l
251.579 88.763 l
251.863 89.107 l
252.127 89.461 l
252.341 89.801 l
252.474 90.102 l
252.534 90.395 l
252.559 90.79 l
252.558 91.245 l
252.538 91.715 l
252.478 92.526 l
252.443 92.875 l
260.762 87.409 l
250.851 87.973 l
f*
[] 0 d
q
0 J
151.2 123.008 m
248.48 79.696 l
S
Q
246.643 77.749 m
246.888 77.954 l
247.45 78.458 l
247.768 78.771 l
248.067 79.095 l
248.316 79.41 l
248.48 79.696 l
248.57 79.981 l
248.636 80.372 l
248.682 80.824 l
248.712 81.294 l
248.737 82.107 l
248.739 82.457 l
256.44 76.152 l
246.643 77.749 l
f*
[] 0 d
q
0 J
151.2 123.008 m
243.42 69.765 l
S
Q
241.389 68.02 m
241.655 68.199 l
242.266 68.642 l
242.615 68.919 l
242.947 69.21 l
243.226 69.498 l
243.42 69.765 l
243.539 70.039 l
243.646 70.421 l
243.739 70.866 l
243.818 71.329 l
243.928 72.136 l
243.966 72.483 l
250.966 65.408 l
241.389 68.02 l
f*
[] 0 d
q
0 J
151.2 123.008 m
237.349 60.417 l
S
Q
235.147 58.894 m
235.43 59.044 l
236.084 59.42 l
236.46 59.66 l
236.821 59.915 l
237.129 60.172 l
237.349 60.417 l
237.496 60.677 l
237.642 61.046 l
237.782 61.478 l
237.909 61.931 l
238.102 62.722 l
238.176 63.063 l
244.399 55.295 l
235.147 58.894 l
f*
[] 0 d
q
0 J
151.2 123.008 m
230.335 51.755 l
S
Q
227.986 50.47 m
228.282 50.59 l
228.973 50.896 l
229.372 51.095 l
229.757 51.31 l
230.09 51.534 l
230.335 51.755 l
230.508 51.998 l
230.692 52.349 l
230.876 52.765 l
231.049 53.202 l
231.324 53.968 l
231.434 54.3 l
236.81 45.924 l
227.986 50.47 l
f*
[] 0 d
q
0 J
151.2 123.008 m
222.453 43.873 l
S
Q
219.983 42.841 m
220.29 42.929 l
221.009 43.162 l
221.426 43.317 l
221.832 43.492 l
222.187 43.679 l
222.453 43.873 l
222.651 44.097 l
222.871 44.427 l
223.097 44.822 l
223.315 45.238 l
223.669 45.971 l
223.813 46.29 l
228.284 37.398 l
219.983 42.841 l
f*
[] 0 d
q
0 J
151.2 123.008 m
213.791 36.859 l
S
Q
211.226 36.091 m
211.541 36.146 l
212.28 36.302 l
212.712 36.413 l
213.133 36.544 l
213.506 36.694 l
213.791 36.859 l
214.011 37.061 l
214.264 37.366 l
214.53 37.735 l
214.791 38.126 l
215.219 38.818 l
215.396 39.12 l
218.913 29.809 l
211.226 36.091 l
f*
[] 0 d
q
0 J
151.2 123.008 m
204.443 30.788 l
S
Q
201.812 30.293 m
202.131 30.314 l
202.882 30.392 l
203.323 30.458 l
203.756 30.544 l
204.142 30.654 l
204.443 30.788 l
204.683 30.966 l
204.967 31.243 l
205.27 31.582 l
205.57 31.944 l
206.068 32.587 l
206.275 32.869 l
208.8 23.242 l
201.812 30.293 l
f*
[] 0 d
q
0 J
151.2 123.008 m
194.512 25.728 l
S
Q
191.843 25.51 m
192.163 25.498 l
192.918 25.497 l
193.363 25.517 l
193.803 25.557 l
194.198 25.626 l
194.512 25.728 l
194.769 25.88 l
195.08 26.126 l
195.417 26.431 l
195.753 26.76 l
196.316 27.347 l
196.552 27.606 l
198.056 17.768 l
191.843 25.51 l
f*
[] 0 d
q
0 J
151.2 123.008 m
184.106 21.734 l
S
Q
181.43 21.796 m
181.746 21.751 l
182.497 21.671 l
182.942 21.643 l
183.383 21.638 l
183.784 21.665 l
184.106 21.734 l
184.378 21.858 l
184.713 22.07 l
185.08 22.338 l
185.449 22.63 l
186.07 23.155 l
186.331 23.388 l
186.799 13.446 l
181.43 21.796 l
f*
[] 0 d
q
0 J
151.2 123.008 m
173.34 18.849 l
S
Q
170.684 19.19 m
170.995 19.112 l
171.733 18.955 l
172.172 18.881 l
172.611 18.829 l
173.012 18.814 l
173.34 18.849 l
173.623 18.944 l
173.978 19.12 l
174.371 19.348 l
174.769 19.6 l
175.441 20.058 l
175.725 20.262 l
175.151 10.325 l
170.684 19.19 l
f*
[] 0 d
q
0 J
151.2 123.008 m
162.331 17.105 l
S
Q
159.726 17.722 m
160.026 17.612 l
160.744 17.378 l
161.173 17.259 l
161.604 17.162 l
162.001 17.105 l
162.331 17.105 l
162.622 17.17 l
162.994 17.308 l
163.409 17.494 l
163.83 17.703 l
164.547 18.088 l
164.851 18.261 l
163.242 8.439 l
159.726 17.722 l
f*
[] 0 d
q
0 J
151.2 123.008 m
151.2 16.522 l
S
Q
148.674 17.408 m
148.961 17.267 l
149.65 16.959 l
150.065 16.796 l
150.483 16.654 l
150.872 16.556 l
151.2 16.522 l
151.497 16.556 l
151.881 16.654 l
152.313 16.796 l
152.754 16.959 l
153.507 17.267 l
153.827 17.408 l
151.2 7.808 l
148.674 17.408 l
f*
[] 0 d
q
0 J
151.2 123.008 m
140.069 17.105 l
S
Q
137.649 18.251 m
137.92 18.081 l
138.574 17.702 l
138.969 17.496 l
139.37 17.312 l
139.747 17.173 l
140.069 17.105 l
140.368 17.108 l
140.76 17.166 l
141.205 17.261 l
141.66 17.378 l
142.441 17.605 l
142.775 17.712 l
139.158 8.439 l
137.649 18.251 l
f*
[] 0 d
q
0 J
151.2 123.008 m
129.06 18.849 l
S
Q
126.773 20.241 m
127.025 20.043 l
127.635 19.599 l
128.007 19.353 l
128.386 19.127 l
128.747 18.95 l
129.06 18.849 l
129.358 18.82 l
129.754 18.837 l
130.206 18.885 l
130.671 18.954 l
131.472 19.098 l
131.814 19.169 l
127.249 10.325 l
126.773 20.241 l
f*
[] 0 d
q
0 J
151.2 123.008 m
118.294 21.734 l
S
Q
116.165 23.357 m
116.395 23.134 l
116.955 22.629 l
117.299 22.345 l
117.653 22.081 l
117.993 21.867 l
118.294 21.734 l
118.587 21.674 l
118.982 21.649 l
119.437 21.65 l
119.907 21.67 l
120.718 21.73 l
121.067 21.765 l
115.601 13.446 l
116.165 23.357 l
f*
[] 0 d
q
0 J
151.2 123.008 m
107.888 25.728 l
S
Q
105.941 27.565 m
106.146 27.32 l
106.65 26.758 l
106.963 26.44 l
107.287 26.141 l
107.602 25.892 l
107.888 25.728 l
108.173 25.638 l
108.564 25.572 l
109.016 25.526 l
109.486 25.496 l
110.299 25.471 l
110.649 25.469 l
104.344 17.768 l
105.941 27.565 l
f*
[] 0 d
q
0 J
151.2 123.008 m
97.957 30.788 l
S
Q
96.212 32.819 m
96.391 32.553 l
96.834 31.942 l
97.111 31.593 l
97.402 31.261 l
97.69 30.982 l
97.957 30.788 l
98.231 30.669 l
98.613 30.562 l
99.058 30.469 l
99.521 30.39 l
100.328 30.28 l
100.675 30.242 l
93.6 23.242 l
96.212 32.819 l
f*
[] 0 d
q
0 J
151.2 123.008 m
88.609 36.859 l
S
Q
87.086 39.061 m
87.236 38.778 l
87.612 38.124 l
87.852 37.748 l
88.107 37.387 l
88.364 37.079 l
88.609 36.859 l
88.869 36.712 l
89.238 36.566 l
89.67 36.426 l
90.123 36.299 l
90.914 36.106 l
91.255 36.032 l
83.487 29.809 l
87.086 39.061 l
f*
[] 0 d
q
0 J
151.2 123.008 m
79.947 43.873 l
S
Q
78.662 46.222 m
78.782 45.926 l
79.088 45.235 l
79.287 44.836 l
79.502 44.451 l
79.726 44.118 l
79.947 43.873 l
80.19 43.7 l
80.541 43.516 l
80.957 43.332 l
81.394 43.159 l
82.16 42.884 l
82.492 42.774 l
74.116 37.398 l
78.662 46.222 l
f*
[] 0 d
q
0 J
151.2 123.008 m
72.065 51.755 l
S
Q
71.033 54.225 m
71.121 53.918 l
71.354 53.199 l
71.509 52.782 l
71.684 52.376 l
71.871 52.021 l
72.065 51.755 l
72.289 51.557 l
72.619 51.337 l
73.014 51.111 l
73.43 50.893 l
74.163 50.539 l
74.482 50.395 l
65.59 45.924 l
71.033 54.225 l
f*
[] 0 d
q
0 J
151.2 123.008 m
65.051 60.417 l
S
Q
64.283 62.982 m
64.338 62.667 l
64.494 61.928 l
64.605 61.496 l
64.736 61.075 l
64.886 60.702 l
65.051 60.417 l
65.253 60.197 l
65.558 59.944 l
65.927 59.678 l
66.318 59.417 l
67.01 58.989 l
67.312 58.812 l
58.001 55.295 l
64.283 62.982 l
f*
[] 0 d
q
0 J
151.2 123.008 m
58.98 69.765 l
S
Q
58.485 72.396 m
58.506 72.077 l
58.584 71.326 l
58.65 70.885 l
58.736 70.452 l
58.846 70.066 l
58.98 69.765 l
59.158 69.525 l
59.435 69.241 l
59.774 68.938 l
60.136 68.638 l
60.779 68.14 l
61.061 67.933 l
51.434 65.408 l
58.485 72.396 l
f*
[] 0 d
q
0 J
151.2 123.008 m
53.92 79.696 l
S
Q
53.702 82.365 m
53.69 82.045 l
53.689 81.29 l
53.709 80.845 l
53.749 80.405 l
53.818 80.01 l
53.92 79.696 l
54.072 79.439 l
54.318 79.128 l
54.623 78.791 l
54.952 78.455 l
55.539 77.892 l
55.798 77.656 l
45.96 76.152 l
53.702 82.365 l
f*
[] 0 d
q
0 J
151.2 123.008 m
49.926 90.102 l
S
Q
49.988 92.778 m
49.943 92.462 l
49.863 91.711 l
49.835 91.266 l
49.83 90.825 l
49.857 90.424 l
49.926 90.102 l
50.05 89.83 l
50.262 89.495 l
50.53 89.128 l
50.822 88.759 l
51.347 88.138 l
51.58 87.877 l
41.638 87.409 l
49.988 92.778 l
f*
[] 0 d
q
0 J
151.2 123.008 m
47.041 100.868 l
S
Q
47.382 103.524 m
47.304 103.213 l
47.147 102.475 l
47.073 102.036 l
47.021 101.597 l
47.006 101.196 l
47.041 100.868 l
47.136 100.585 l
47.312 100.23 l
47.54 99.837 l
47.792 99.439 l
48.25 98.767 l
48.454 98.483 l
38.517 99.057 l
47.382 103.524 l
f*
[] 0 d
q
0 J
151.2 123.008 m
45.297 111.877 l
S
Q
45.914 114.482 m
45.804 114.182 l
45.57 113.464 l
45.451 113.035 l
45.354 112.604 l
45.297 112.207 l
45.297 111.877 l
45.362 111.586 l
45.5 111.214 l
45.686 110.799 l
45.895 110.378 l
46.28 109.661 l
46.453 109.357 l
36.631 110.966 l
45.914 114.482 l
f*
[] 0 d
q
0 J
151.2 123.008 m
44.714 123.008 l
S
Q
45.6 125.534 m
45.459 125.247 l
45.151 124.558 l
44.988 124.143 l
44.846 123.725 l
44.748 123.336 l
44.714 123.008 l
44.748 122.711 l
44.846 122.327 l
44.988 121.895 l
45.151 121.454 l
45.459 120.701 l
45.6 120.381 l
36 123.008 l
45.6 125.534 l
f*
[] 0 d
q
0 J
151.2 123.008 m
45.297 134.139 l
S
Q
46.443 136.559 m
46.273 136.288 l
45.894 135.634 l
45.688 135.239 l
45.504 134.838 l
45.365 134.461 l
45.297 134.139 l
45.3 133.84 l
45.358 133.448 l
45.453 133.003 l
45.57 132.548 l
45.797 131.767 l
45.904 131.433 l
36.631 135.05 l
46.443 136.559 l
f*
[] 0 d
q
0 J
151.2 123.008 m
47.041 145.148 l
S
Q
48.433 147.435 m
48.235 147.183 l
47.791 146.573 l
47.545 146.201 l
47.319 145.822 l
47.142 145.461 l
47.041 145.148 l
47.012 144.85 l
47.029 144.454 l
47.077 144.002 l
47.146 143.537 l
47.29 142.736 l
47.361 142.394 l
38.517 146.959 l
48.433 147.435 l
f*
[] 0 d
q
0 J
151.2 123.008 m
49.926 155.914 l
S
Q
51.549 158.043 m
51.326 157.813 l
50.821 157.253 l
50.537 156.909 l
50.273 156.555 l
50.059 156.215 l
49.926 155.914 l
49.866 155.621 l
49.841 155.226 l
49.842 154.771 l
49.862 154.301 l
49.922 153.49 l
49.957 153.141 l
41.638 158.607 l
51.549 158.043 l
f*
[] 0 d
q
0 J
151.2 123.008 m
53.92 166.32 l
S
Q
55.757 168.267 m
55.512 168.062 l
54.95 167.558 l
54.632 167.245 l
54.333 166.921 l
54.084 166.606 l
53.92 166.32 l
53.83 166.035 l
53.764 165.644 l
53.718 165.192 l
53.688 164.722 l
53.663 163.909 l
53.661 163.559 l
45.96 169.864 l
55.757 168.267 l
f*
[] 0 d
q
0 J
151.2 123.008 m
58.98 176.251 l
S
Q
61.011 177.996 m
60.745 177.817 l
60.134 177.374 l
59.785 177.097 l
59.453 176.806 l
59.174 176.518 l
58.98 176.251 l
58.861 175.977 l
58.754 175.595 l
58.661 175.15 l
58.582 174.687 l
58.472 173.88 l
58.434 173.533 l
51.434 180.608 l
61.011 177.996 l
f*
[] 0 d
q
0 J
151.2 123.008 m
65.051 185.599 l
S
Q
67.253 187.122 m
66.97 186.972 l
66.316 186.596 l
65.94 186.356 l
65.579 186.101 l
65.271 185.844 l
65.051 185.599 l
64.904 185.339 l
64.758 184.97 l
64.618 184.538 l
64.491 184.085 l
64.298 183.294 l
64.224 182.953 l
58.001 190.721 l
67.253 187.122 l
f*
[] 0 d
q
0 J
151.2 123.008 m
72.065 194.261 l
S
Q
74.414 195.546 m
74.118 195.426 l
73.427 195.12 l
73.028 194.921 l
72.643 194.706 l
72.31 194.482 l
72.065 194.261 l
71.892 194.018 l
71.708 193.667 l
71.524 193.251 l
71.351 192.814 l
71.076 192.048 l
70.966 191.716 l
65.59 200.092 l
74.414 195.546 l
f*
[] 0 d
q
0 J
151.2 123.008 m
79.947 202.143 l
S
Q
82.417 203.175 m
82.11 203.087 l
81.391 202.854 l
80.974 202.699 l
80.568 202.524 l
80.213 202.337 l
79.947 202.143 l
79.749 201.919 l
79.529 201.589 l
79.303 201.194 l
79.085 200.778 l
78.731 200.045 l
78.587 199.726 l
74.116 208.618 l
82.417 203.175 l
f*
[] 0 d
q
0 J
151.2 123.008 m
88.609 209.157 l
S
Q
91.174 209.925 m
90.859 209.87 l
90.12 209.714 l
89.688 209.603 l
89.267 209.472 l
88.894 209.322 l
88.609 209.157 l
88.389 208.955 l
88.136 208.65 l
87.87 208.281 l
87.609 207.89 l
87.181 207.198 l
87.004 206.896 l
83.487 216.207 l
91.174 209.925 l
f*
[] 0 d
q
0 J
151.2 123.008 m
97.957 215.228 l
S
Q
100.588 215.723 m
100.269 215.702 l
99.518 215.624 l
99.077 215.558 l
98.644 215.472 l
98.258 215.362 l
97.957 215.228 l
97.717 215.05 l
97.433 214.773 l
97.13 214.434 l
96.83 214.072 l
96.332 213.429 l
96.125 213.147 l
93.6 222.774 l
100.588 215.723 l
f*
[] 0 d
q
0 J
151.2 123.008 m
107.888 220.288 l
S
Q
110.557 220.506 m
110.237 220.518 l
109.482 220.519 l
109.037 220.499 l
108.597 220.459 l
108.202 220.39 l
107.888 220.288 l
107.631 220.136 l
107.32 219.89 l
106.983 219.585 l
106.647 219.256 l
106.084 218.669 l
105.848 218.41 l
104.344 228.248 l
110.557 220.506 l
f*
[] 0 d
q
0 J
151.2 123.008 m
118.294 224.282 l
S
Q
120.97 224.22 m
120.654 224.265 l
119.903 224.345 l
119.458 224.373 l
119.017 224.378 l
118.616 224.351 l
118.294 224.282 l
118.022 224.158 l
117.687 223.946 l
117.32 223.678 l
116.951 223.386 l
116.33 222.861 l
116.069 222.628 l
115.601 232.57 l
120.97 224.22 l
f*
[] 0 d
q
0 J
151.2 123.008 m
129.06 227.167 l
S
Q
131.716 226.826 m
131.405 226.904 l
130.667 227.061 l
130.228 227.135 l
129.789 227.187 l
129.388 227.202 l
129.06 227.167 l
128.777 227.072 l
128.422 226.896 l
128.029 226.668 l
127.631 226.416 l
126.959 225.958 l
126.675 225.754 l
127.249 235.691 l
131.716 226.826 l
f*
[] 0 d
q
0 J
151.2 123.008 m
140.069 228.911 l
S
Q
142.674 228.294 m
142.374 228.404 l
141.656 228.638 l
141.227 228.757 l
140.796 228.854 l
140.399 228.911 l
140.069 228.911 l
139.778 228.846 l
139.406 228.708 l
138.991 228.522 l
138.57 228.313 l
137.853 227.928 l
137.549 227.755 l
139.158 237.577 l
142.674 228.294 l
f*
[] 0 d
q
0 J
151.2 123.008 m
151.2 229.494 l
S
Q
153.726 228.608 m
153.439 228.749 l
152.75 229.057 l
152.335 229.22 l
151.917 229.362 l
151.528 229.46 l
151.2 229.494 l
150.903 229.46 l
150.519 229.362 l
150.087 229.22 l
149.646 229.057 l
148.893 228.749 l
148.573 228.608 l
151.2 238.208 l
153.726 228.608 l
f*
[] 0 d
q
0 J
151.2 123.008 m
162.331 228.911 l
S
Q
164.751 227.765 m
164.48 227.935 l
163.826 228.314 l
163.431 228.52 l
163.03 228.704 l
162.653 228.843 l
162.331 228.911 l
162.032 228.908 l
161.64 228.85 l
161.195 228.755 l
160.74 228.638 l
159.959 228.411 l
159.625 228.304 l
163.242 237.577 l
164.751 227.765 l
f*
[] 0 d
q
0 J
151.2 123.008 m
173.34 227.167 l
S
Q
175.627 225.775 m
175.375 225.973 l
174.765 226.417 l
174.393 226.663 l
174.014 226.889 l
173.653 227.066 l
173.34 227.167 l
173.042 227.196 l
172.646 227.179 l
172.194 227.131 l
171.729 227.062 l
170.928 226.918 l
170.586 226.847 l
175.151 235.691 l
175.627 225.775 l
f*
[] 0 d
q
0 J
151.2 123.008 m
184.106 224.282 l
S
Q
186.235 222.659 m
186.005 222.882 l
185.445 223.387 l
185.101 223.671 l
184.747 223.935 l
184.407 224.149 l
184.106 224.282 l
183.813 224.342 l
183.418 224.367 l
182.963 224.366 l
182.493 224.346 l
181.682 224.286 l
181.333 224.251 l
186.799 232.57 l
186.235 222.659 l
f*
[] 0 d
q
0 J
151.2 123.008 m
194.512 220.288 l
S
Q
196.459 218.451 m
196.254 218.696 l
195.75 219.258 l
195.437 219.576 l
195.113 219.875 l
194.798 220.124 l
194.512 220.288 l
194.227 220.378 l
193.836 220.444 l
193.384 220.49 l
192.914 220.52 l
192.101 220.545 l
191.751 220.547 l
198.056 228.248 l
196.459 218.451 l
f*
[] 0 d
q
0 J
151.2 123.008 m
204.443 215.228 l
S
Q
206.188 213.197 m
206.009 213.463 l
205.566 214.074 l
205.289 214.423 l
204.998 214.755 l
204.71 215.034 l
204.443 215.228 l
204.169 215.347 l
203.787 215.454 l
203.342 215.547 l
202.879 215.626 l
202.072 215.736 l
201.725 215.774 l
208.8 222.774 l
206.188 213.197 l
f*
[] 0 d
q
0 J
151.2 123.008 m
213.791 209.157 l
S
Q
215.314 206.955 m
215.164 207.238 l
214.788 207.892 l
214.548 208.268 l
214.293 208.629 l
214.036 208.937 l
213.791 209.157 l
213.531 209.304 l
213.162 209.45 l
212.73 209.59 l
212.277 209.717 l
211.486 209.91 l
211.145 209.984 l
218.913 216.207 l
215.314 206.955 l
f*
[] 0 d
q
0 J
151.2 123.008 m
222.453 202.143 l
S
Q
223.738 199.794 m
223.618 200.09 l
223.312 200.781 l
223.113 201.18 l
222.898 201.565 l
222.674 201.898 l
222.453 202.143 l
222.21 202.316 l
221.859 202.5 l
221.443 202.684 l
221.006 202.857 l
220.24 203.132 l
219.908 203.242 l
228.284 208.618 l
223.738 199.794 l
f*
[] 0 d
q
0 J
151.2 123.008 m
230.335 194.261 l
S
Q
231.367 191.791 m
231.279 192.098 l
231.046 192.817 l
230.891 193.234 l
230.716 193.64 l
230.529 193.995 l
230.335 194.261 l
230.111 194.459 l
229.781 194.679 l
229.386 194.905 l
228.97 195.123 l
228.237 195.477 l
227.918 195.621 l
236.81 200.092 l
231.367 191.791 l
f*
[] 0 d
q
0 J
151.2 123.008 m
237.349 185.599 l
S
Q
238.117 183.034 m
238.062 183.349 l
237.906 184.088 l
237.795 184.52 l
237.664 184.941 l
237.514 185.314 l
237.349 185.599 l
237.147 185.819 l
236.842 186.072 l
236.473 186.338 l
236.082 186.599 l
235.39 187.027 l
235.088 187.204 l
244.399 190.721 l
238.117 183.034 l
f*
[] 0 d
q
0 J
151.2 123.008 m
243.42 176.251 l
S
Q
243.915 173.62 m
243.894 173.939 l
243.816 174.69 l
243.75 175.131 l
243.664 175.564 l
243.554 175.95 l
243.42 176.251 l
243.242 176.491 l
242.965 176.775 l
242.626 177.078 l
242.264 177.378 l
241.621 177.876 l
241.339 178.083 l
250.966 180.608 l
243.915 173.62 l
f*
[] 0 d
q
0 J
151.2 123.008 m
248.48 166.32 l
S
Q
248.698 163.651 m
248.71 163.971 l
248.711 164.726 l
248.691 165.171 l
248.651 165.611 l
248.582 166.006 l
248.48 166.32 l
248.328 166.577 l
248.082 166.888 l
247.777 167.225 l
247.448 167.561 l
246.861 168.124 l
246.602 168.36 l
256.44 169.864 l
248.698 163.651 l
f*
[] 0 d
q
0 J
151.2 123.008 m
252.474 155.914 l
S
Q
252.412 153.238 m
252.457 153.554 l
252.537 154.305 l
252.565 154.75 l
252.57 155.191 l
252.543 155.592 l
252.474 155.914 l
252.35 156.186 l
252.138 156.521 l
251.87 156.888 l
251.578 157.257 l
251.053 157.878 l
250.82 158.139 l
260.762 158.607 l
252.412 153.238 l
f*
[] 0 d
q
0 J
151.2 123.008 m
255.359 145.148 l
S
Q
255.018 142.492 m
255.096 142.803 l
255.253 143.541 l
255.327 143.98 l
255.379 144.419 l
255.394 144.82 l
255.359 145.148 l
255.264 145.431 l
255.088 145.786 l
254.86 146.179 l
254.608 146.577 l
254.15 147.249 l
253.946 147.533 l
263.883 146.959 l
255.018 142.492 l
f*
[] 0 d
q
0 J
151.2 123.008 m
257.103 134.139 l
S
Q
256.486 131.534 m
256.596 131.834 l
256.83 132.552 l
256.949 132.981 l
257.046 133.412 l
257.103 133.809 l
257.103 134.139 l
257.038 134.43 l
256.9 134.802 l
256.714 135.217 l
256.505 135.638 l
256.12 136.355 l
255.947 136.659 l
265.769 135.05 l
256.486 131.534 l
f*
Q
Q
1 w
/DeviceRGB {} CS
[0 0 0] SC
/DeviceRGB {} cs
[0 0 0] sc
[] 0 d
2 J
0 j
10 M
Q
showpage
%%PageTrailer
pdfEndPage
%%Trailer
end
%%DocumentSuppliedResources:
%%EOF
