%!PS-Adobe-3.0 EPSF-3.0
%%Creator: Mathematica
%%LanguageLevel: 2
%%DocumentSuppliedResources: (atend)
%%BoundingBox: 0 0 98 186
%%HiResBoundingBox: 0 0 97.408 185.962
%%DocumentSuppliedResources: (atend)
%%EndComments
%%BeginProlog
%%BeginResource: procset xpdf 3.00 0
%%Copyright: Copyright 1996-2004 Glyph & Cog, LLC
/xpdf 75 dict def xpdf begin
% PDF special state
/pdfDictSize 15 def
/pdfSetup {
  3 1 roll 2 array astore
  /setpagedevice where {
    pop 3 dict begin
      /PageSize exch def
      /ImagingBBox null def
      { /Duplex true def } if
    currentdict end setpagedevice
  } {
    pop pop
  } ifelse
} def
/pdfStartPage {
  pdfDictSize dict begin
  /pdfFillCS [] def
  /pdfFillXform {} def
  /pdfStrokeCS [] def
  /pdfStrokeXform {} def
  /pdfFill [0] def
  /pdfStroke [0] def
  /pdfFillOP false def
  /pdfStrokeOP false def
  /pdfLastFill false def
  /pdfLastStroke false def
  /pdfTextMat [1 0 0 1 0 0] def
  /pdfFontSize 0 def
  /pdfCharSpacing 0 def
  /pdfTextRender 0 def
  /pdfTextRise 0 def
  /pdfWordSpacing 0 def
  /pdfHorizScaling 1 def
  /pdfTextClipPath [] def
} def
/pdfEndPage { end } def
% PDF color state
/cs { /pdfFillXform exch def dup /pdfFillCS exch def
      setcolorspace } def
/CS { /pdfStrokeXform exch def dup /pdfStrokeCS exch def
      setcolorspace } def
/sc { pdfLastFill not { pdfFillCS setcolorspace } if
      dup /pdfFill exch def aload pop pdfFillXform setcolor
     /pdfLastFill true def /pdfLastStroke false def } def
/SC { pdfLastStroke not { pdfStrokeCS setcolorspace } if
      dup /pdfStroke exch def aload pop pdfStrokeXform setcolor
     /pdfLastStroke true def /pdfLastFill false def } def
/op { /pdfFillOP exch def
      pdfLastFill { pdfFillOP setoverprint } if } def
/OP { /pdfStrokeOP exch def
      pdfLastStroke { pdfStrokeOP setoverprint } if } def
/fCol {
  pdfLastFill not {
    pdfFillCS setcolorspace
    pdfFill aload pop pdfFillXform setcolor
    pdfFillOP setoverprint
    /pdfLastFill true def /pdfLastStroke false def
  } if
} def
/sCol {
  pdfLastStroke not {
    pdfStrokeCS setcolorspace
    pdfStroke aload pop pdfStrokeXform setcolor
    pdfStrokeOP setoverprint
    /pdfLastStroke true def /pdfLastFill false def
  } if
} def
% build a font
/pdfMakeFont {
  4 3 roll findfont
  4 2 roll matrix scale makefont
  dup length dict begin
    { 1 index /FID ne { def } { pop pop } ifelse } forall
    /Encoding exch def
    currentdict
  end
  definefont pop
} def
/pdfMakeFont16 {
  exch findfont
  dup length dict begin
    { 1 index /FID ne { def } { pop pop } ifelse } forall
    /WMode exch def
    currentdict
  end
  definefont pop
} def
% graphics state operators
/q { gsave pdfDictSize dict begin } def
/Q {
  end grestore
  /pdfLastFill where {
    pop
    pdfLastFill {
      pdfFillOP setoverprint
    } {
      pdfStrokeOP setoverprint
    } ifelse
  } if
} def
/cm { concat } def
/d { setdash } def
/i { setflat } def
/j { setlinejoin } def
/J { setlinecap } def
/M { setmiterlimit } def
/w { setlinewidth } def
% path segment operators
/m { moveto } def
/l { lineto } def
/c { curveto } def
/re { 4 2 roll moveto 1 index 0 rlineto 0 exch rlineto
      neg 0 rlineto closepath } def
/h { closepath } def
% path painting operators
/S { sCol stroke } def
/Sf { fCol stroke } def
/f { fCol fill } def
/f* { fCol eofill } def
% clipping operators
/W { clip newpath } def
/W* { eoclip newpath } def
/Ws { strokepath clip newpath } def
% text state operators
/Tc { /pdfCharSpacing exch def } def
/Tf { dup /pdfFontSize exch def
      dup pdfHorizScaling mul exch matrix scale
      pdfTextMat matrix concatmatrix dup 4 0 put dup 5 0 put
      exch findfont exch makefont setfont } def
/Tr { /pdfTextRender exch def } def
/Ts { /pdfTextRise exch def } def
/Tw { /pdfWordSpacing exch def } def
/Tz { /pdfHorizScaling exch def } def
% text positioning operators
/Td { pdfTextMat transform moveto } def
/Tm { /pdfTextMat exch def } def
% text string operators
/cshow where {
  pop
  /cshow2 {
    dup {
      pop pop
      1 string dup 0 3 index put 3 index exec
    } exch cshow
    pop pop
  } def
}{
  /cshow2 {
    currentfont /FontType get 0 eq {
      0 2 2 index length 1 sub {
        2 copy get exch 1 add 2 index exch get
        2 copy exch 256 mul add
        2 string dup 0 6 5 roll put dup 1 5 4 roll put
        3 index exec
      } for
    } {
      dup {
        1 string dup 0 3 index put 3 index exec
      } forall
    } ifelse
    pop pop
  } def
} ifelse
/awcp {
  exch {
    false charpath
    5 index 5 index rmoveto
    6 index eq { 7 index 7 index rmoveto } if
  } exch cshow2
  6 {pop} repeat
} def
/Tj {
  fCol
  1 index stringwidth pdfTextMat idtransform pop
  sub 1 index length dup 0 ne { div } { pop pop 0 } ifelse
  pdfWordSpacing pdfHorizScaling mul 0 pdfTextMat dtransform 32
  4 3 roll pdfCharSpacing pdfHorizScaling mul add 0
  pdfTextMat dtransform
  6 5 roll Tj1
} def
/Tj16 {
  fCol
  2 index stringwidth pdfTextMat idtransform pop
  sub exch div
  pdfWordSpacing pdfHorizScaling mul 0 pdfTextMat dtransform 32
  4 3 roll pdfCharSpacing pdfHorizScaling mul add 0
  pdfTextMat dtransform
  6 5 roll Tj1
} def
/Tj16V {
  fCol
  2 index stringwidth pdfTextMat idtransform exch pop
  sub exch div
  0 pdfWordSpacing pdfTextMat dtransform 32
  4 3 roll pdfCharSpacing add 0 exch
  pdfTextMat dtransform
  6 5 roll Tj1
} def
/Tj1 {
  0 pdfTextRise pdfTextMat dtransform rmoveto
  currentpoint 8 2 roll
  pdfTextRender 1 and 0 eq {
    6 copy awidthshow
  } if
  pdfTextRender 3 and dup 1 eq exch 2 eq or {
    7 index 7 index moveto
    6 copy
    currentfont /FontType get 3 eq { fCol } { sCol } ifelse
    false awcp currentpoint stroke moveto
  } if
  pdfTextRender 4 and 0 ne {
    8 6 roll moveto
    false awcp
    /pdfTextClipPath [ pdfTextClipPath aload pop
      {/moveto cvx}
      {/lineto cvx}
      {/curveto cvx}
      {/closepath cvx}
    pathforall ] def
    currentpoint newpath moveto
  } {
    8 {pop} repeat
  } ifelse
  0 pdfTextRise neg pdfTextMat dtransform rmoveto
} def
/TJm { pdfFontSize 0.001 mul mul neg 0
       pdfTextMat dtransform rmoveto } def
/TJmV { pdfFontSize 0.001 mul mul neg 0 exch
        pdfTextMat dtransform rmoveto } def
/Tclip { pdfTextClipPath cvx exec clip newpath
         /pdfTextClipPath [] def } def
/Tclip* { pdfTextClipPath cvx exec eoclip newpath
         /pdfTextClipPath [] def } def
% Level 2 image operators
/pdfImBuf 100 string def
/pdfIm {
  image
  { currentfile pdfImBuf readline
    not { pop exit } if
    (%-EOD-) eq { exit } if } loop
} def
/pdfImM {
  fCol imagemask
  { currentfile pdfImBuf readline
    not { pop exit } if
    (%-EOD-) eq { exit } if } loop
} def
/pr { 2 index 2 index 3 2 roll putinterval 4 add } def
/pdfImClip {
  gsave
  0 2 4 index length 1 sub {
    dup 4 index exch 2 copy
    get 5 index div put
    1 add 3 index exch 2 copy
    get 3 index div put
  } for
  pop pop rectclip
} def
/pdfImClipEnd { grestore } def
% shading operators
/colordelta {
  false 0 1 3 index length 1 sub {
    dup 4 index exch get 3 index 3 2 roll get sub abs 0.004 gt {
      pop true
    } if
  } for
  exch pop exch pop
} def
/funcCol { func n array astore } def
/funcSH {
  dup 0 eq {
    true
  } {
    dup 6 eq {
      false
    } {
      4 index 4 index funcCol dup
      6 index 4 index funcCol dup
      3 1 roll colordelta 3 1 roll
      5 index 5 index funcCol dup
      3 1 roll colordelta 3 1 roll
      6 index 8 index funcCol dup
      3 1 roll colordelta 3 1 roll
      colordelta or or or
    } ifelse
  } ifelse
  {
    1 add
    4 index 3 index add 0.5 mul exch 4 index 3 index add 0.5 mul exch
    6 index 6 index 4 index 4 index 4 index funcSH
    2 index 6 index 6 index 4 index 4 index funcSH
    6 index 2 index 4 index 6 index 4 index funcSH
    5 3 roll 3 2 roll funcSH pop pop
  } {
    pop 3 index 2 index add 0.5 mul 3 index  2 index add 0.5 mul
    funcCol sc
    dup 4 index exch mat transform m
    3 index 3 index mat transform l
    1 index 3 index mat transform l
    mat transform l pop pop h f*
  } ifelse
} def
/axialCol {
  dup 0 lt {
    pop t0
  } {
    dup 1 gt {
      pop t1
    } {
      dt mul t0 add
    } ifelse
  } ifelse
  func n array astore
} def
/axialSH {
  dup 0 eq {
    true
  } {
    dup 8 eq {
      false
    } {
      2 index axialCol 2 index axialCol colordelta
    } ifelse
  } ifelse
  {
    1 add 3 1 roll 2 copy add 0.5 mul
    dup 4 3 roll exch 4 index axialSH
    exch 3 2 roll axialSH
  } {
    pop 2 copy add 0.5 mul
    axialCol sc
    exch dup dx mul x0 add exch dy mul y0 add
    3 2 roll dup dx mul x0 add exch dy mul y0 add
    dx abs dy abs ge {
      2 copy yMin sub dy mul dx div add yMin m
      yMax sub dy mul dx div add yMax l
      2 copy yMax sub dy mul dx div add yMax l
      yMin sub dy mul dx div add yMin l
      h f*
    } {
      exch 2 copy xMin sub dx mul dy div add xMin exch m
      xMax sub dx mul dy div add xMax exch l
      exch 2 copy xMax sub dx mul dy div add xMax exch l
      xMin sub dx mul dy div add xMin exch l
      h f*
    } ifelse
  } ifelse
} def
/radialCol {
  dup t0 lt {
    pop t0
  } {
    dup t1 gt {
      pop t1
    } if
  } ifelse
  func n array astore
} def
/radialSH {
  dup 0 eq {
    true
  } {
    dup 8 eq {
      false
    } {
      2 index dt mul t0 add radialCol
      2 index dt mul t0 add radialCol colordelta
    } ifelse
  } ifelse
  {
    1 add 3 1 roll 2 copy add 0.5 mul
    dup 4 3 roll exch 4 index radialSH
    exch 3 2 roll radialSH
  } {
    pop 2 copy add 0.5 mul dt mul t0 add
    radialCol sc
    encl {
      exch dup dx mul x0 add exch dup dy mul y0 add exch dr mul r0 add
      0 360 arc h
      dup dx mul x0 add exch dup dy mul y0 add exch dr mul r0 add
      360 0 arcn h f
    } {
      2 copy
      dup dx mul x0 add exch dup dy mul y0 add exch dr mul r0 add
      a1 a2 arcn
      dup dx mul x0 add exch dup dy mul y0 add exch dr mul r0 add
      a2 a1 arcn h
      dup dx mul x0 add exch dup dy mul y0 add exch dr mul r0 add
      a1 a2 arc
      dup dx mul x0 add exch dup dy mul y0 add exch dr mul r0 add
      a2 a1 arc h f
    } ifelse
  } ifelse
} def
end
%%EndResource
%%EndProlog
%%BeginSetup
xpdf begin
%%EndSetup
pdfStartPage
[] 0 d
1 i
0 j
0 J
10 M
1 w
/DeviceGray {} cs
[0] sc
/DeviceGray {} CS
[0] SC
false op
false OP
{} settransfer
q
[1 0 0 -1 0 185.962] cm
[1 0 0 1 -31.2 -4.8] cm
[1 0 0 1 0 0] cm
1 w
/DeviceRGB {} CS
[0 0 0] SC
/DeviceRGB {} cs
[0 0 0] sc
[] 0 d
2 J
0 j
10 M
31.2 4.8 m
31.2 190.762 l
128.608 190.762 l
128.608 4.8 l
W*
q
29.2 2.8 m
29.2 192.762 l
130.608 192.762 l
130.608 2.8 l
W*
q
31.2 4.762 m
31.2 190.762 l
129.2 190.762 l
129.2 4.762 l
W*
3.239 M
/DeviceGray {} CS
[0] SC
/DeviceGray {} cs
[0] sc
0.4 w
[] 0 d
3.25 M
q
0 J
79.904 97.781 m
120.222 97.781 l
S
Q
119.578 95.946 m
119.68 96.154 l
119.904 96.655 l
120.023 96.956 l
120.126 97.26 l
120.197 97.543 l
120.222 97.781 l
120.197 97.997 l
120.126 98.276 l
120.023 98.59 l
119.904 98.91 l
119.68 99.457 l
119.578 99.69 l
126.553 97.781 l
119.578 95.946 l
f*
[] 0 d
q
0 J
79.904 97.781 m
120.276 93.538 l
S
Q
119.444 91.78 m
119.568 91.977 l
119.842 92.451 l
119.992 92.738 l
120.126 93.03 l
120.227 93.303 l
120.276 93.538 l
120.274 93.755 l
120.232 94.04 l
120.163 94.363 l
120.078 94.694 l
119.913 95.261 l
119.835 95.503 l
126.572 92.876 l
119.444 91.78 l
f*
[] 0 d
q
0 J
79.904 97.781 m
120.427 89.168 l
S
Q
119.416 87.506 m
119.559 87.689 l
119.882 88.132 l
120.061 88.402 l
120.225 88.678 l
120.354 88.94 l
120.427 89.168 l
120.448 89.384 l
120.436 89.671 l
120.401 90 l
120.351 90.338 l
120.246 90.92 l
120.194 91.168 l
126.619 87.851 l
119.416 87.506 l
f*
[] 0 d
q
0 J
79.904 97.781 m
120.639 84.545 l
S
Q
119.459 82.999 m
119.621 83.166 l
119.989 83.573 l
120.195 83.823 l
120.386 84.08 l
120.542 84.326 l
120.639 84.545 l
120.682 84.758 l
120.7 85.046 l
120.699 85.376 l
120.685 85.717 l
120.642 86.307 l
120.616 86.56 l
126.66 82.589 l
119.459 82.999 l
f*
[] 0 d
q
0 J
79.904 97.781 m
120.848 79.552 l
S
Q
119.513 78.137 m
119.692 78.286 l
120.1 78.652 l
120.331 78.879 l
120.548 79.115 l
120.729 79.344 l
120.848 79.552 l
120.913 79.759 l
120.961 80.042 l
120.995 80.371 l
121.017 80.712 l
121.035 81.303 l
121.036 81.557 l
126.631 76.977 l
119.513 78.137 l
f*
[] 0 d
q
0 J
79.904 97.781 m
120.959 74.078 l
S
Q
119.484 72.81 m
119.677 72.94 l
120.121 73.261 l
120.375 73.463 l
120.616 73.674 l
120.819 73.884 l
120.959 74.078 l
121.046 74.277 l
121.124 74.554 l
121.191 74.877 l
121.249 75.214 l
121.329 75.8 l
121.356 76.052 l
126.442 70.912 l
119.484 72.81 l
f*
[] 0 d
q
0 J
79.904 97.781 m
120.842 68.038 l
S
Q
119.242 66.931 m
119.448 67.04 l
119.923 67.314 l
120.196 67.487 l
120.458 67.673 l
120.682 67.859 l
120.842 68.038 l
120.949 68.227 l
121.055 68.494 l
121.156 68.809 l
121.248 69.138 l
121.389 69.712 l
121.443 69.96 l
125.964 64.317 l
119.242 66.931 l
f*
[] 0 d
q
0 J
79.904 97.781 m
120.324 61.387 l
S
Q
118.617 60.453 m
118.833 60.54 l
119.334 60.763 l
119.624 60.907 l
119.904 61.064 l
120.146 61.226 l
120.324 61.387 l
120.45 61.563 l
120.584 61.818 l
120.717 62.121 l
120.843 62.438 l
121.043 62.995 l
121.123 63.236 l
125.029 57.151 l
118.617 60.453 l
f*
[] 0 d
q
0 J
79.904 97.781 m
119.194 54.145 l
S
Q
117.399 53.395 m
117.623 53.459 l
118.145 53.628 l
118.448 53.741 l
118.743 53.868 l
119.001 54.004 l
119.194 54.145 l
119.338 54.307 l
119.497 54.547 l
119.662 54.834 l
119.82 55.136 l
120.077 55.669 l
120.182 55.9 l
123.43 49.44 l
117.399 53.395 l
f*
[] 0 d
q
0 J
79.904 97.781 m
117.212 46.43 l
S
Q
115.349 45.872 m
115.578 45.912 l
116.115 46.026 l
116.428 46.106 l
116.734 46.202 l
117.005 46.31 l
117.212 46.43 l
117.372 46.577 l
117.556 46.799 l
117.75 47.066 l
117.939 47.351 l
118.25 47.853 l
118.378 48.073 l
120.933 41.309 l
115.349 45.872 l
f*
[] 0 d
q
0 J
79.904 97.781 m
114.135 38.492 l
S
Q
112.223 38.132 m
112.455 38.147 l
113.001 38.204 l
113.321 38.252 l
113.635 38.314 l
113.916 38.394 l
114.135 38.492 l
114.309 38.621 l
114.515 38.822 l
114.735 39.068 l
114.953 39.331 l
115.315 39.799 l
115.466 40.004 l
117.3 33.009 l
112.223 38.132 l
f*
[] 0 d
q
0 J
79.904 97.781 m
109.757 30.73 l
S
Q
107.818 30.572 m
108.051 30.563 l
108.599 30.562 l
108.923 30.576 l
109.242 30.606 l
109.529 30.656 l
109.757 30.73 l
109.944 30.84 l
110.17 31.019 l
110.415 31.241 l
110.659 31.48 l
111.068 31.906 l
111.239 32.095 l
112.332 24.947 l
107.818 30.572 l
f*
[] 0 d
q
0 J
79.904 97.781 m
103.977 23.691 l
S
Q
102.033 23.736 m
102.263 23.703 l
102.808 23.645 l
103.131 23.625 l
103.452 23.621 l
103.743 23.641 l
103.977 23.691 l
104.175 23.781 l
104.418 23.935 l
104.685 24.13 l
104.953 24.342 l
105.404 24.724 l
105.594 24.893 l
105.934 17.67 l
102.033 23.736 l
f*
[] 0 d
q
0 J
79.904 97.781 m
96.86 18.008 l
S
Q
94.931 18.256 m
95.156 18.199 l
95.693 18.085 l
96.012 18.031 l
96.331 17.994 l
96.622 17.982 l
96.86 18.008 l
97.066 18.077 l
97.324 18.205 l
97.61 18.371 l
97.898 18.553 l
98.387 18.886 l
98.593 19.034 l
98.176 11.816 l
94.931 18.256 l
f*
[] 0 d
q
0 J
79.904 97.781 m
88.679 14.294 l
S
Q
86.786 14.743 m
87.004 14.663 l
87.526 14.493 l
87.838 14.406 l
88.151 14.335 l
88.439 14.294 l
88.679 14.294 l
88.891 14.341 l
89.161 14.442 l
89.462 14.577 l
89.768 14.728 l
90.289 15.008 l
90.51 15.134 l
89.34 7.998 l
86.786 14.743 l
f*
[] 0 d
q
0 J
79.904 97.781 m
79.904 13.001 l
S
Q
78.068 13.645 m
78.277 13.542 l
78.778 13.319 l
79.079 13.2 l
79.383 13.097 l
79.666 13.025 l
79.904 13.001 l
80.119 13.025 l
80.398 13.097 l
80.712 13.2 l
81.033 13.319 l
81.58 13.542 l
81.813 13.645 l
79.904 6.67 l
78.068 13.645 l
f*
[] 0 d
q
0 J
79.904 97.781 m
71.129 14.294 l
S
Q
69.371 15.126 m
69.568 15.003 l
70.043 14.728 l
70.33 14.578 l
70.621 14.444 l
70.895 14.344 l
71.129 14.294 l
71.346 14.296 l
71.631 14.338 l
71.954 14.408 l
72.285 14.492 l
72.853 14.658 l
73.095 14.735 l
70.467 7.998 l
69.371 15.126 l
f*
[] 0 d
q
0 J
79.904 97.781 m
62.948 18.008 l
S
Q
61.286 19.019 m
61.469 18.876 l
61.912 18.553 l
62.182 18.374 l
62.458 18.21 l
62.72 18.081 l
62.948 18.008 l
63.164 17.987 l
63.451 17.999 l
63.78 18.034 l
64.118 18.084 l
64.7 18.189 l
64.948 18.241 l
61.631 11.816 l
61.286 19.019 l
f*
[] 0 d
q
0 J
79.904 97.781 m
55.831 23.691 l
S
Q
54.284 24.87 m
54.451 24.709 l
54.858 24.341 l
55.108 24.135 l
55.365 23.943 l
55.612 23.788 l
55.831 23.691 l
56.043 23.648 l
56.331 23.629 l
56.661 23.63 l
57.002 23.644 l
57.592 23.688 l
57.845 23.713 l
53.874 17.67 l
54.284 24.87 l
f*
[] 0 d
q
0 J
79.904 97.781 m
50.051 30.73 l
S
Q
48.636 32.065 m
48.785 31.886 l
49.152 31.478 l
49.378 31.247 l
49.614 31.03 l
49.843 30.849 l
50.051 30.73 l
50.258 30.665 l
50.542 30.617 l
50.87 30.583 l
51.211 30.561 l
51.802 30.543 l
52.056 30.542 l
47.476 24.947 l
48.636 32.065 l
f*
[] 0 d
q
0 J
79.904 97.781 m
45.673 38.492 l
S
Q
44.406 39.967 m
44.535 39.774 l
44.857 39.33 l
45.058 39.076 l
45.27 38.835 l
45.479 38.632 l
45.673 38.492 l
45.872 38.405 l
46.15 38.328 l
46.473 38.26 l
46.81 38.202 l
47.395 38.123 l
47.648 38.095 l
42.508 33.009 l
44.406 39.967 l
f*
[] 0 d
q
0 J
79.904 97.781 m
42.595 46.43 l
S
Q
41.489 48.03 m
41.598 47.824 l
41.871 47.349 l
42.045 47.076 l
42.23 46.814 l
42.417 46.59 l
42.595 46.43 l
42.784 46.323 l
43.052 46.217 l
43.366 46.116 l
43.695 46.024 l
44.27 45.883 l
44.518 45.829 l
38.874 41.309 l
41.489 48.03 l
f*
[] 0 d
q
0 J
79.904 97.781 m
40.614 54.145 l
S
Q
39.68 55.851 m
39.767 55.636 l
39.99 55.134 l
40.134 54.844 l
40.291 54.565 l
40.453 54.322 l
40.614 54.145 l
40.79 54.019 l
41.045 53.885 l
41.348 53.752 l
41.665 53.626 l
42.221 53.426 l
42.463 53.346 l
36.378 49.44 l
39.68 55.851 l
f*
[] 0 d
q
0 J
79.904 97.781 m
39.484 61.387 l
S
Q
38.734 63.181 m
38.798 62.958 l
38.967 62.436 l
39.08 62.133 l
39.207 61.838 l
39.343 61.58 l
39.484 61.387 l
39.646 61.243 l
39.886 61.083 l
40.173 60.919 l
40.475 60.76 l
41.008 60.503 l
41.239 60.399 l
34.779 57.151 l
38.734 63.181 l
f*
[] 0 d
q
0 J
79.904 97.781 m
38.966 68.038 l
S
Q
38.408 69.901 m
38.448 69.672 l
38.561 69.135 l
38.642 68.822 l
38.737 68.516 l
38.846 68.245 l
38.966 68.038 l
39.112 67.878 l
39.334 67.694 l
39.602 67.501 l
39.886 67.311 l
40.389 67 l
40.608 66.872 l
33.844 64.317 l
38.408 69.901 l
f*
[] 0 d
q
0 J
79.904 97.781 m
38.848 74.078 l
S
Q
38.488 75.989 m
38.504 75.757 l
38.561 75.211 l
38.608 74.891 l
38.671 74.577 l
38.75 74.296 l
38.848 74.078 l
38.977 73.903 l
39.179 73.697 l
39.425 73.477 l
39.688 73.259 l
40.155 72.897 l
40.36 72.746 l
33.366 70.912 l
38.488 75.989 l
f*
[] 0 d
q
0 J
79.904 97.781 m
38.96 79.552 l
S
Q
38.801 81.49 m
38.793 81.258 l
38.792 80.709 l
38.806 80.386 l
38.836 80.067 l
38.885 79.779 l
38.96 79.552 l
39.07 79.365 l
39.249 79.139 l
39.47 78.894 l
39.709 78.65 l
40.136 78.241 l
40.324 78.07 l
33.177 76.977 l
38.801 81.49 l
f*
[] 0 d
q
0 J
79.904 97.781 m
39.169 84.545 l
S
Q
39.214 86.49 m
39.181 86.26 l
39.123 85.714 l
39.103 85.391 l
39.099 85.071 l
39.119 84.78 l
39.169 84.545 l
39.259 84.348 l
39.413 84.105 l
39.608 83.838 l
39.82 83.57 l
40.202 83.119 l
40.371 82.929 l
33.148 82.589 l
39.214 86.49 l
f*
[] 0 d
q
0 J
79.904 97.781 m
39.381 89.168 l
S
Q
39.629 91.097 m
39.572 90.871 l
39.457 90.335 l
39.404 90.016 l
39.366 89.697 l
39.355 89.406 l
39.381 89.168 l
39.449 88.962 l
39.577 88.704 l
39.743 88.418 l
39.926 88.129 l
40.259 87.641 l
40.407 87.434 l
33.188 87.851 l
39.629 91.097 l
f*
[] 0 d
q
0 J
79.904 97.781 m
39.532 93.538 l
S
Q
39.98 95.43 m
39.9 95.212 l
39.73 94.691 l
39.643 94.379 l
39.573 94.066 l
39.531 93.777 l
39.532 93.538 l
39.579 93.326 l
39.679 93.056 l
39.814 92.754 l
39.966 92.448 l
40.245 91.928 l
40.371 91.707 l
33.236 92.876 l
39.98 95.43 l
f*
[] 0 d
q
0 J
79.904 97.781 m
39.586 97.781 l
S
Q
40.23 99.616 m
40.127 99.408 l
39.904 98.907 l
39.785 98.606 l
39.682 98.302 l
39.61 98.019 l
39.586 97.781 l
39.61 97.565 l
39.682 97.286 l
39.785 96.973 l
39.904 96.652 l
40.127 96.105 l
40.23 95.872 l
33.255 97.781 l
40.23 99.616 l
f*
[] 0 d
q
0 J
79.904 97.781 m
39.532 102.024 l
S
Q
40.364 103.782 m
40.24 103.585 l
39.965 103.111 l
39.816 102.824 l
39.682 102.532 l
39.581 102.259 l
39.532 102.024 l
39.533 101.807 l
39.575 101.522 l
39.645 101.2 l
39.73 100.868 l
39.895 100.301 l
39.972 100.059 l
33.236 102.686 l
40.364 103.782 l
f*
[] 0 d
q
0 J
79.904 97.781 m
39.381 106.395 l
S
Q
40.392 108.056 m
40.248 107.873 l
39.926 107.43 l
39.747 107.16 l
39.583 106.884 l
39.454 106.622 l
39.381 106.395 l
39.36 106.179 l
39.372 105.891 l
39.407 105.562 l
39.457 105.224 l
39.562 104.643 l
39.613 104.394 l
33.188 107.711 l
40.392 108.056 l
f*
[] 0 d
q
0 J
79.904 97.781 m
39.169 111.017 l
S
Q
40.348 112.563 m
40.187 112.396 l
39.819 111.989 l
39.613 111.739 l
39.421 111.482 l
39.266 111.236 l
39.169 111.017 l
39.126 110.804 l
39.107 110.517 l
39.108 110.186 l
39.122 109.845 l
39.166 109.255 l
39.191 109.002 l
33.148 112.973 l
40.348 112.563 l
f*
[] 0 d
q
0 J
79.904 97.781 m
38.96 116.01 l
S
Q
40.294 117.425 m
40.116 117.276 l
39.708 116.91 l
39.477 116.683 l
39.26 116.447 l
39.079 116.218 l
38.96 116.01 l
38.895 115.804 l
38.846 115.52 l
38.813 115.191 l
38.791 114.85 l
38.773 114.259 l
38.772 114.005 l
33.177 118.585 l
40.294 117.425 l
f*
[] 0 d
q
0 J
79.904 97.781 m
38.848 121.484 l
S
Q
40.323 122.752 m
40.131 122.622 l
39.686 122.301 l
39.433 122.099 l
39.192 121.888 l
38.989 121.679 l
38.848 121.484 l
38.762 121.285 l
38.684 121.008 l
38.616 120.685 l
38.559 120.348 l
38.479 119.762 l
38.451 119.51 l
33.366 124.65 l
40.323 122.752 l
f*
[] 0 d
q
0 J
79.904 97.781 m
38.966 127.524 l
S
Q
40.565 128.631 m
40.36 128.522 l
39.885 128.248 l
39.611 128.075 l
39.35 127.889 l
39.126 127.703 l
38.966 127.524 l
38.859 127.335 l
38.753 127.068 l
38.651 126.753 l
38.559 126.424 l
38.419 125.85 l
38.365 125.602 l
33.844 131.245 l
40.565 128.631 l
f*
[] 0 d
q
0 J
79.904 97.781 m
39.484 134.175 l
S
Q
41.19 135.109 m
40.975 135.022 l
40.473 134.799 l
40.183 134.655 l
39.904 134.498 l
39.661 134.336 l
39.484 134.175 l
39.358 133.999 l
39.224 133.744 l
39.091 133.442 l
38.965 133.124 l
38.765 132.568 l
38.685 132.326 l
34.779 138.411 l
41.19 135.109 l
f*
[] 0 d
q
0 J
79.904 97.781 m
40.614 141.417 l
S
Q
42.408 142.167 m
42.185 142.103 l
41.663 141.934 l
41.36 141.821 l
41.065 141.694 l
40.807 141.558 l
40.614 141.417 l
40.47 141.255 l
40.31 141.015 l
40.146 140.728 l
39.987 140.426 l
39.73 139.893 l
39.626 139.662 l
36.378 146.122 l
42.408 142.167 l
f*
[] 0 d
q
0 J
79.904 97.781 m
42.595 149.132 l
S
Q
44.459 149.69 m
44.23 149.65 l
43.693 149.536 l
43.379 149.456 l
43.073 149.36 l
42.803 149.252 l
42.595 149.132 l
42.435 148.985 l
42.252 148.763 l
42.058 148.496 l
41.869 148.211 l
41.558 147.709 l
41.43 147.489 l
38.874 154.253 l
44.459 149.69 l
f*
[] 0 d
q
0 J
79.904 97.781 m
45.673 157.07 l
S
Q
47.585 157.431 m
47.353 157.415 l
46.807 157.358 l
46.487 157.31 l
46.172 157.248 l
45.892 157.168 l
45.673 157.07 l
45.499 156.941 l
45.293 156.74 l
45.072 156.494 l
44.854 156.231 l
44.492 155.763 l
44.342 155.558 l
42.508 162.553 l
47.585 157.431 l
f*
[] 0 d
q
0 J
79.904 97.781 m
50.051 164.832 l
S
Q
51.989 164.99 m
51.757 164.999 l
51.209 165 l
50.885 164.986 l
50.566 164.956 l
50.278 164.906 l
50.051 164.832 l
49.864 164.722 l
49.638 164.543 l
49.393 164.321 l
49.149 164.083 l
48.74 163.656 l
48.569 163.468 l
47.476 170.615 l
51.989 164.99 l
f*
[] 0 d
q
0 J
79.904 97.781 m
55.831 171.871 l
S
Q
57.775 171.826 m
57.545 171.859 l
56.999 171.917 l
56.676 171.937 l
56.356 171.941 l
56.065 171.921 l
55.831 171.871 l
55.633 171.781 l
55.39 171.627 l
55.123 171.432 l
54.855 171.22 l
54.404 170.838 l
54.214 170.669 l
53.874 177.892 l
57.775 171.826 l
f*
[] 0 d
q
0 J
79.904 97.781 m
62.948 177.554 l
S
Q
64.877 177.306 m
64.651 177.363 l
64.115 177.477 l
63.796 177.531 l
63.477 177.569 l
63.186 177.58 l
62.948 177.554 l
62.742 177.485 l
62.484 177.357 l
62.198 177.191 l
61.909 177.009 l
61.421 176.676 l
61.214 176.528 l
61.631 183.746 l
64.877 177.306 l
f*
[] 0 d
q
0 J
79.904 97.781 m
71.129 181.268 l
S
Q
73.022 180.819 m
72.803 180.899 l
72.282 181.069 l
71.97 181.156 l
71.657 181.227 l
71.369 181.268 l
71.129 181.268 l
70.917 181.221 l
70.647 181.121 l
70.346 180.985 l
70.04 180.834 l
69.519 180.554 l
69.298 180.428 l
70.467 187.564 l
73.022 180.819 l
f*
[] 0 d
q
0 J
79.904 97.781 m
79.904 182.561 l
S
Q
81.739 181.917 m
81.531 182.02 l
81.03 182.243 l
80.729 182.362 l
80.425 182.465 l
80.142 182.537 l
79.904 182.561 l
79.688 182.537 l
79.409 182.465 l
79.095 182.362 l
78.775 182.243 l
78.228 182.02 l
77.995 181.917 l
79.904 188.892 l
81.739 181.917 l
f*
[] 0 d
q
0 J
79.904 97.781 m
88.679 181.268 l
S
Q
90.437 180.436 m
90.24 180.559 l
89.765 180.834 l
89.478 180.984 l
89.187 181.118 l
88.913 181.218 l
88.679 181.268 l
88.462 181.266 l
88.177 181.224 l
87.854 181.154 l
87.523 181.07 l
86.955 180.904 l
86.713 180.827 l
89.34 187.564 l
90.437 180.436 l
f*
[] 0 d
q
0 J
79.904 97.781 m
96.86 177.554 l
S
Q
98.522 176.543 m
98.339 176.686 l
97.895 177.009 l
97.625 177.188 l
97.35 177.352 l
97.088 177.481 l
96.86 177.554 l
96.644 177.575 l
96.356 177.563 l
96.028 177.528 l
95.69 177.478 l
95.108 177.373 l
94.859 177.321 l
98.176 183.746 l
98.522 176.543 l
f*
[] 0 d
q
0 J
79.904 97.781 m
103.977 171.871 l
S
Q
105.524 170.692 m
105.357 170.854 l
104.95 171.221 l
104.7 171.427 l
104.443 171.619 l
104.196 171.774 l
103.977 171.871 l
103.765 171.915 l
103.477 171.933 l
103.147 171.932 l
102.805 171.918 l
102.216 171.874 l
101.963 171.849 l
105.934 177.892 l
105.524 170.692 l
f*
[] 0 d
q
0 J
79.904 97.781 m
109.757 164.832 l
S
Q
111.172 163.497 m
111.023 163.676 l
110.656 164.084 l
110.429 164.315 l
110.194 164.532 l
109.965 164.713 l
109.757 164.832 l
109.55 164.897 l
109.266 164.945 l
108.937 164.979 l
108.596 165.001 l
108.006 165.019 l
107.751 165.02 l
112.332 170.615 l
111.172 163.497 l
f*
[] 0 d
q
0 J
79.904 97.781 m
114.135 157.07 l
S
Q
115.402 155.595 m
115.273 155.788 l
114.951 156.232 l
114.749 156.486 l
114.538 156.727 l
114.329 156.93 l
114.135 157.07 l
113.936 157.157 l
113.658 157.234 l
113.335 157.302 l
112.998 157.36 l
112.412 157.439 l
112.16 157.467 l
117.3 162.553 l
115.402 155.595 l
f*
[] 0 d
q
0 J
79.904 97.781 m
117.212 149.132 l
S
Q
118.319 147.532 m
118.21 147.738 l
117.936 148.213 l
117.763 148.486 l
117.577 148.748 l
117.391 148.972 l
117.212 149.132 l
117.024 149.239 l
116.756 149.345 l
116.441 149.446 l
116.112 149.538 l
115.538 149.679 l
115.29 149.733 l
120.933 154.253 l
118.319 147.532 l
f*
[] 0 d
q
0 J
79.904 97.781 m
119.194 141.417 l
S
Q
120.127 139.711 m
120.041 139.926 l
119.818 140.428 l
119.674 140.718 l
119.517 140.997 l
119.355 141.24 l
119.194 141.417 l
119.017 141.543 l
118.762 141.677 l
118.46 141.81 l
118.143 141.937 l
117.586 142.136 l
117.345 142.216 l
123.43 146.122 l
120.127 139.711 l
f*
[] 0 d
q
0 J
79.904 97.781 m
120.324 134.175 l
S
Q
121.074 132.381 m
121.01 132.604 l
120.841 133.126 l
120.728 133.429 l
120.601 133.724 l
120.465 133.982 l
120.324 134.175 l
120.161 134.319 l
119.922 134.479 l
119.635 134.643 l
119.332 134.802 l
118.8 135.059 l
118.568 135.163 l
125.029 138.411 l
121.074 132.381 l
f*
[] 0 d
q
0 J
79.904 97.781 m
120.842 127.524 l
S
Q
121.4 125.661 m
121.36 125.89 l
121.247 126.427 l
121.166 126.74 l
121.071 127.046 l
120.962 127.317 l
120.842 127.524 l
120.695 127.684 l
120.474 127.868 l
120.206 128.062 l
119.921 128.251 l
119.419 128.562 l
119.199 128.69 l
125.964 131.245 l
121.4 125.661 l
f*
[] 0 d
q
0 J
79.904 97.781 m
120.959 121.484 l
S
Q
121.32 119.573 m
121.304 119.805 l
121.247 120.351 l
121.2 120.671 l
121.137 120.985 l
121.057 121.266 l
120.959 121.484 l
120.83 121.659 l
120.629 121.865 l
120.383 122.085 l
120.12 122.303 l
119.652 122.665 l
119.448 122.816 l
126.442 124.65 l
121.32 119.573 l
f*
[] 0 d
q
0 J
79.904 97.781 m
120.848 116.01 l
S
Q
121.006 114.072 m
121.015 114.304 l
121.015 114.853 l
121.002 115.176 l
120.972 115.495 l
120.922 115.783 l
120.848 116.01 l
120.738 116.197 l
120.559 116.423 l
120.337 116.668 l
120.098 116.913 l
119.671 117.321 l
119.483 117.492 l
126.631 118.585 l
121.006 114.072 l
f*
[] 0 d
q
0 J
79.904 97.781 m
120.639 111.017 l
S
Q
120.594 109.072 m
120.626 109.302 l
120.684 109.848 l
120.704 110.171 l
120.708 110.491 l
120.689 110.782 l
120.639 111.017 l
120.549 111.214 l
120.395 111.457 l
120.2 111.724 l
119.988 111.992 l
119.606 112.443 l
119.437 112.633 l
126.66 112.973 l
120.594 109.072 l
f*
[] 0 d
q
0 J
79.904 97.781 m
120.427 106.395 l
S
Q
120.179 104.465 m
120.236 104.691 l
120.35 105.227 l
120.404 105.547 l
120.441 105.865 l
120.453 106.156 l
120.427 106.395 l
120.358 106.6 l
120.23 106.858 l
120.064 107.144 l
119.882 107.433 l
119.549 107.921 l
119.401 108.128 l
126.619 107.711 l
120.179 104.465 l
f*
[] 0 d
q
0 J
79.904 97.781 m
120.276 102.024 l
S
Q
119.828 100.132 m
119.908 100.35 l
120.078 100.871 l
120.165 101.183 l
120.235 101.496 l
120.277 101.785 l
120.276 102.024 l
120.229 102.236 l
120.129 102.506 l
119.994 102.808 l
119.842 103.114 l
119.562 103.635 l
119.436 103.855 l
126.572 102.686 l
119.828 100.132 l
f*
Q
Q
1 w
/DeviceRGB {} CS
[0 0 0] SC
/DeviceRGB {} cs
[0 0 0] sc
[] 0 d
2 J
0 j
10 M
Q
showpage
%%PageTrailer
pdfEndPage
%%Trailer
end
%%DocumentSuppliedResources:
%%EOF
