%!PS-Adobe-3.0 EPSF-3.0
%%Creator: Mathematica
%%LanguageLevel: 2
%%DocumentSuppliedResources: (atend)
%%BoundingBox: 0 0 254 157
%%HiResBoundingBox: 0 0 253.6 156.795
%%DocumentSuppliedResources: (atend)
%%EndComments
%%BeginProlog
%%BeginResource: procset xpdf 3.00 0
%%Copyright: Copyright 1996-2004 Glyph & Cog, LLC
/xpdf 75 dict def xpdf begin
% PDF special state
/pdfDictSize 15 def
/pdfSetup {
  3 1 roll 2 array astore
  /setpagedevice where {
    pop 3 dict begin
      /PageSize exch def
      /ImagingBBox null def
      { /Duplex true def } if
    currentdict end setpagedevice
  } {
    pop pop
  } ifelse
} def
/pdfStartPage {
  pdfDictSize dict begin
  /pdfFillCS [] def
  /pdfFillXform {} def
  /pdfStrokeCS [] def
  /pdfStrokeXform {} def
  /pdfFill [0] def
  /pdfStroke [0] def
  /pdfFillOP false def
  /pdfStrokeOP false def
  /pdfLastFill false def
  /pdfLastStroke false def
  /pdfTextMat [1 0 0 1 0 0] def
  /pdfFontSize 0 def
  /pdfCharSpacing 0 def
  /pdfTextRender 0 def
  /pdfTextRise 0 def
  /pdfWordSpacing 0 def
  /pdfHorizScaling 1 def
  /pdfTextClipPath [] def
} def
/pdfEndPage { end } def
% PDF color state
/cs { /pdfFillXform exch def dup /pdfFillCS exch def
      setcolorspace } def
/CS { /pdfStrokeXform exch def dup /pdfStrokeCS exch def
      setcolorspace } def
/sc { pdfLastFill not { pdfFillCS setcolorspace } if
      dup /pdfFill exch def aload pop pdfFillXform setcolor
     /pdfLastFill true def /pdfLastStroke false def } def
/SC { pdfLastStroke not { pdfStrokeCS setcolorspace } if
      dup /pdfStroke exch def aload pop pdfStrokeXform setcolor
     /pdfLastStroke true def /pdfLastFill false def } def
/op { /pdfFillOP exch def
      pdfLastFill { pdfFillOP setoverprint } if } def
/OP { /pdfStrokeOP exch def
      pdfLastStroke { pdfStrokeOP setoverprint } if } def
/fCol {
  pdfLastFill not {
    pdfFillCS setcolorspace
    pdfFill aload pop pdfFillXform setcolor
    pdfFillOP setoverprint
    /pdfLastFill true def /pdfLastStroke false def
  } if
} def
/sCol {
  pdfLastStroke not {
    pdfStrokeCS setcolorspace
    pdfStroke aload pop pdfStrokeXform setcolor
    pdfStrokeOP setoverprint
    /pdfLastStroke true def /pdfLastFill false def
  } if
} def
% build a font
/pdfMakeFont {
  4 3 roll findfont
  4 2 roll matrix scale makefont
  dup length dict begin
    { 1 index /FID ne { def } { pop pop } ifelse } forall
    /Encoding exch def
    currentdict
  end
  definefont pop
} def
/pdfMakeFont16 {
  exch findfont
  dup length dict begin
    { 1 index /FID ne { def } { pop pop } ifelse } forall
    /WMode exch def
    currentdict
  end
  definefont pop
} def
% graphics state operators
/q { gsave pdfDictSize dict begin } def
/Q {
  end grestore
  /pdfLastFill where {
    pop
    pdfLastFill {
      pdfFillOP setoverprint
    } {
      pdfStrokeOP setoverprint
    } ifelse
  } if
} def
/cm { concat } def
/d { setdash } def
/i { setflat } def
/j { setlinejoin } def
/J { setlinecap } def
/M { setmiterlimit } def
/w { setlinewidth } def
% path segment operators
/m { moveto } def
/l { lineto } def
/c { curveto } def
/re { 4 2 roll moveto 1 index 0 rlineto 0 exch rlineto
      neg 0 rlineto closepath } def
/h { closepath } def
% path painting operators
/S { sCol stroke } def
/Sf { fCol stroke } def
/f { fCol fill } def
/f* { fCol eofill } def
% clipping operators
/W { clip newpath } def
/W* { eoclip newpath } def
/Ws { strokepath clip newpath } def
% text state operators
/Tc { /pdfCharSpacing exch def } def
/Tf { dup /pdfFontSize exch def
      dup pdfHorizScaling mul exch matrix scale
      pdfTextMat matrix concatmatrix dup 4 0 put dup 5 0 put
      exch findfont exch makefont setfont } def
/Tr { /pdfTextRender exch def } def
/Ts { /pdfTextRise exch def } def
/Tw { /pdfWordSpacing exch def } def
/Tz { /pdfHorizScaling exch def } def
% text positioning operators
/Td { pdfTextMat transform moveto } def
/Tm { /pdfTextMat exch def } def
% text string operators
/cshow where {
  pop
  /cshow2 {
    dup {
      pop pop
      1 string dup 0 3 index put 3 index exec
    } exch cshow
    pop pop
  } def
}{
  /cshow2 {
    currentfont /FontType get 0 eq {
      0 2 2 index length 1 sub {
        2 copy get exch 1 add 2 index exch get
        2 copy exch 256 mul add
        2 string dup 0 6 5 roll put dup 1 5 4 roll put
        3 index exec
      } for
    } {
      dup {
        1 string dup 0 3 index put 3 index exec
      } forall
    } ifelse
    pop pop
  } def
} ifelse
/awcp {
  exch {
    false charpath
    5 index 5 index rmoveto
    6 index eq { 7 index 7 index rmoveto } if
  } exch cshow2
  6 {pop} repeat
} def
/Tj {
  fCol
  1 index stringwidth pdfTextMat idtransform pop
  sub 1 index length dup 0 ne { div } { pop pop 0 } ifelse
  pdfWordSpacing pdfHorizScaling mul 0 pdfTextMat dtransform 32
  4 3 roll pdfCharSpacing pdfHorizScaling mul add 0
  pdfTextMat dtransform
  6 5 roll Tj1
} def
/Tj16 {
  fCol
  2 index stringwidth pdfTextMat idtransform pop
  sub exch div
  pdfWordSpacing pdfHorizScaling mul 0 pdfTextMat dtransform 32
  4 3 roll pdfCharSpacing pdfHorizScaling mul add 0
  pdfTextMat dtransform
  6 5 roll Tj1
} def
/Tj16V {
  fCol
  2 index stringwidth pdfTextMat idtransform exch pop
  sub exch div
  0 pdfWordSpacing pdfTextMat dtransform 32
  4 3 roll pdfCharSpacing add 0 exch
  pdfTextMat dtransform
  6 5 roll Tj1
} def
/Tj1 {
  0 pdfTextRise pdfTextMat dtransform rmoveto
  currentpoint 8 2 roll
  pdfTextRender 1 and 0 eq {
    6 copy awidthshow
  } if
  pdfTextRender 3 and dup 1 eq exch 2 eq or {
    7 index 7 index moveto
    6 copy
    currentfont /FontType get 3 eq { fCol } { sCol } ifelse
    false awcp currentpoint stroke moveto
  } if
  pdfTextRender 4 and 0 ne {
    8 6 roll moveto
    false awcp
    /pdfTextClipPath [ pdfTextClipPath aload pop
      {/moveto cvx}
      {/lineto cvx}
      {/curveto cvx}
      {/closepath cvx}
    pathforall ] def
    currentpoint newpath moveto
  } {
    8 {pop} repeat
  } ifelse
  0 pdfTextRise neg pdfTextMat dtransform rmoveto
} def
/TJm { pdfFontSize 0.001 mul mul neg 0
       pdfTextMat dtransform rmoveto } def
/TJmV { pdfFontSize 0.001 mul mul neg 0 exch
        pdfTextMat dtransform rmoveto } def
/Tclip { pdfTextClipPath cvx exec clip newpath
         /pdfTextClipPath [] def } def
/Tclip* { pdfTextClipPath cvx exec eoclip newpath
         /pdfTextClipPath [] def } def
% Level 2 image operators
/pdfImBuf 100 string def
/pdfIm {
  image
  { currentfile pdfImBuf readline
    not { pop exit } if
    (%-EOD-) eq { exit } if } loop
} def
/pdfImM {
  fCol imagemask
  { currentfile pdfImBuf readline
    not { pop exit } if
    (%-EOD-) eq { exit } if } loop
} def
/pr { 2 index 2 index 3 2 roll putinterval 4 add } def
/pdfImClip {
  gsave
  0 2 4 index length 1 sub {
    dup 4 index exch 2 copy
    get 5 index div put
    1 add 3 index exch 2 copy
    get 3 index div put
  } for
  pop pop rectclip
} def
/pdfImClipEnd { grestore } def
% shading operators
/colordelta {
  false 0 1 3 index length 1 sub {
    dup 4 index exch get 3 index 3 2 roll get sub abs 0.004 gt {
      pop true
    } if
  } for
  exch pop exch pop
} def
/funcCol { func n array astore } def
/funcSH {
  dup 0 eq {
    true
  } {
    dup 6 eq {
      false
    } {
      4 index 4 index funcCol dup
      6 index 4 index funcCol dup
      3 1 roll colordelta 3 1 roll
      5 index 5 index funcCol dup
      3 1 roll colordelta 3 1 roll
      6 index 8 index funcCol dup
      3 1 roll colordelta 3 1 roll
      colordelta or or or
    } ifelse
  } ifelse
  {
    1 add
    4 index 3 index add 0.5 mul exch 4 index 3 index add 0.5 mul exch
    6 index 6 index 4 index 4 index 4 index funcSH
    2 index 6 index 6 index 4 index 4 index funcSH
    6 index 2 index 4 index 6 index 4 index funcSH
    5 3 roll 3 2 roll funcSH pop pop
  } {
    pop 3 index 2 index add 0.5 mul 3 index  2 index add 0.5 mul
    funcCol sc
    dup 4 index exch mat transform m
    3 index 3 index mat transform l
    1 index 3 index mat transform l
    mat transform l pop pop h f*
  } ifelse
} def
/axialCol {
  dup 0 lt {
    pop t0
  } {
    dup 1 gt {
      pop t1
    } {
      dt mul t0 add
    } ifelse
  } ifelse
  func n array astore
} def
/axialSH {
  dup 0 eq {
    true
  } {
    dup 8 eq {
      false
    } {
      2 index axialCol 2 index axialCol colordelta
    } ifelse
  } ifelse
  {
    1 add 3 1 roll 2 copy add 0.5 mul
    dup 4 3 roll exch 4 index axialSH
    exch 3 2 roll axialSH
  } {
    pop 2 copy add 0.5 mul
    axialCol sc
    exch dup dx mul x0 add exch dy mul y0 add
    3 2 roll dup dx mul x0 add exch dy mul y0 add
    dx abs dy abs ge {
      2 copy yMin sub dy mul dx div add yMin m
      yMax sub dy mul dx div add yMax l
      2 copy yMax sub dy mul dx div add yMax l
      yMin sub dy mul dx div add yMin l
      h f*
    } {
      exch 2 copy xMin sub dx mul dy div add xMin exch m
      xMax sub dx mul dy div add xMax exch l
      exch 2 copy xMax sub dx mul dy div add xMax exch l
      xMin sub dx mul dy div add xMin exch l
      h f*
    } ifelse
  } ifelse
} def
/radialCol {
  dup t0 lt {
    pop t0
  } {
    dup t1 gt {
      pop t1
    } if
  } ifelse
  func n array astore
} def
/radialSH {
  dup 0 eq {
    true
  } {
    dup 8 eq {
      false
    } {
      2 index dt mul t0 add radialCol
      2 index dt mul t0 add radialCol colordelta
    } ifelse
  } ifelse
  {
    1 add 3 1 roll 2 copy add 0.5 mul
    dup 4 3 roll exch 4 index radialSH
    exch 3 2 roll radialSH
  } {
    pop 2 copy add 0.5 mul dt mul t0 add
    radialCol sc
    encl {
      exch dup dx mul x0 add exch dup dy mul y0 add exch dr mul r0 add
      0 360 arc h
      dup dx mul x0 add exch dup dy mul y0 add exch dr mul r0 add
      360 0 arcn h f
    } {
      2 copy
      dup dx mul x0 add exch dup dy mul y0 add exch dr mul r0 add
      a1 a2 arcn
      dup dx mul x0 add exch dup dy mul y0 add exch dr mul r0 add
      a2 a1 arcn h
      dup dx mul x0 add exch dup dy mul y0 add exch dr mul r0 add
      a1 a2 arc
      dup dx mul x0 add exch dup dy mul y0 add exch dr mul r0 add
      a2 a1 arc h f
    } ifelse
  } ifelse
} def
end
%%EndResource
%%EndProlog
%%BeginSetup
xpdf begin
%%EndSetup
pdfStartPage
[] 0 d
1 i
0 j
0 J
10 M
1 w
/DeviceGray {} cs
[0] sc
/DeviceGray {} CS
[0] SC
false op
false OP
{} settransfer
q
[1 0 0 -1 0 156.795] cm
[1 0 0 1 -31.2 -3.2] cm
[1 0 0 1 0 0] cm
1 w
/DeviceRGB {} CS
[0 0 0] SC
/DeviceRGB {} cs
[0 0 0] sc
[] 0 d
2 J
0 j
10 M
31.2 3.2 m
31.2 159.995 l
284.8 159.995 l
284.8 3.2 l
W*
q
29.2 1.2 m
29.2 161.995 l
286.8 161.995 l
286.8 1.2 l
W*
q
31.2 2.995 m
31.2 159.995 l
285.2 159.995 l
285.2 2.995 l
W*
3.239 M
q
31.2 2.995 m
31.2 159.995 l
285.2 159.995 l
285.2 2.995 l
W*
Q
q
31.2 2.995 m
31.2 159.995 l
285.2 159.995 l
285.2 2.995 l
W*
Q
q
31.2 2.995 m
31.2 159.995 l
285.2 159.995 l
285.2 2.995 l
W*
/DeviceGray {} CS
[0] SC
/DeviceGray {} cs
[0] sc
0.4 w
[] 0 d
3.25 M
36.349 81.552 m
36.423 81.556 l
36.498 81.56 l
36.647 81.569 l
36.946 81.587 l
37.543 81.627 l
37.617 81.632 l
37.692 81.638 l
37.841 81.649 l
38.14 81.671 l
38.737 81.715 l
38.811 81.72 l
38.886 81.726 l
39.035 81.737 l
39.334 81.757 l
39.408 81.762 l
39.483 81.767 l
39.632 81.777 l
39.931 81.794 l
40.005 81.799 l
40.08 81.803 l
40.229 81.81 l
40.304 81.814 l
40.378 81.817 l
40.528 81.824 l
40.602 81.826 l
40.677 81.829 l
40.751 81.832 l
40.826 81.834 l
40.901 81.836 l
40.975 81.838 l
41.05 81.84 l
41.124 81.842 l
41.205 81.843 l
41.286 81.844 l
41.367 81.845 l
41.448 81.846 l
41.529 81.846 l
41.61 81.846 l
41.691 81.846 l
41.772 81.846 l
41.853 81.845 l
41.933 81.844 l
42.014 81.843 l
42.095 81.841 l
42.176 81.839 l
42.257 81.837 l
42.338 81.834 l
42.419 81.831 l
42.5 81.828 l
42.581 81.825 l
42.662 81.821 l
42.742 81.817 l
42.823 81.812 l
42.904 81.807 l
43.066 81.797 l
43.147 81.791 l
43.228 81.785 l
43.39 81.772 l
43.471 81.765 l
43.551 81.758 l
43.713 81.743 l
43.794 81.735 l
43.875 81.726 l
44.037 81.709 l
44.36 81.67 l
44.441 81.66 l
44.522 81.65 l
44.684 81.628 l
45.008 81.583 l
45.088 81.571 l
45.169 81.559 l
45.331 81.535 l
45.655 81.485 l
46.302 81.382 l
46.377 81.37 l
46.453 81.359 l
46.604 81.335 l
46.906 81.289 l
46.982 81.278 l
47.057 81.267 l
47.208 81.246 l
47.51 81.206 l
47.586 81.196 l
47.662 81.187 l
47.813 81.169 l
47.888 81.161 l
47.964 81.153 l
48.115 81.138 l
48.19 81.131 l
48.266 81.124 l
48.341 81.118 l
48.417 81.112 l
48.492 81.106 l
48.568 81.101 l
48.644 81.097 l
48.719 81.092 l
48.795 81.089 l
48.87 81.085 l
48.946 81.082 l
49.021 81.08 l
49.097 81.078 l
49.172 81.076 l
49.248 81.075 l
49.323 81.075 l
49.399 81.075 l
49.474 81.075 l
49.55 81.076 l
49.625 81.078 l
49.701 81.08 l
49.777 81.083 l
49.852 81.086 l
49.928 81.089 l
50.003 81.094 l
50.079 81.099 l
50.154 81.104 l
50.23 81.11 l
50.305 81.116 l
50.381 81.123 l
50.532 81.139 l
50.607 81.148 l
50.683 81.157 l
50.834 81.178 l
50.91 81.189 l
50.985 81.2 l
51.136 81.225 l
51.21 81.238 l
51.284 81.251 l
51.432 81.28 l
51.729 81.342 l
51.803 81.359 l
51.877 81.377 l
52.025 81.412 l
52.321 81.489 l
52.395 81.509 l
52.469 81.53 l
52.617 81.572 l
52.914 81.659 l
53.506 81.844 l
53.58 81.867 l
53.654 81.891 l
53.802 81.939 l
54.098 82.033 l
54.172 82.057 l
54.246 82.08 l
54.395 82.127 l
54.691 82.216 l
54.765 82.238 l
54.839 82.26 l
54.987 82.302 l
55.283 82.381 l
55.357 82.399 l
55.431 82.417 l
55.579 82.452 l
55.654 82.468 l
55.728 82.484 l
55.876 82.513 l
55.956 82.528 l
56.036 82.542 l
56.117 82.556 l
56.197 82.568 l
56.277 82.579 l
56.358 82.59 l
56.438 82.6 l
56.518 82.608 l
56.599 82.616 l
56.679 82.622 l
56.759 82.628 l
56.84 82.632 l
56.92 82.636 l
57 82.638 l
57.081 82.639 l
57.161 82.639 l
57.241 82.638 l
57.322 82.636 l
57.402 82.632 l
57.482 82.628 l
57.563 82.622 l
57.643 82.615 l
57.723 82.606 l
57.804 82.597 l
57.884 82.586 l
57.964 82.574 l
58.045 82.561 l
58.125 82.546 l
58.205 82.531 l
58.286 82.514 l
58.446 82.476 l
58.527 82.455 l
58.607 82.433 l
58.768 82.386 l
58.848 82.36 l
58.928 82.333 l
59.089 82.276 l
59.169 82.246 l
59.25 82.215 l
59.41 82.149 l
59.732 82.004 l
59.812 81.965 l
59.892 81.926 l
60.053 81.844 l
60.374 81.671 l
61.017 81.296 l
61.092 81.25 l
61.167 81.204 l
61.317 81.112 l
61.617 80.927 l
62.216 80.563 l
62.291 80.519 l
62.366 80.476 l
62.516 80.391 l
62.816 80.228 l
62.891 80.19 l
62.966 80.152 l
63.116 80.08 l
63.416 79.947 l
63.491 79.917 l
63.566 79.888 l
63.716 79.834 l
63.791 79.809 l
63.866 79.785 l
64.016 79.742 l
64.091 79.723 l
64.166 79.705 l
64.241 79.689 l
64.316 79.675 l
64.391 79.662 l
64.465 79.651 l
64.54 79.642 l
64.615 79.635 l
64.69 79.629 l
64.765 79.625 l
64.84 79.623 l
64.915 79.623 l
64.99 79.625 l
65.065 79.628 l
65.14 79.634 l
65.215 79.642 l
65.29 79.651 l
65.365 79.662 l
65.44 79.676 l
65.515 79.691 l
65.59 79.709 l
65.665 79.728 l
65.74 79.75 l
65.815 79.773 l
65.896 79.801 l
65.977 79.831 l
66.059 79.863 l
66.14 79.898 l
66.221 79.935 l
66.302 79.975 l
66.465 80.061 l
66.546 80.107 l
66.627 80.156 l
66.79 80.26 l
67.115 80.494 l
67.196 80.557 l
67.277 80.623 l
67.44 80.76 l
67.765 81.054 l
68.415 81.714 l
68.496 81.802 l
68.577 81.89 l
68.74 82.069 l
69.065 82.433 l
69.715 83.164 l
69.796 83.253 l
69.877 83.342 l
70.04 83.517 l
70.365 83.852 l
70.446 83.932 l
70.527 84.011 l
70.69 84.163 l
71.015 84.443 l
71.094 84.506 l
71.174 84.566 l
71.334 84.68 l
71.414 84.733 l
71.493 84.783 l
71.653 84.875 l
71.733 84.916 l
71.812 84.954 l
71.892 84.989 l
71.972 85.021 l
72.052 85.05 l
72.131 85.075 l
72.211 85.097 l
72.291 85.115 l
72.371 85.129 l
72.45 85.14 l
72.53 85.148 l
72.61 85.151 l
72.69 85.151 l
72.77 85.147 l
72.849 85.139 l
72.929 85.127 l
73.009 85.111 l
73.089 85.091 l
73.168 85.068 l
73.248 85.04 l
73.328 85.008 l
73.408 84.972 l
73.487 84.932 l
73.567 84.889 l
73.647 84.841 l
73.727 84.789 l
73.806 84.733 l
73.886 84.673 l
73.966 84.609 l
74.046 84.541 l
74.205 84.393 l
74.285 84.313 l
74.365 84.23 l
74.524 84.051 l
74.843 83.651 l
74.923 83.542 l
75.003 83.43 l
75.163 83.197 l
75.482 82.694 l
76.12 81.569 l
76.194 81.43 l
76.268 81.29 l
76.417 81.005 l
76.715 80.427 l
77.31 79.26 l
77.385 79.116 l
77.459 78.972 l
77.608 78.689 l
77.905 78.138 l
77.98 78.004 l
78.054 77.873 l
78.203 77.617 l
78.501 77.135 l
78.575 77.021 l
78.649 76.911 l
78.798 76.7 l
78.873 76.6 l
78.947 76.504 l
79.096 76.323 l
79.17 76.238 l
79.245 76.157 l
79.319 76.081 l
79.393 76.009 l
79.468 75.942 l
79.542 75.879 l
79.617 75.821 l
79.691 75.768 l
79.765 75.719 l
79.84 75.676 l
79.914 75.637 l
79.989 75.604 l
80.063 75.576 l
80.138 75.554 l
80.212 75.537 l
80.286 75.525 l
80.361 75.519 l
80.435 75.519 l
80.51 75.524 l
80.584 75.534 l
80.658 75.551 l
80.733 75.573 l
80.807 75.602 l
80.882 75.636 l
80.962 75.679 l
81.043 75.73 l
81.124 75.787 l
81.204 75.852 l
81.285 75.923 l
81.366 76.001 l
81.527 76.179 l
81.608 76.278 l
81.688 76.384 l
81.85 76.617 l
81.93 76.743 l
82.011 76.876 l
82.172 77.161 l
82.253 77.313 l
82.334 77.472 l
82.495 77.807 l
82.818 78.548 l
82.899 78.747 l
82.979 78.951 l
83.141 79.374 l
83.463 80.273 l
83.544 80.508 l
83.625 80.747 l
83.786 81.233 l
84.109 82.24 l
84.754 84.325 l
84.835 84.587 l
84.916 84.849 l
85.077 85.369 l
85.4 86.388 l
85.48 86.637 l
85.561 86.882 l
85.722 87.363 l
86.045 88.276 l
86.12 88.478 l
86.196 88.675 l
86.346 89.055 l
86.422 89.236 l
86.497 89.413 l
86.648 89.747 l
86.723 89.905 l
86.798 90.057 l
86.949 90.34 l
87.024 90.471 l
87.1 90.595 l
87.25 90.82 l
87.326 90.922 l
87.401 91.015 l
87.476 91.1 l
87.552 91.176 l
87.627 91.245 l
87.702 91.305 l
87.777 91.356 l
87.853 91.398 l
87.928 91.432 l
88.003 91.456 l
88.079 91.471 l
88.154 91.477 l
88.229 91.474 l
88.305 91.461 l
88.38 91.439 l
88.455 91.407 l
88.531 91.366 l
88.606 91.315 l
88.681 91.254 l
88.757 91.184 l
88.832 91.104 l
88.907 91.014 l
88.983 90.914 l
89.058 90.805 l
89.133 90.686 l
89.209 90.558 l
89.284 90.42 l
89.359 90.272 l
89.434 90.114 l
89.51 89.948 l
89.66 89.586 l
89.736 89.391 l
89.811 89.188 l
89.962 88.753 l
90.263 87.782 l
90.338 87.518 l
90.414 87.247 l
90.564 86.681 l
90.866 85.464 l
90.939 85.149 l
91.013 84.829 l
91.161 84.172 l
91.456 82.798 l
92.047 79.878 l
92.121 79.503 l
92.195 79.126 l
92.342 78.371 l
92.638 76.861 l
93.228 73.924 l
93.302 73.572 l
93.376 73.223 l
93.524 72.542 l
93.819 71.248 l
93.893 70.94 l
93.967 70.64 l
94.114 70.063 l
94.41 69.01 l
94.484 68.77 l
94.557 68.539 l
94.705 68.108 l
94.779 67.908 l
94.853 67.719 l
95.001 67.375 l
95.074 67.22 l
95.148 67.077 l
95.222 66.946 l
95.296 66.828 l
95.37 66.722 l
95.444 66.628 l
95.517 66.547 l
95.591 66.48 l
95.671 66.421 l
95.751 66.378 l
95.832 66.352 l
95.912 66.341 l
95.992 66.346 l
96.072 66.368 l
96.152 66.406 l
96.232 66.461 l
96.312 66.533 l
96.392 66.621 l
96.472 66.726 l
96.553 66.847 l
96.633 66.986 l
96.713 67.141 l
96.793 67.313 l
96.873 67.502 l
96.953 67.707 l
97.033 67.929 l
97.113 68.167 l
97.194 68.421 l
97.274 68.692 l
97.354 68.979 l
97.514 69.599 l
97.594 69.933 l
97.674 70.282 l
97.834 71.024 l
98.155 72.678 l
98.235 73.126 l
98.315 73.585 l
98.475 74.541 l
98.796 76.587 l
99.437 81.104 l
100.719 90.808 l
100.793 91.36 l
100.868 91.907 l
101.018 92.982 l
101.317 95.049 l
101.391 95.545 l
101.466 96.031 l
101.616 96.974 l
101.915 98.724 l
101.989 99.131 l
102.064 99.524 l
102.214 100.269 l
102.288 100.619 l
102.363 100.954 l
102.513 101.578 l
102.587 101.865 l
102.662 102.135 l
102.737 102.389 l
102.812 102.625 l
102.886 102.843 l
102.961 103.043 l
103.036 103.224 l
103.111 103.387 l
103.185 103.53 l
103.26 103.654 l
103.335 103.759 l
103.41 103.844 l
103.484 103.909 l
103.559 103.953 l
103.634 103.978 l
103.709 103.981 l
103.783 103.964 l
103.858 103.926 l
103.933 103.868 l
104.008 103.788 l
104.082 103.687 l
104.157 103.565 l
104.232 103.421 l
104.307 103.257 l
104.381 103.071 l
104.456 102.865 l
104.531 102.637 l
104.606 102.388 l
104.681 102.118 l
104.755 101.828 l
104.905 101.184 l
104.98 100.832 l
105.054 100.46 l
105.204 99.655 l
105.279 99.224 l
105.353 98.773 l
105.503 97.815 l
105.584 97.266 l
105.665 96.695 l
105.827 95.492 l
106.151 92.858 l
106.232 92.155 l
106.313 91.435 l
106.475 89.949 l
106.799 86.811 l
106.88 85.997 l
106.961 85.171 l
107.123 83.493 l
107.448 80.047 l
108.096 73.007 l
108.177 72.132 l
108.258 71.261 l
108.42 69.536 l
108.744 66.18 l
108.825 65.367 l
108.906 64.566 l
109.068 63.003 l
109.392 60.066 l
109.473 59.376 l
109.554 58.705 l
109.716 57.426 l
109.797 56.819 l
109.878 56.235 l
110.041 55.139 l
110.122 54.628 l
110.203 54.144 l
110.284 53.685 l
110.365 53.254 l
110.446 52.851 l
110.527 52.477 l
110.608 52.132 l
110.689 51.816 l
110.768 51.536 l
110.848 51.285 l
110.927 51.064 l
111.007 50.874 l
111.087 50.715 l
111.166 50.587 l
111.246 50.49 l
111.325 50.426 l
111.405 50.394 l
111.484 50.394 l
111.564 50.427 l
111.643 50.492 l
111.723 50.59 l
111.802 50.722 l
111.882 50.886 l
111.962 51.084 l
112.041 51.315 l
112.121 51.578 l
112.2 51.875 l
112.28 52.205 l
112.359 52.567 l
112.439 52.962 l
112.598 53.849 l
112.677 54.34 l
112.757 54.862 l
112.916 56 l
112.996 56.615 l
113.075 57.26 l
113.234 58.636 l
113.314 59.367 l
113.393 60.125 l
113.553 61.722 l
113.871 65.218 l
113.95 66.15 l
114.03 67.104 l
114.189 69.073 l
114.507 73.23 l
114.587 74.31 l
114.666 75.403 l
114.825 77.627 l
115.143 82.194 l
115.78 91.539 l
115.854 92.626 l
115.928 93.707 l
116.077 95.854 l
116.373 100.053 l
116.448 101.076 l
116.522 102.088 l
116.67 104.07 l
116.967 107.843 l
117.041 108.741 l
117.115 109.619 l
117.264 111.311 l
117.338 112.124 l
117.412 112.913 l
117.56 114.418 l
117.635 115.131 l
117.709 115.818 l
117.857 117.109 l
117.931 117.711 l
118.006 118.283 l
118.154 119.336 l
118.228 119.815 l
118.302 120.263 l
118.376 120.677 l
118.451 121.058 l
118.525 121.405 l
118.599 121.718 l
118.673 121.996 l
118.747 122.239 l
118.822 122.446 l
118.896 122.617 l
118.97 122.752 l
119.044 122.85 l
119.118 122.912 l
119.193 122.936 l
119.267 122.923 l
119.341 122.872 l
119.415 122.784 l
119.489 122.658 l
119.563 122.495 l
119.638 122.293 l
119.712 122.054 l
119.786 121.777 l
119.86 121.462 l
119.934 121.109 l
120.009 120.719 l
120.083 120.292 l
120.157 119.828 l
120.231 119.327 l
120.305 118.789 l
120.38 118.216 l
120.528 116.961 l
120.608 116.222 l
120.689 115.442 l
120.85 113.762 l
120.93 112.865 l
121.011 111.929 l
121.172 109.947 l
121.252 108.903 l
121.333 107.825 l
121.493 105.569 l
121.815 100.692 l
121.896 99.404 l
121.976 98.09 l
122.137 95.391 l
122.459 89.749 l
123.103 77.814 l
123.183 76.291 l
123.264 74.766 l
123.425 71.719 l
123.746 65.678 l
123.827 64.188 l
123.907 62.71 l
124.068 59.795 l
124.39 54.176 l
124.471 52.824 l
124.551 51.497 l
124.712 48.922 l
124.793 47.677 l
124.873 46.463 l
125.034 44.132 l
125.114 43.017 l
125.195 41.939 l
125.356 39.895 l
125.436 38.933 l
125.517 38.011 l
125.678 36.296 l
125.753 35.556 l
125.828 34.855 l
125.903 34.195 l
125.978 33.576 l
126.053 33 l
126.128 32.465 l
126.203 31.974 l
126.278 31.527 l
126.354 31.125 l
126.429 30.768 l
126.504 30.456 l
126.579 30.19 l
126.654 29.971 l
126.729 29.799 l
126.804 29.674 l
126.879 29.596 l
126.954 29.567 l
127.029 29.585 l
127.105 29.652 l
127.18 29.767 l
127.255 29.931 l
127.33 30.142 l
127.405 30.403 l
127.48 30.711 l
127.555 31.068 l
127.63 31.474 l
127.705 31.927 l
127.781 32.428 l
127.856 32.976 l
127.931 33.571 l
128.081 34.901 l
128.156 35.635 l
128.231 36.415 l
128.381 38.107 l
128.456 39.019 l
128.532 39.974 l
128.682 42.009 l
128.757 43.087 l
128.832 44.205 l
128.982 46.557 l
129.283 51.693 l
129.358 53.061 l
129.433 54.461 l
129.583 57.349 l
129.883 63.448 l
130.484 76.625 l
130.566 78.479 l
130.647 80.344 l
130.81 84.096 l
131.135 91.635 l
131.217 93.515 l
131.298 95.389 l
131.461 99.111 l
131.786 106.392 l
131.868 108.166 l
131.949 109.918 l
132.112 113.346 l
132.437 119.846 l
132.519 121.386 l
132.6 122.888 l
132.763 125.772 l
133.088 131.011 l
133.17 132.202 l
133.251 133.341 l
133.414 135.462 l
133.495 136.44 l
133.577 137.363 l
133.739 139.035 l
133.821 139.782 l
133.902 140.468 l
133.984 141.093 l
134.065 141.655 l
134.146 142.154 l
134.228 142.589 l
134.309 142.959 l
134.391 143.264 l
134.472 143.504 l
134.553 143.676 l
134.635 143.782 l
134.716 143.821 l
134.797 143.793 l
134.879 143.697 l
134.96 143.533 l
135.042 143.302 l
135.123 143.003 l
135.204 142.637 l
135.286 142.203 l
135.367 141.702 l
135.448 141.135 l
135.53 140.501 l
135.611 139.801 l
135.693 139.036 l
135.773 138.222 l
135.852 137.347 l
136.012 135.414 l
136.092 134.359 l
136.172 133.245 l
136.332 130.847 l
136.412 129.564 l
136.492 128.228 l
136.651 125.4 l
136.971 119.155 l
137.051 117.48 l
137.131 115.764 l
137.291 112.21 l
137.61 104.673 l
138.249 88.321 l
138.329 86.197 l
138.409 84.063 l
138.569 79.772 l
138.889 71.165 l
138.968 69.02 l
139.048 66.884 l
139.208 62.642 l
139.528 54.35 l
139.608 52.33 l
139.688 50.335 l
139.847 46.431 l
140.167 39.023 l
140.247 37.266 l
140.327 35.551 l
140.487 32.256 l
140.806 26.25 l
140.881 24.971 l
140.955 23.74 l
141.104 21.429 l
141.179 20.352 l
141.253 19.328 l
141.402 17.444 l
141.477 16.586 l
141.551 15.785 l
141.626 15.043 l
141.701 14.359 l
141.775 13.735 l
141.85 13.171 l
141.924 12.668 l
141.999 12.227 l
142.073 11.848 l
142.148 11.531 l
142.222 11.278 l
142.297 11.088 l
142.371 10.961 l
142.446 10.898 l
142.52 10.9 l
142.595 10.965 l
142.67 11.095 l
142.744 11.289 l
142.819 11.547 l
142.893 11.87 l
142.968 12.256 l
143.042 12.706 l
143.117 13.219 l
143.191 13.795 l
143.266 14.434 l
143.34 15.135 l
143.415 15.898 l
143.489 16.722 l
143.564 17.606 l
143.639 18.55 l
143.788 20.614 l
143.862 21.732 l
143.937 22.906 l
144.086 25.42 l
144.384 31.078 l
144.458 32.616 l
144.533 34.202 l
144.682 37.509 l
144.98 44.624 l
145.577 60.498 l
145.657 62.78 l
145.738 65.087 l
145.9 69.761 l
146.223 79.288 l
146.87 98.48 l
146.95 100.841 l
147.031 103.186 l
147.193 107.813 l
147.516 116.754 l
147.597 118.91 l
147.678 121.028 l
147.839 125.146 l
148.163 132.842 l
148.243 134.64 l
148.324 136.385 l
148.486 139.704 l
148.567 141.274 l
148.647 142.783 l
148.809 145.61 l
148.89 146.924 l
148.971 148.17 l
149.052 149.347 l
149.132 150.453 l
149.213 151.487 l
149.294 152.448 l
149.375 153.334 l
149.456 154.145 l
149.536 154.879 l
149.617 155.536 l
149.698 156.116 l
149.779 156.616 l
149.86 157.037 l
149.94 157.378 l
150.021 157.639 l
150.102 157.819 l
150.183 157.917 l
150.264 157.935 l
150.345 157.871 l
150.425 157.726 l
150.506 157.5 l
150.587 157.192 l
150.668 156.804 l
150.749 156.335 l
150.824 155.825 l
150.9 155.245 l
150.975 154.596 l
151.05 153.879 l
151.126 153.095 l
151.201 152.243 l
151.352 150.341 l
151.428 149.292 l
151.503 148.18 l
151.654 145.768 l
151.73 144.471 l
151.805 143.114 l
151.956 140.227 l
152.031 138.7 l
152.107 137.118 l
152.258 133.798 l
152.56 126.573 l
152.635 124.655 l
152.71 122.696 l
152.861 118.661 l
153.163 110.177 l
153.239 107.981 l
153.314 105.76 l
153.465 101.247 l
153.767 92.005 l
154.37 73.138 l
154.446 70.787 l
154.521 68.445 l
154.672 63.796 l
154.974 54.702 l
155.578 37.802 l
155.652 35.887 l
155.726 34.013 l
155.874 30.392 l
155.948 28.648 l
156.021 26.951 l
156.169 23.704 l
156.243 22.157 l
156.317 20.662 l
156.465 17.836 l
156.539 16.508 l
156.613 15.237 l
156.761 12.873 l
156.835 11.783 l
156.909 10.755 l
156.983 9.789 l
157.057 8.888 l
157.131 8.052 l
157.205 7.281 l
157.279 6.576 l
157.353 5.938 l
157.427 5.368 l
157.501 4.865 l
157.575 4.431 l
157.649 4.066 l
157.723 3.77 l
157.797 3.544 l
157.871 3.387 l
157.945 3.299 l
158.019 3.282 l
158.093 3.335 l
158.167 3.457 l
158.241 3.65 l
158.315 3.911 l
158.389 4.242 l
158.463 4.642 l
158.537 5.111 l
158.61 5.648 l
158.684 6.253 l
158.758 6.924 l
158.832 7.663 l
158.906 8.467 l
158.98 9.336 l
159.128 11.267 l
159.202 12.327 l
159.276 13.449 l
159.424 15.873 l
159.498 17.173 l
159.572 18.53 l
159.72 21.412 l
159.794 22.933 l
159.868 24.507 l
160.016 27.804 l
160.312 34.957 l
160.392 37.014 l
160.472 39.118 l
160.633 43.455 l
160.954 52.581 l
161.596 72.085 l
161.676 74.59 l
161.756 77.101 l
161.917 82.131 l
162.238 92.147 l
162.88 111.414 l
162.96 113.701 l
163.04 115.953 l
163.201 120.34 l
163.522 128.592 l
163.602 130.533 l
163.682 132.421 l
163.843 136.031 l
164.164 142.535 l
164.244 144.002 l
164.324 145.402 l
164.405 146.734 l
164.485 147.996 l
164.565 149.188 l
164.645 150.308 l
164.806 152.326 l
164.886 153.223 l
164.966 154.044 l
165.047 154.788 l
165.127 155.455 l
165.207 156.043 l
165.287 156.553 l
165.367 156.983 l
165.448 157.334 l
165.523 157.59 l
165.598 157.775 l
165.672 157.891 l
165.747 157.937 l
165.822 157.914 l
165.897 157.82 l
165.972 157.657 l
166.047 157.424 l
166.122 157.123 l
166.197 156.752 l
166.272 156.313 l
166.346 155.807 l
166.421 155.233 l
166.496 154.592 l
166.571 153.886 l
166.646 153.114 l
166.721 152.277 l
166.796 151.377 l
166.945 149.389 l
167.02 148.303 l
167.095 147.158 l
167.245 144.692 l
167.32 143.374 l
167.395 142.001 l
167.545 139.097 l
167.844 132.69 l
167.919 130.972 l
167.994 129.212 l
168.144 125.569 l
168.443 117.844 l
169.042 101.053 l
170.241 65.698 l
170.322 63.376 l
170.403 61.077 l
170.565 56.56 l
170.89 47.913 l
170.971 45.846 l
171.052 43.82 l
171.215 39.904 l
171.539 32.666 l
171.62 30.991 l
171.701 29.374 l
171.864 26.319 l
171.945 24.884 l
172.026 23.512 l
172.188 20.966 l
172.27 19.793 l
172.351 18.69 l
172.432 17.656 l
172.513 16.692 l
172.594 15.8 l
172.675 14.981 l
172.757 14.235 l
172.838 13.563 l
172.919 12.965 l
173 12.442 l
173.081 11.995 l
173.162 11.623 l
173.244 11.327 l
173.325 11.108 l
173.406 10.964 l
173.487 10.897 l
173.568 10.905 l
173.649 10.99 l
173.731 11.15 l
173.812 11.386 l
173.893 11.697 l
173.974 12.081 l
174.055 12.54 l
174.136 13.072 l
174.218 13.677 l
174.299 14.353 l
174.38 15.1 l
174.461 15.916 l
174.542 16.801 l
174.623 17.754 l
174.786 19.858 l
174.867 21.006 l
174.948 22.217 l
175.11 24.82 l
175.435 30.707 l
175.515 32.281 l
175.594 33.902 l
175.754 37.279 l
176.073 44.52 l
176.71 60.489 l
176.79 62.584 l
176.869 64.692 l
177.029 68.943 l
177.347 77.52 l
177.985 94.466 l
178.065 96.521 l
178.144 98.556 l
178.304 102.554 l
178.622 110.21 l
178.702 112.042 l
178.782 113.836 l
178.941 117.309 l
179.26 123.74 l
179.339 125.232 l
179.419 126.674 l
179.579 129.404 l
179.658 130.689 l
179.738 131.92 l
179.897 134.214 l
179.977 135.274 l
180.057 136.276 l
180.136 137.218 l
180.216 138.1 l
180.296 138.921 l
180.375 139.679 l
180.455 140.376 l
180.535 141.009 l
180.609 141.542 l
180.683 142.02 l
180.758 142.442 l
180.832 142.808 l
180.906 143.118 l
180.981 143.372 l
181.055 143.569 l
181.129 143.709 l
181.204 143.794 l
181.278 143.821 l
181.352 143.793 l
181.427 143.709 l
181.501 143.569 l
181.575 143.373 l
181.65 143.123 l
181.724 142.817 l
181.798 142.457 l
181.873 142.044 l
181.947 141.577 l
182.021 141.058 l
182.095 140.486 l
182.17 139.864 l
182.318 138.467 l
182.393 137.694 l
182.467 136.874 l
182.616 135.091 l
182.69 134.131 l
182.764 133.127 l
182.913 130.99 l
182.987 129.859 l
183.062 128.688 l
183.21 126.231 l
183.508 120.892 l
183.582 119.476 l
183.656 118.031 l
183.805 115.057 l
184.102 108.817 l
184.176 107.205 l
184.251 105.575 l
184.399 102.268 l
184.697 95.509 l
185.291 81.763 l
185.372 79.91 l
185.452 78.065 l
185.614 74.411 l
185.936 67.29 l
186.017 65.559 l
186.097 63.853 l
186.258 60.517 l
186.581 54.204 l
186.661 52.709 l
186.742 51.251 l
186.903 48.449 l
186.984 47.109 l
187.064 45.81 l
187.226 43.344 l
187.306 42.178 l
187.387 41.058 l
187.548 38.963 l
187.629 37.989 l
187.709 37.065 l
187.87 35.371 l
187.951 34.603 l
188.032 33.887 l
188.112 33.225 l
188.193 32.617 l
188.273 32.063 l
188.354 31.564 l
188.435 31.12 l
188.515 30.732 l
188.596 30.4 l
188.676 30.123 l
188.757 29.902 l
188.838 29.736 l
188.918 29.627 l
188.999 29.573 l
189.079 29.574 l
189.16 29.631 l
189.241 29.743 l
189.321 29.909 l
189.402 30.129 l
189.482 30.403 l
189.563 30.731 l
189.644 31.111 l
189.724 31.542 l
189.805 32.025 l
189.885 32.559 l
189.966 33.143 l
190.047 33.775 l
190.127 34.455 l
190.208 35.183 l
190.288 35.956 l
190.45 37.637 l
190.525 38.481 l
190.6 39.362 l
190.751 41.228 l
191.051 45.352 l
191.127 46.459 l
191.202 47.593 l
191.352 49.941 l
191.653 54.917 l
191.729 56.213 l
191.804 57.526 l
191.954 60.202 l
192.255 65.71 l
192.857 77.056 l
192.932 78.479 l
193.008 79.898 l
193.158 82.722 l
193.459 88.271 l
193.534 89.63 l
193.61 90.976 l
193.76 93.622 l
194.061 98.701 l
194.136 99.919 l
194.211 101.115 l
194.362 103.435 l
194.437 104.558 l
194.512 105.653 l
194.663 107.762 l
194.738 108.773 l
194.813 109.755 l
194.964 111.625 l
195.039 112.512 l
195.114 113.366 l
195.265 114.974 l
195.339 115.711 l
195.412 116.415 l
195.486 117.085 l
195.56 117.72 l
195.634 118.319 l
195.707 118.884 l
195.855 119.904 l
195.929 120.36 l
196.002 120.779 l
196.076 121.161 l
196.15 121.507 l
196.224 121.815 l
196.297 122.085 l
196.371 122.319 l
196.445 122.515 l
196.519 122.673 l
196.592 122.795 l
196.666 122.879 l
196.74 122.925 l
196.814 122.935 l
196.887 122.908 l
196.961 122.844 l
197.035 122.744 l
197.109 122.608 l
197.182 122.436 l
197.256 122.228 l
197.33 121.985 l
197.404 121.707 l
197.477 121.395 l
197.551 121.049 l
197.625 120.669 l
197.699 120.257 l
197.772 119.812 l
197.92 118.828 l
197.994 118.289 l
198.067 117.72 l
198.215 116.496 l
198.289 115.841 l
198.362 115.159 l
198.51 113.717 l
198.805 110.539 l
198.879 109.689 l
198.953 108.817 l
199.1 107.016 l
199.395 103.206 l
199.985 94.964 l
200.065 93.803 l
200.145 92.637 l
200.305 90.289 l
200.625 85.576 l
201.266 76.35 l
201.346 75.239 l
201.426 74.141 l
201.586 71.99 l
201.906 67.89 l
201.986 66.914 l
202.066 65.958 l
202.226 64.115 l
202.546 60.72 l
202.626 59.936 l
202.706 59.18 l
202.866 57.752 l
202.946 57.082 l
203.026 56.442 l
203.186 55.253 l
203.266 54.705 l
203.346 54.189 l
203.426 53.704 l
203.507 53.252 l
203.587 52.832 l
203.667 52.446 l
203.747 52.092 l
203.827 51.771 l
203.907 51.484 l
203.987 51.23 l
204.067 51.01 l
204.147 50.823 l
204.227 50.67 l
204.307 50.55 l
204.387 50.463 l
204.467 50.41 l
204.547 50.39 l
204.627 50.403 l
204.707 50.448 l
204.787 50.526 l
204.867 50.636 l
204.947 50.778 l
205.027 50.952 l
205.107 51.156 l
205.182 51.375 l
205.257 51.62 l
205.331 51.891 l
205.406 52.187 l
205.481 52.509 l
205.555 52.856 l
205.705 53.621 l
205.779 54.038 l
205.854 54.479 l
206.003 55.425 l
206.302 57.566 l
206.377 58.15 l
206.451 58.751 l
206.601 60.004 l
206.899 62.696 l
207.497 68.658 l
207.571 69.443 l
207.646 70.234 l
207.795 71.832 l
208.094 75.069 l
208.691 81.536 l
208.766 82.329 l
208.841 83.117 l
208.99 84.672 l
209.289 87.684 l
209.363 88.413 l
209.438 89.13 l
209.587 90.531 l
209.886 93.174 l
209.967 93.852 l
210.048 94.511 l
210.21 95.773 l
210.291 96.374 l
210.372 96.956 l
210.534 98.056 l
210.615 98.574 l
210.696 99.07 l
210.858 99.995 l
210.938 100.423 l
211.019 100.827 l
211.181 101.565 l
211.262 101.897 l
211.343 102.206 l
211.424 102.49 l
211.505 102.749 l
211.586 102.984 l
211.667 103.194 l
211.748 103.379 l
211.829 103.54 l
211.91 103.675 l
211.991 103.786 l
212.072 103.872 l
212.153 103.933 l
212.234 103.97 l
212.315 103.982 l
212.396 103.971 l
212.476 103.935 l
212.557 103.875 l
212.638 103.792 l
212.719 103.685 l
212.8 103.555 l
212.881 103.403 l
212.962 103.228 l
213.043 103.032 l
213.124 102.813 l
213.205 102.574 l
213.286 102.313 l
213.367 102.032 l
213.448 101.732 l
213.529 101.411 l
213.61 101.072 l
213.772 100.339 l
213.853 99.946 l
213.934 99.536 l
214.095 98.669 l
214.419 96.758 l
214.5 96.248 l
214.581 95.725 l
214.743 94.647 l
215.067 92.378 l
215.142 91.83 l
215.218 91.277 l
215.369 90.156 l
215.671 87.87 l
216.276 83.253 l
216.352 82.682 l
216.427 82.115 l
216.579 80.991 l
216.881 78.806 l
217.486 74.781 l
217.561 74.319 l
217.637 73.867 l
217.788 72.996 l
217.864 72.578 l
217.939 72.171 l
218.09 71.393 l
218.166 71.023 l
218.241 70.665 l
218.393 69.99 l
218.468 69.672 l
218.544 69.368 l
218.695 68.802 l
218.771 68.541 l
218.846 68.293 l
218.922 68.06 l
218.997 67.842 l
219.073 67.638 l
219.148 67.449 l
219.224 67.275 l
219.3 67.116 l
219.375 66.971 l
219.451 66.842 l
219.526 66.727 l
219.602 66.628 l
219.678 66.543 l
219.753 66.473 l
219.829 66.418 l
219.904 66.378 l
219.978 66.353 l
220.053 66.341 l
220.127 66.344 l
220.201 66.361 l
220.275 66.391 l
220.349 66.435 l
220.423 66.492 l
220.497 66.562 l
220.571 66.646 l
220.645 66.742 l
220.72 66.851 l
220.794 66.973 l
220.868 67.107 l
220.942 67.253 l
221.09 67.581 l
221.164 67.762 l
221.238 67.954 l
221.386 68.371 l
221.461 68.595 l
221.535 68.829 l
221.683 69.325 l
221.757 69.588 l
221.831 69.859 l
221.979 70.426 l
222.276 71.652 l
222.35 71.976 l
222.424 72.306 l
222.572 72.982 l
222.869 74.393 l
223.461 77.367 l
223.536 77.746 l
223.61 78.125 l
223.758 78.884 l
224.054 80.39 l
224.647 83.287 l
224.727 83.662 l
224.808 84.03 l
224.969 84.75 l
225.29 86.107 l
225.371 86.427 l
225.451 86.74 l
225.612 87.339 l
225.933 88.43 l
226.014 88.679 l
226.094 88.918 l
226.255 89.366 l
226.335 89.575 l
226.416 89.773 l
226.576 90.138 l
226.657 90.304 l
226.737 90.459 l
226.817 90.603 l
226.898 90.737 l
226.978 90.859 l
227.059 90.97 l
227.139 91.07 l
227.219 91.159 l
227.3 91.237 l
227.38 91.304 l
227.46 91.36 l
227.541 91.405 l
227.621 91.439 l
227.702 91.462 l
227.782 91.475 l
227.862 91.477 l
227.943 91.468 l
228.023 91.448 l
228.104 91.419 l
228.184 91.379 l
228.264 91.328 l
228.345 91.268 l
228.425 91.199 l
228.505 91.119 l
228.586 91.03 l
228.666 90.932 l
228.747 90.825 l
228.827 90.709 l
228.907 90.584 l
228.988 90.451 l
229.148 90.16 l
229.229 90.003 l
229.309 89.839 l
229.47 89.488 l
229.792 88.708 l
229.867 88.512 l
229.942 88.312 l
230.092 87.898 l
230.392 87.025 l
230.992 85.148 l
231.067 84.906 l
231.142 84.663 l
231.292 84.175 l
231.592 83.2 l
232.192 81.3 l
232.267 81.071 l
232.342 80.845 l
232.492 80.402 l
232.792 79.555 l
232.867 79.352 l
232.942 79.154 l
233.092 78.769 l
233.393 78.055 l
233.468 77.888 l
233.543 77.727 l
233.693 77.419 l
233.768 77.273 l
233.843 77.133 l
233.993 76.869 l
234.068 76.746 l
234.143 76.628 l
234.218 76.516 l
234.293 76.41 l
234.368 76.31 l
234.443 76.215 l
234.593 76.044 l
234.674 75.962 l
234.755 75.886 l
234.837 75.818 l
234.918 75.757 l
234.999 75.702 l
235.081 75.655 l
235.162 75.615 l
235.243 75.582 l
235.325 75.556 l
235.406 75.536 l
235.487 75.524 l
235.568 75.518 l
235.65 75.52 l
235.731 75.527 l
235.812 75.542 l
235.894 75.563 l
235.975 75.59 l
236.056 75.624 l
236.138 75.664 l
236.219 75.71 l
236.3 75.762 l
236.381 75.819 l
236.463 75.883 l
236.544 75.952 l
236.625 76.027 l
236.707 76.107 l
236.869 76.282 l
236.951 76.377 l
237.032 76.477 l
237.194 76.69 l
237.276 76.803 l
237.357 76.92 l
237.52 77.166 l
237.845 77.698 l
238.495 78.884 l
239.796 81.411 l
239.876 81.561 l
239.956 81.709 l
240.115 81.999 l
240.434 82.554 l
240.514 82.687 l
240.594 82.817 l
240.754 83.069 l
241.073 83.537 l
241.153 83.646 l
241.233 83.752 l
241.392 83.952 l
241.472 84.047 l
241.552 84.138 l
241.712 84.31 l
241.791 84.39 l
241.871 84.466 l
241.951 84.538 l
242.031 84.606 l
242.111 84.67 l
242.19 84.73 l
242.35 84.839 l
242.43 84.887 l
242.51 84.931 l
242.59 84.971 l
242.669 85.007 l
242.749 85.039 l
242.829 85.067 l
242.909 85.091 l
242.989 85.111 l
243.068 85.126 l
243.148 85.138 l
243.228 85.147 l
243.308 85.151 l
243.388 85.151 l
243.467 85.148 l
243.547 85.141 l
243.627 85.13 l
243.707 85.115 l
243.787 85.097 l
243.867 85.075 l
243.946 85.05 l
244.026 85.022 l
244.106 84.99 l
244.186 84.955 l
244.266 84.917 l
244.345 84.876 l
244.425 84.831 l
244.585 84.734 l
244.665 84.681 l
244.745 84.625 l
244.904 84.507 l
244.979 84.448 l
245.053 84.387 l
245.202 84.26 l
245.5 83.985 l
246.095 83.372 l
246.17 83.29 l
246.244 83.209 l
246.393 83.044 l
246.691 82.709 l
247.287 82.04 l
247.361 81.957 l
247.436 81.876 l
247.585 81.715 l
247.882 81.402 l
247.957 81.327 l
248.031 81.252 l
248.18 81.107 l
248.478 80.832 l
248.552 80.766 l
248.627 80.703 l
248.776 80.58 l
248.85 80.521 l
248.925 80.463 l
249.074 80.354 l
249.148 80.302 l
249.223 80.252 l
249.371 80.157 l
249.446 80.112 l
249.52 80.069 l
249.669 79.989 l
249.75 79.949 l
249.831 79.911 l
249.912 79.876 l
249.992 79.843 l
250.073 79.812 l
250.154 79.784 l
250.234 79.757 l
250.315 79.734 l
250.396 79.712 l
250.477 79.693 l
250.557 79.676 l
250.638 79.662 l
250.719 79.65 l
250.8 79.64 l
250.88 79.632 l
250.961 79.627 l
251.042 79.624 l
251.122 79.623 l
251.203 79.624 l
251.284 79.628 l
251.365 79.633 l
251.445 79.641 l
251.526 79.65 l
251.607 79.662 l
251.688 79.676 l
251.768 79.691 l
251.849 79.709 l
251.93 79.728 l
252.011 79.749 l
252.091 79.772 l
252.253 79.823 l
252.333 79.851 l
252.414 79.88 l
252.576 79.943 l
252.899 80.086 l
252.979 80.125 l
253.06 80.165 l
253.222 80.248 l
253.544 80.425 l
253.625 80.471 l
253.706 80.518 l
253.867 80.613 l
254.19 80.808 l
254.836 81.206 l
254.912 81.252 l
254.987 81.298 l
255.138 81.389 l
255.439 81.566 l
255.514 81.609 l
255.59 81.651 l
255.741 81.734 l
256.042 81.893 l
256.117 81.931 l
256.193 81.968 l
256.344 82.039 l
256.419 82.074 l
256.494 82.107 l
256.645 82.172 l
256.72 82.203 l
256.796 82.233 l
256.947 82.289 l
257.022 82.316 l
257.097 82.342 l
257.248 82.391 l
257.323 82.413 l
257.399 82.435 l
257.474 82.455 l
257.549 82.475 l
257.625 82.493 l
257.7 82.511 l
257.851 82.542 l
257.926 82.556 l
258.002 82.569 l
258.077 82.581 l
258.152 82.591 l
258.228 82.601 l
258.303 82.609 l
258.379 82.617 l
258.454 82.623 l
258.529 82.628 l
258.605 82.633 l
258.68 82.636 l
258.755 82.638 l
258.831 82.639 l
258.906 82.639 l
258.982 82.638 l
259.057 82.637 l
259.132 82.634 l
259.208 82.63 l
259.283 82.625 l
259.358 82.619 l
259.434 82.613 l
259.509 82.605 l
259.585 82.597 l
259.66 82.588 l
259.734 82.578 l
259.808 82.567 l
259.955 82.544 l
260.029 82.531 l
260.103 82.517 l
260.251 82.488 l
260.325 82.473 l
260.399 82.457 l
260.547 82.422 l
260.842 82.348 l
260.916 82.328 l
260.99 82.308 l
261.138 82.267 l
261.433 82.179 l
262.024 81.994 l
262.098 81.971 l
262.172 81.947 l
262.32 81.9 l
262.615 81.805 l
263.207 81.623 l
263.28 81.601 l
263.354 81.58 l
263.502 81.538 l
263.798 81.458 l
263.872 81.439 l
263.945 81.42 l
264.093 81.384 l
264.389 81.317 l
264.469 81.3 l
264.549 81.283 l
264.709 81.253 l
264.79 81.238 l
264.87 81.224 l
265.03 81.198 l
265.11 81.186 l
265.19 81.174 l
265.271 81.163 l
265.351 81.153 l
265.431 81.143 l
265.511 81.135 l
265.671 81.118 l
265.752 81.111 l
265.832 81.105 l
265.912 81.099 l
265.992 81.094 l
266.072 81.089 l
266.152 81.085 l
266.233 81.082 l
266.313 81.079 l
266.393 81.077 l
266.473 81.076 l
266.553 81.075 l
266.633 81.075 l
266.714 81.075 l
266.794 81.076 l
266.874 81.077 l
266.954 81.079 l
267.034 81.082 l
267.114 81.084 l
267.195 81.088 l
267.275 81.092 l
267.355 81.097 l
267.435 81.102 l
267.515 81.107 l
267.595 81.113 l
267.676 81.119 l
267.756 81.126 l
267.916 81.141 l
267.996 81.149 l
268.076 81.157 l
268.237 81.175 l
268.317 81.184 l
268.397 81.194 l
268.557 81.215 l
268.878 81.258 l
269.519 81.354 l
269.594 81.366 l
269.669 81.378 l
269.819 81.401 l
270.118 81.449 l
270.716 81.542 l
270.791 81.553 l
270.866 81.564 l
271.015 81.586 l
271.315 81.628 l
271.39 81.638 l
271.464 81.648 l
271.614 81.667 l
271.913 81.703 l
271.988 81.712 l
272.063 81.72 l
272.212 81.735 l
272.287 81.743 l
272.362 81.75 l
272.512 81.764 l
272.586 81.77 l
272.661 81.777 l
272.811 81.788 l
272.886 81.794 l
272.96 81.799 l
273.11 81.808 l
273.185 81.813 l
273.26 81.817 l
273.334 81.821 l
273.409 81.824 l
273.484 81.827 l
273.559 81.83 l
273.634 81.833 l
273.708 81.836 l
273.783 81.838 l
273.858 81.84 l
273.933 81.842 l
274.008 81.843 l
274.082 81.844 l
274.157 81.845 l
274.232 81.846 l
274.307 81.846 l
274.39 81.846 l
274.474 81.846 l
274.557 81.846 l
274.641 81.845 l
274.724 81.844 l
274.808 81.843 l
274.891 81.841 l
274.975 81.839 l
275.058 81.837 l
275.142 81.835 l
275.225 81.833 l
275.309 81.83 l
275.392 81.827 l
275.476 81.823 l
275.643 81.816 l
275.726 81.812 l
275.81 81.808 l
275.977 81.8 l
276.311 81.78 l
276.395 81.775 l
276.478 81.77 l
276.645 81.759 l
276.979 81.735 l
277.063 81.73 l
277.146 81.723 l
277.313 81.711 l
277.647 81.686 l
278.315 81.637 l
278.399 81.631 l
278.482 81.625 l
278.649 81.614 l
278.983 81.591 l
279.067 81.586 l
279.15 81.581 l
279.317 81.571 l
279.401 81.566 l
279.484 81.561 l
279.568 81.556 l
279.651 81.552 l
S
Q
/DeviceGray {} CS
[0] SC
/DeviceGray {} cs
[0] sc
0.16 w
[] 0 d
3.25 M
q
0 J
31.28 81.597 m
284.72 81.597 l
S
Q
q
0 J
158 159.915 m
158 3.28 l
S
Q
q
31.2 2.995 m
31.2 159.995 l
285.2 159.995 l
285.2 2.995 l
W*
Q
Q
Q
1 w
/DeviceRGB {} CS
[0 0 0] SC
/DeviceRGB {} cs
[0 0 0] sc
[] 0 d
2 J
0 j
10 M
Q
showpage
%%PageTrailer
pdfEndPage
%%Trailer
end
%%DocumentSuppliedResources:
%%EOF
