%!PS-Adobe-3.0 EPSF-3.0
%%Creator: Mathematica
%%LanguageLevel: 2
%%DocumentSuppliedResources: (atend)
%%BoundingBox: 0 0 240 240
%%DocumentSuppliedResources: (atend)
%%EndComments
%%BeginProlog
%%BeginResource: procset xpdf 3.00 0
%%Copyright: Copyright 1996-2004 Glyph & Cog, LLC
/xpdf 75 dict def xpdf begin
% PDF special state
/pdfDictSize 15 def
/pdfSetup {
  3 1 roll 2 array astore
  /setpagedevice where {
    pop 3 dict begin
      /PageSize exch def
      /ImagingBBox null def
      { /Duplex true def } if
    currentdict end setpagedevice
  } {
    pop pop
  } ifelse
} def
/pdfStartPage {
  pdfDictSize dict begin
  /pdfFillCS [] def
  /pdfFillXform {} def
  /pdfStrokeCS [] def
  /pdfStrokeXform {} def
  /pdfFill [0] def
  /pdfStroke [0] def
  /pdfFillOP false def
  /pdfStrokeOP false def
  /pdfLastFill false def
  /pdfLastStroke false def
  /pdfTextMat [1 0 0 1 0 0] def
  /pdfFontSize 0 def
  /pdfCharSpacing 0 def
  /pdfTextRender 0 def
  /pdfTextRise 0 def
  /pdfWordSpacing 0 def
  /pdfHorizScaling 1 def
  /pdfTextClipPath [] def
} def
/pdfEndPage { end } def
% PDF color state
/cs { /pdfFillXform exch def dup /pdfFillCS exch def
      setcolorspace } def
/CS { /pdfStrokeXform exch def dup /pdfStrokeCS exch def
      setcolorspace } def
/sc { pdfLastFill not { pdfFillCS setcolorspace } if
      dup /pdfFill exch def aload pop pdfFillXform setcolor
     /pdfLastFill true def /pdfLastStroke false def } def
/SC { pdfLastStroke not { pdfStrokeCS setcolorspace } if
      dup /pdfStroke exch def aload pop pdfStrokeXform setcolor
     /pdfLastStroke true def /pdfLastFill false def } def
/op { /pdfFillOP exch def
      pdfLastFill { pdfFillOP setoverprint } if } def
/OP { /pdfStrokeOP exch def
      pdfLastStroke { pdfStrokeOP setoverprint } if } def
/fCol {
  pdfLastFill not {
    pdfFillCS setcolorspace
    pdfFill aload pop pdfFillXform setcolor
    pdfFillOP setoverprint
    /pdfLastFill true def /pdfLastStroke false def
  } if
} def
/sCol {
  pdfLastStroke not {
    pdfStrokeCS setcolorspace
    pdfStroke aload pop pdfStrokeXform setcolor
    pdfStrokeOP setoverprint
    /pdfLastStroke true def /pdfLastFill false def
  } if
} def
% build a font
/pdfMakeFont {
  4 3 roll findfont
  4 2 roll matrix scale makefont
  dup length dict begin
    { 1 index /FID ne { def } { pop pop } ifelse } forall
    /Encoding exch def
    currentdict
  end
  definefont pop
} def
/pdfMakeFont16 {
  exch findfont
  dup length dict begin
    { 1 index /FID ne { def } { pop pop } ifelse } forall
    /WMode exch def
    currentdict
  end
  definefont pop
} def
% graphics state operators
/q { gsave pdfDictSize dict begin } def
/Q {
  end grestore
  /pdfLastFill where {
    pop
    pdfLastFill {
      pdfFillOP setoverprint
    } {
      pdfStrokeOP setoverprint
    } ifelse
  } if
} def
/cm { concat } def
/d { setdash } def
/i { setflat } def
/j { setlinejoin } def
/J { setlinecap } def
/M { setmiterlimit } def
/w { setlinewidth } def
% path segment operators
/m { moveto } def
/l { lineto } def
/c { curveto } def
/re { 4 2 roll moveto 1 index 0 rlineto 0 exch rlineto
      neg 0 rlineto closepath } def
/h { closepath } def
% path painting operators
/S { sCol stroke } def
/Sf { fCol stroke } def
/f { fCol fill } def
/f* { fCol eofill } def
% clipping operators
/W { clip newpath } def
/W* { eoclip newpath } def
/Ws { strokepath clip newpath } def
% text state operators
/Tc { /pdfCharSpacing exch def } def
/Tf { dup /pdfFontSize exch def
      dup pdfHorizScaling mul exch matrix scale
      pdfTextMat matrix concatmatrix dup 4 0 put dup 5 0 put
      exch findfont exch makefont setfont } def
/Tr { /pdfTextRender exch def } def
/Ts { /pdfTextRise exch def } def
/Tw { /pdfWordSpacing exch def } def
/Tz { /pdfHorizScaling exch def } def
% text positioning operators
/Td { pdfTextMat transform moveto } def
/Tm { /pdfTextMat exch def } def
% text string operators
/cshow where {
  pop
  /cshow2 {
    dup {
      pop pop
      1 string dup 0 3 index put 3 index exec
    } exch cshow
    pop pop
  } def
}{
  /cshow2 {
    currentfont /FontType get 0 eq {
      0 2 2 index length 1 sub {
        2 copy get exch 1 add 2 index exch get
        2 copy exch 256 mul add
        2 string dup 0 6 5 roll put dup 1 5 4 roll put
        3 index exec
      } for
    } {
      dup {
        1 string dup 0 3 index put 3 index exec
      } forall
    } ifelse
    pop pop
  } def
} ifelse
/awcp {
  exch {
    false charpath
    5 index 5 index rmoveto
    6 index eq { 7 index 7 index rmoveto } if
  } exch cshow2
  6 {pop} repeat
} def
/Tj {
  fCol
  1 index stringwidth pdfTextMat idtransform pop
  sub 1 index length dup 0 ne { div } { pop pop 0 } ifelse
  pdfWordSpacing pdfHorizScaling mul 0 pdfTextMat dtransform 32
  4 3 roll pdfCharSpacing pdfHorizScaling mul add 0
  pdfTextMat dtransform
  6 5 roll Tj1
} def
/Tj16 {
  fCol
  2 index stringwidth pdfTextMat idtransform pop
  sub exch div
  pdfWordSpacing pdfHorizScaling mul 0 pdfTextMat dtransform 32
  4 3 roll pdfCharSpacing pdfHorizScaling mul add 0
  pdfTextMat dtransform
  6 5 roll Tj1
} def
/Tj16V {
  fCol
  2 index stringwidth pdfTextMat idtransform exch pop
  sub exch div
  0 pdfWordSpacing pdfTextMat dtransform 32
  4 3 roll pdfCharSpacing add 0 exch
  pdfTextMat dtransform
  6 5 roll Tj1
} def
/Tj1 {
  0 pdfTextRise pdfTextMat dtransform rmoveto
  currentpoint 8 2 roll
  pdfTextRender 1 and 0 eq {
    6 copy awidthshow
  } if
  pdfTextRender 3 and dup 1 eq exch 2 eq or {
    7 index 7 index moveto
    6 copy
    currentfont /FontType get 3 eq { fCol } { sCol } ifelse
    false awcp currentpoint stroke moveto
  } if
  pdfTextRender 4 and 0 ne {
    8 6 roll moveto
    false awcp
    /pdfTextClipPath [ pdfTextClipPath aload pop
      {/moveto cvx}
      {/lineto cvx}
      {/curveto cvx}
      {/closepath cvx}
    pathforall ] def
    currentpoint newpath moveto
  } {
    8 {pop} repeat
  } ifelse
  0 pdfTextRise neg pdfTextMat dtransform rmoveto
} def
/TJm { pdfFontSize 0.001 mul mul neg 0
       pdfTextMat dtransform rmoveto } def
/TJmV { pdfFontSize 0.001 mul mul neg 0 exch
        pdfTextMat dtransform rmoveto } def
/Tclip { pdfTextClipPath cvx exec clip newpath
         /pdfTextClipPath [] def } def
/Tclip* { pdfTextClipPath cvx exec eoclip newpath
         /pdfTextClipPath [] def } def
% Level 2 image operators
/pdfImBuf 100 string def
/pdfIm {
  image
  { currentfile pdfImBuf readline
    not { pop exit } if
    (%-EOD-) eq { exit } if } loop
} def
/pdfImM {
  fCol imagemask
  { currentfile pdfImBuf readline
    not { pop exit } if
    (%-EOD-) eq { exit } if } loop
} def
/pr { 2 index 2 index 3 2 roll putinterval 4 add } def
/pdfImClip {
  gsave
  0 2 4 index length 1 sub {
    dup 4 index exch 2 copy
    get 5 index div put
    1 add 3 index exch 2 copy
    get 3 index div put
  } for
  pop pop rectclip
} def
/pdfImClipEnd { grestore } def
% shading operators
/colordelta {
  false 0 1 3 index length 1 sub {
    dup 4 index exch get 3 index 3 2 roll get sub abs 0.004 gt {
      pop true
    } if
  } for
  exch pop exch pop
} def
/funcCol { func n array astore } def
/funcSH {
  dup 0 eq {
    true
  } {
    dup 6 eq {
      false
    } {
      4 index 4 index funcCol dup
      6 index 4 index funcCol dup
      3 1 roll colordelta 3 1 roll
      5 index 5 index funcCol dup
      3 1 roll colordelta 3 1 roll
      6 index 8 index funcCol dup
      3 1 roll colordelta 3 1 roll
      colordelta or or or
    } ifelse
  } ifelse
  {
    1 add
    4 index 3 index add 0.5 mul exch 4 index 3 index add 0.5 mul exch
    6 index 6 index 4 index 4 index 4 index funcSH
    2 index 6 index 6 index 4 index 4 index funcSH
    6 index 2 index 4 index 6 index 4 index funcSH
    5 3 roll 3 2 roll funcSH pop pop
  } {
    pop 3 index 2 index add 0.5 mul 3 index  2 index add 0.5 mul
    funcCol sc
    dup 4 index exch mat transform m
    3 index 3 index mat transform l
    1 index 3 index mat transform l
    mat transform l pop pop h f*
  } ifelse
} def
/axialCol {
  dup 0 lt {
    pop t0
  } {
    dup 1 gt {
      pop t1
    } {
      dt mul t0 add
    } ifelse
  } ifelse
  func n array astore
} def
/axialSH {
  dup 0 eq {
    true
  } {
    dup 8 eq {
      false
    } {
      2 index axialCol 2 index axialCol colordelta
    } ifelse
  } ifelse
  {
    1 add 3 1 roll 2 copy add 0.5 mul
    dup 4 3 roll exch 4 index axialSH
    exch 3 2 roll axialSH
  } {
    pop 2 copy add 0.5 mul
    axialCol sc
    exch dup dx mul x0 add exch dy mul y0 add
    3 2 roll dup dx mul x0 add exch dy mul y0 add
    dx abs dy abs ge {
      2 copy yMin sub dy mul dx div add yMin m
      yMax sub dy mul dx div add yMax l
      2 copy yMax sub dy mul dx div add yMax l
      yMin sub dy mul dx div add yMin l
      h f*
    } {
      exch 2 copy xMin sub dx mul dy div add xMin exch m
      xMax sub dx mul dy div add xMax exch l
      exch 2 copy xMax sub dx mul dy div add xMax exch l
      xMin sub dx mul dy div add xMin exch l
      h f*
    } ifelse
  } ifelse
} def
/radialCol {
  dup t0 lt {
    pop t0
  } {
    dup t1 gt {
      pop t1
    } if
  } ifelse
  func n array astore
} def
/radialSH {
  dup 0 eq {
    true
  } {
    dup 8 eq {
      false
    } {
      2 index dt mul t0 add radialCol
      2 index dt mul t0 add radialCol colordelta
    } ifelse
  } ifelse
  {
    1 add 3 1 roll 2 copy add 0.5 mul
    dup 4 3 roll exch 4 index radialSH
    exch 3 2 roll radialSH
  } {
    pop 2 copy add 0.5 mul dt mul t0 add
    radialCol sc
    encl {
      exch dup dx mul x0 add exch dup dy mul y0 add exch dr mul r0 add
      0 360 arc h
      dup dx mul x0 add exch dup dy mul y0 add exch dr mul r0 add
      360 0 arcn h f
    } {
      2 copy
      dup dx mul x0 add exch dup dy mul y0 add exch dr mul r0 add
      a1 a2 arcn
      dup dx mul x0 add exch dup dy mul y0 add exch dr mul r0 add
      a2 a1 arcn h
      dup dx mul x0 add exch dup dy mul y0 add exch dr mul r0 add
      a1 a2 arc
      dup dx mul x0 add exch dup dy mul y0 add exch dr mul r0 add
      a2 a1 arc h f
    } ifelse
  } ifelse
} def
end
%%EndResource
%%EndProlog
%%BeginSetup
xpdf begin
%%EndSetup
pdfStartPage
[] 0 d
1 i
0 j
0 J
10 M
1 w
/DeviceGray {} cs
[0] sc
/DeviceGray {} CS
[0] SC
false op
false OP
{} settransfer
q
[1 0 0 -1 0 240] cm
[1 0 0 1 -31.2 -3.2] cm
[1 0 0 1 0 0] cm
1 w
/DeviceRGB {} CS
[0 0 0] SC
/DeviceRGB {} cs
[0 0 0] sc
[] 0 d
2 J
0 j
10 M
31.2 3.2 m
31.2 243.2 l
271.2 243.2 l
271.2 3.2 l
W*
q
29.2 1.2 m
29.2 245.2 l
273.2 245.2 l
273.2 1.2 l
W*
q
31.2 2.2 m
31.2 243.2 l
271.2 243.2 l
271.2 2.2 l
W*
3.239 M
q
31.2 3.2 m
31.2 243.2 l
271.2 243.2 l
271.2 3.2 l
W*
Q
q
31.2 3.2 m
31.2 243.2 l
271.2 243.2 l
271.2 3.2 l
W*
Q
q
31.2 3.2 m
31.2 243.2 l
271.2 243.2 l
271.2 3.2 l
W*
/DeviceGray {} CS
[0] SC
/DeviceGray {} cs
[0] sc
0.4 w
[] 0 d
3.25 M
151.2 123.2 m
151.202 123.2 l
151.209 123.2 l
151.221 123.2 l
151.237 123.2 l
151.257 123.199 l
151.283 123.199 l
151.313 123.198 l
151.347 123.198 l
151.386 123.197 l
151.43 123.195 l
151.478 123.194 l
151.531 123.192 l
151.588 123.19 l
151.65 123.188 l
151.788 123.182 l
151.863 123.178 l
151.943 123.174 l
152.117 123.165 l
152.211 123.159 l
152.309 123.153 l
152.519 123.139 l
152.631 123.131 l
152.747 123.122 l
152.993 123.103 l
153.538 123.056 l
153.686 123.042 l
153.837 123.027 l
154.154 122.995 l
154.839 122.919 l
155.022 122.897 l
155.208 122.875 l
155.594 122.826 l
156.416 122.716 l
156.632 122.686 l
156.852 122.654 l
157.304 122.586 l
158.259 122.435 l
160.36 122.064 l
160.663 122.007 l
160.972 121.947 l
161.602 121.822 l
162.915 121.549 l
165.744 120.901 l
166.116 120.81 l
166.492 120.717 l
167.256 120.524 l
168.83 120.111 l
172.154 119.166 l
172.585 119.037 l
173.02 118.905 l
173.899 118.633 l
175.695 118.058 l
179.433 116.779 l
187.404 113.684 l
187.886 113.48 l
188.37 113.275 l
189.344 112.855 l
191.308 111.986 l
195.301 110.124 l
195.805 109.88 l
196.31 109.633 l
197.324 109.132 l
199.361 108.098 l
203.467 105.911 l
203.983 105.626 l
204.499 105.338 l
205.531 104.756 l
207.598 103.562 l
211.732 101.058 l
219.924 95.601 l
220.42 95.248 l
220.914 94.893 l
221.901 94.177 l
223.861 92.721 l
227.72 89.716 l
228.196 89.332 l
228.671 88.947 l
229.615 88.17 l
231.483 86.596 l
235.13 83.371 l
235.577 82.961 l
236.022 82.55 l
236.905 81.723 l
238.645 80.052 l
242.009 76.651 l
248.225 69.655 l
248.62 69.173 l
249.011 68.691 l
249.781 67.724 l
251.277 65.784 l
254.083 61.883 l
254.415 61.394 l
254.744 60.905 l
255.388 59.927 l
256.626 57.972 l
258.895 54.071 l
259.159 53.585 l
259.418 53.099 l
259.922 52.13 l
260.877 50.2 l
261.104 49.72 l
261.326 49.24 l
261.757 48.283 l
262.562 46.382 l
262.751 45.909 l
262.936 45.438 l
263.291 44.499 l
263.461 44.031 l
263.626 43.565 l
263.942 42.636 l
264.093 42.174 l
264.239 41.713 l
264.516 40.797 l
265.012 38.984 l
265.116 38.565 l
265.216 38.148 l
265.403 37.318 l
265.49 36.906 l
265.573 36.495 l
265.725 35.679 l
265.795 35.274 l
265.861 34.87 l
265.922 34.469 l
265.978 34.069 l
266.031 33.671 l
266.079 33.276 l
266.123 32.882 l
266.162 32.49 l
266.198 32.101 l
266.228 31.713 l
266.255 31.328 l
266.277 30.945 l
266.295 30.564 l
266.308 30.185 l
266.318 29.809 l
266.322 29.435 l
266.323 29.063 l
266.319 28.694 l
266.311 28.327 l
266.299 27.962 l
266.282 27.6 l
266.261 27.24 l
266.236 26.883 l
266.206 26.529 l
266.172 26.177 l
266.134 25.827 l
266.092 25.48 l
266.045 25.136 l
265.994 24.795 l
265.939 24.456 l
265.816 23.787 l
265.748 23.456 l
265.676 23.129 l
265.519 22.482 l
265.435 22.163 l
265.346 21.847 l
265.156 21.224 l
265.055 20.917 l
264.949 20.613 l
264.726 20.014 l
264.608 19.72 l
264.487 19.428 l
264.231 18.855 l
264.097 18.573 l
263.959 18.294 l
263.671 17.747 l
263.047 16.692 l
262.867 16.416 l
262.683 16.143 l
262.3 15.611 l
262.102 15.351 l
261.9 15.095 l
261.481 14.596 l
261.265 14.353 l
261.045 14.114 l
260.591 13.649 l
259.632 12.771 l
259.382 12.563 l
259.127 12.359 l
258.605 11.964 l
258.338 11.774 l
258.067 11.588 l
257.513 11.23 l
257.23 11.058 l
256.942 10.891 l
256.356 10.57 l
256.057 10.417 l
255.755 10.268 l
255.138 9.985 l
254.824 9.851 l
254.506 9.721 l
253.859 9.477 l
253.531 9.361 l
253.198 9.251 l
252.523 9.045 l
252.18 8.95 l
251.834 8.859 l
251.484 8.773 l
251.131 8.692 l
250.774 8.616 l
250.415 8.545 l
250.052 8.479 l
249.685 8.418 l
249.316 8.362 l
248.943 8.311 l
248.567 8.265 l
248.189 8.224 l
247.807 8.188 l
247.422 8.157 l
247.034 8.131 l
246.643 8.11 l
246.249 8.094 l
245.853 8.083 l
245.453 8.078 l
245.051 8.077 l
244.646 8.081 l
244.238 8.091 l
243.828 8.105 l
243.415 8.125 l
243.007 8.149 l
242.597 8.178 l
242.184 8.212 l
241.769 8.251 l
241.351 8.295 l
240.931 8.344 l
240.509 8.397 l
240.085 8.456 l
239.659 8.519 l
239.23 8.587 l
238.366 8.739 l
237.931 8.822 l
237.495 8.91 l
236.615 9.1 l
236.172 9.203 l
235.728 9.31 l
234.834 9.539 l
234.384 9.661 l
233.933 9.788 l
233.025 10.056 l
232.569 10.198 l
232.111 10.344 l
231.191 10.65 l
229.335 11.321 l
228.868 11.5 l
228.4 11.684 l
227.46 12.067 l
225.567 12.888 l
225.091 13.105 l
224.615 13.326 l
223.659 13.783 l
221.74 14.751 l
221.258 15.004 l
220.777 15.262 l
219.811 15.791 l
217.875 16.9 l
213.993 19.326 l
213.54 19.626 l
213.087 19.929 l
212.182 20.547 l
210.374 21.825 l
206.772 24.542 l
206.324 24.897 l
205.877 25.254 l
204.983 25.979 l
203.204 27.465 l
199.684 30.578 l
199.248 30.98 l
198.814 31.384 l
197.947 32.201 l
196.227 33.867 l
192.845 37.317 l
186.358 44.63 l
185.934 45.143 l
185.511 45.658 l
184.673 46.693 l
183.021 48.785 l
179.827 53.042 l
179.439 53.58 l
179.052 54.12 l
178.287 55.202 l
176.787 57.377 l
173.91 61.764 l
173.563 62.315 l
173.218 62.866 l
172.536 63.969 l
171.205 66.178 l
168.677 70.592 l
164.172 79.315 l
163.932 79.816 l
163.695 80.316 l
163.228 81.313 l
162.324 83.292 l
160.639 87.18 l
160.439 87.659 l
160.243 88.136 l
159.857 89.085 l
159.114 90.96 l
157.749 94.61 l
157.589 95.056 l
157.431 95.5 l
157.124 96.38 l
156.537 98.111 l
155.475 101.446 l
155.352 101.85 l
155.232 102.252 l
154.998 103.045 l
154.556 104.596 l
153.773 107.546 l
153.686 107.893 l
153.601 108.236 l
153.437 108.913 l
153.13 110.227 l
153.057 110.547 l
152.987 110.863 l
152.851 111.485 l
152.6 112.686 l
152.542 112.978 l
152.485 113.265 l
152.375 113.829 l
152.175 114.911 l
151.845 116.891 l
151.81 117.12 l
151.776 117.346 l
151.712 117.785 l
151.598 118.614 l
151.573 118.811 l
151.548 119.004 l
151.503 119.377 l
151.424 120.073 l
151.406 120.236 l
151.39 120.395 l
151.359 120.701 l
151.346 120.847 l
151.333 120.989 l
151.309 121.259 l
151.298 121.388 l
151.288 121.513 l
151.27 121.749 l
151.262 121.86 l
151.255 121.967 l
151.242 122.168 l
151.236 122.269 l
151.231 122.366 l
151.226 122.457 l
151.221 122.543 l
151.217 122.623 l
151.214 122.699 l
151.209 122.834 l
151.207 122.893 l
151.205 122.948 l
151.204 122.997 l
151.202 123.04 l
151.202 123.079 l
151.201 123.112 l
151.2 123.14 l
151.2 123.162 l
151.2 123.18 l
151.2 123.192 l
151.2 123.198 l
151.2 123.2 l
151.2 123.196 l
151.2 123.187 l
151.2 123.172 l
151.199 123.152 l
151.199 123.127 l
151.199 123.097 l
151.198 123.061 l
151.197 123.02 l
151.196 122.974 l
151.194 122.922 l
151.192 122.865 l
151.19 122.803 l
151.187 122.736 l
151.184 122.663 l
151.181 122.586 l
151.176 122.502 l
151.172 122.414 l
151.167 122.32 l
151.155 122.118 l
151.147 122.008 l
151.14 121.894 l
151.122 121.65 l
151.077 121.099 l
151.064 120.949 l
151.049 120.794 l
151.017 120.467 l
150.941 119.755 l
150.919 119.564 l
150.896 119.368 l
150.846 118.962 l
150.731 118.091 l
150.701 117.877 l
150.67 117.659 l
150.603 117.209 l
150.455 116.261 l
150.414 116.014 l
150.372 115.763 l
150.284 115.248 l
150.089 114.172 l
150.037 113.893 l
149.983 113.611 l
149.869 113.034 l
149.623 111.835 l
149.046 109.262 l
148.966 108.925 l
148.884 108.584 l
148.713 107.891 l
148.349 106.467 l
147.523 103.464 l
147.41 103.074 l
147.295 102.682 l
147.059 101.889 l
146.56 100.269 l
145.454 96.898 l
145.293 96.429 l
145.129 95.956 l
144.793 95.004 l
144.086 93.066 l
142.538 89.072 l
142.332 88.563 l
142.122 88.051 l
141.695 87.022 l
140.805 84.941 l
138.884 80.696 l
138.63 80.159 l
138.374 79.62 l
137.853 78.539 l
136.774 76.364 l
134.477 71.971 l
129.332 63.108 l
128.994 62.564 l
128.652 62.021 l
127.961 60.936 l
126.548 58.771 l
123.602 54.478 l
123.223 53.945 l
122.841 53.414 l
122.071 52.355 l
120.503 50.251 l
117.262 46.116 l
116.847 45.607 l
116.43 45.1 l
115.591 44.09 l
113.889 42.096 l
110.397 38.214 l
103.116 30.947 l
102.681 30.546 l
102.245 30.148 l
101.371 29.361 l
99.613 27.821 l
96.06 24.884 l
95.613 24.531 l
95.166 24.181 l
94.269 23.491 l
92.472 22.149 l
88.865 19.629 l
88.413 19.33 l
87.962 19.034 l
87.058 18.453 l
85.253 17.335 l
84.802 17.065 l
84.351 16.798 l
83.451 16.276 l
81.653 15.278 l
81.205 15.038 l
80.757 14.802 l
79.863 14.341 l
78.081 13.466 l
74.554 11.908 l
74.08 11.717 l
73.608 11.53 l
72.666 11.171 l
70.799 10.512 l
70.335 10.359 l
69.873 10.211 l
68.954 9.93 l
67.136 9.427 l
66.686 9.314 l
66.237 9.205 l
65.346 9.003 l
64.904 8.909 l
64.463 8.821 l
63.588 8.658 l
63.153 8.585 l
62.721 8.516 l
62.291 8.452 l
61.863 8.394 l
61.437 8.34 l
61.014 8.291 l
60.593 8.247 l
60.174 8.209 l
59.758 8.175 l
59.344 8.146 l
58.933 8.122 l
58.525 8.103 l
58.119 8.09 l
57.715 8.081 l
57.314 8.077 l
56.916 8.078 l
56.521 8.084 l
56.128 8.095 l
55.738 8.111 l
55.351 8.132 l
54.967 8.158 l
54.586 8.189 l
54.208 8.224 l
53.833 8.265 l
53.461 8.311 l
53.092 8.361 l
52.726 8.416 l
52.363 8.477 l
52.003 8.542 l
51.646 8.612 l
50.943 8.767 l
50.597 8.851 l
50.253 8.941 l
49.577 9.134 l
49.244 9.238 l
48.914 9.346 l
48.265 9.578 l
47.968 9.692 l
47.673 9.811 l
47.093 10.06 l
46.808 10.191 l
46.526 10.326 l
45.972 10.608 l
45.7 10.755 l
45.432 10.906 l
44.904 11.219 l
43.891 11.894 l
43.647 12.073 l
43.406 12.255 l
42.934 12.631 l
42.704 12.825 l
42.477 13.023 l
42.035 13.429 l
41.819 13.638 l
41.607 13.851 l
41.194 14.287 l
40.413 15.203 l
40.228 15.441 l
40.046 15.683 l
39.694 16.177 l
39.524 16.429 l
39.358 16.684 l
39.037 17.206 l
38.883 17.471 l
38.733 17.74 l
38.444 18.289 l
37.915 19.425 l
37.793 19.717 l
37.675 20.012 l
37.451 20.611 l
37.346 20.916 l
37.244 21.223 l
37.054 21.848 l
36.965 22.164 l
36.88 22.484 l
36.799 22.806 l
36.723 23.131 l
36.651 23.46 l
36.583 23.791 l
36.46 24.461 l
36.4 24.829 l
36.346 25.2 l
36.296 25.574 l
36.251 25.952 l
36.212 26.332 l
36.177 26.716 l
36.148 27.102 l
36.124 27.492 l
36.104 27.884 l
36.09 28.279 l
36.081 28.678 l
36.077 29.079 l
36.078 29.482 l
36.084 29.889 l
36.095 30.298 l
36.111 30.71 l
36.133 31.125 l
36.159 31.542 l
36.191 31.961 l
36.227 32.383 l
36.269 32.808 l
36.316 33.235 l
36.368 33.664 l
36.425 34.096 l
36.487 34.53 l
36.554 34.966 l
36.704 35.846 l
36.787 36.288 l
36.875 36.733 l
37.065 37.629 l
37.168 38.08 l
37.276 38.533 l
37.507 39.444 l
37.63 39.903 l
37.758 40.363 l
38.03 41.288 l
38.173 41.753 l
38.321 42.22 l
38.633 43.158 l
39.316 45.051 l
39.499 45.528 l
39.687 46.005 l
40.077 46.965 l
40.917 48.896 l
42.825 52.802 l
43.08 53.284 l
43.34 53.767 l
43.872 54.735 l
44.989 56.674 l
47.429 60.563 l
47.753 61.049 l
48.08 61.536 l
48.748 62.508 l
50.132 64.449 l
53.085 68.312 l
53.471 68.792 l
53.86 69.272 l
54.65 70.228 l
56.271 72.133 l
59.672 75.894 l
67.047 83.168 l
67.498 83.58 l
67.951 83.99 l
68.864 84.807 l
70.711 86.42 l
74.493 89.566 l
74.973 89.951 l
75.454 90.335 l
76.422 91.096 l
78.373 92.596 l
82.333 95.5 l
82.833 95.853 l
83.333 96.205 l
84.337 96.902 l
86.353 98.27 l
90.413 100.899 l
98.569 105.71 l
99.12 106.014 l
99.671 106.315 l
100.772 106.908 l
102.964 108.06 l
107.307 110.224 l
107.845 110.481 l
108.381 110.736 l
109.451 111.236 l
111.571 112.201 l
115.732 113.99 l
116.243 114.201 l
116.753 114.409 l
117.765 114.816 l
119.763 115.595 l
123.641 117.018 l
124.113 117.184 l
124.583 117.346 l
125.515 117.663 l
127.341 118.265 l
130.843 119.343 l
131.237 119.458 l
131.629 119.57 l
132.403 119.79 l
133.913 120.203 l
136.774 120.93 l
137.116 121.012 l
137.455 121.092 l
138.122 121.246 l
139.411 121.533 l
141.811 122.021 l
142.093 122.075 l
142.372 122.126 l
142.917 122.225 l
143.96 122.405 l
144.21 122.447 l
144.456 122.486 l
144.936 122.562 l
145.846 122.697 l
146.063 122.727 l
146.276 122.756 l
146.688 122.811 l
147.46 122.907 l
147.643 122.928 l
147.82 122.949 l
148.163 122.986 l
148.794 123.049 l
148.938 123.063 l
149.077 123.075 l
149.343 123.098 l
149.469 123.108 l
149.591 123.118 l
149.822 123.135 l
149.93 123.142 l
150.035 123.149 l
150.23 123.161 l
150.321 123.167 l
150.408 123.172 l
150.567 123.18 l
150.64 123.183 l
150.709 123.186 l
150.773 123.189 l
150.833 123.191 l
150.888 123.193 l
150.939 123.195 l
150.985 123.196 l
151.027 123.197 l
151.064 123.198 l
151.097 123.199 l
151.125 123.199 l
151.149 123.199 l
151.168 123.2 l
151.183 123.2 l
151.193 123.2 l
151.199 123.2 l
151.2 123.2 l
151.196 123.2 l
151.188 123.2 l
151.176 123.2 l
151.159 123.2 l
151.138 123.201 l
151.112 123.201 l
151.081 123.202 l
151.046 123.202 l
151.007 123.203 l
150.962 123.205 l
150.914 123.206 l
150.861 123.208 l
150.803 123.21 l
150.675 123.215 l
150.604 123.218 l
150.529 123.222 l
150.364 123.231 l
150.275 123.236 l
150.182 123.241 l
149.982 123.254 l
149.876 123.261 l
149.765 123.269 l
149.53 123.287 l
149.007 123.331 l
148.853 123.345 l
148.694 123.36 l
148.361 123.393 l
147.635 123.472 l
147.441 123.495 l
147.242 123.519 l
146.829 123.571 l
145.944 123.689 l
145.71 123.723 l
145.472 123.757 l
144.982 123.831 l
143.944 123.997 l
141.648 124.41 l
141.341 124.47 l
141.03 124.531 l
140.393 124.66 l
139.07 124.941 l
136.224 125.604 l
135.85 125.697 l
135.473 125.792 l
134.706 125.988 l
133.128 126.409 l
129.801 127.367 l
129.399 127.489 l
128.994 127.614 l
128.175 127.869 l
126.506 128.407 l
123.043 129.593 l
122.599 129.752 l
122.153 129.914 l
121.254 130.244 l
119.431 130.932 l
115.689 132.427 l
115.213 132.625 l
114.736 132.826 l
113.775 133.234 l
111.837 134.081 l
107.893 135.895 l
99.817 140.006 l
99.263 140.308 l
98.71 140.612 l
97.601 141.229 l
95.381 142.499 l
90.938 145.173 l
90.384 145.519 l
89.83 145.869 l
88.723 146.576 l
86.515 148.022 l
82.138 151.039 l
81.596 151.427 l
81.054 151.818 l
79.975 152.607 l
77.834 154.214 l
73.626 157.537 l
65.603 164.574 l
65.131 165.021 l
64.662 165.47 l
63.731 166.371 l
61.901 168.192 l
58.383 171.897 l
57.958 172.365 l
57.535 172.834 l
56.699 173.776 l
55.068 175.672 l
51.975 179.5 l
51.605 179.981 l
51.238 180.463 l
50.516 181.428 l
49.119 183.363 l
46.517 187.241 l
46.21 187.726 l
45.907 188.211 l
45.315 189.18 l
44.181 191.116 l
42.125 194.967 l
41.903 195.413 l
41.686 195.859 l
41.264 196.749 l
40.466 198.519 l
40.277 198.96 l
40.092 199.399 l
39.734 200.276 l
39.067 202.016 l
38.91 202.449 l
38.758 202.88 l
38.466 203.739 l
38.326 204.167 l
38.19 204.593 l
37.931 205.442 l
37.808 205.864 l
37.689 206.285 l
37.463 207.122 l
37.063 208.779 l
36.974 209.189 l
36.889 209.597 l
36.731 210.409 l
36.658 210.812 l
36.59 211.213 l
36.466 212.01 l
36.411 212.406 l
36.36 212.8 l
36.313 213.192 l
36.27 213.582 l
36.232 213.97 l
36.197 214.356 l
36.168 214.74 l
36.142 215.121 l
36.12 215.501 l
36.103 215.878 l
36.09 216.253 l
36.082 216.626 l
36.077 216.997 l
36.077 217.365 l
36.081 217.731 l
36.089 218.095 l
36.102 218.456 l
36.119 218.815 l
36.14 219.172 l
36.165 219.526 l
36.194 219.877 l
36.228 220.226 l
36.266 220.572 l
36.308 220.916 l
36.358 221.286 l
36.413 221.653 l
36.473 222.017 l
36.538 222.377 l
36.608 222.734 l
36.683 223.088 l
36.847 223.786 l
36.936 224.131 l
37.03 224.471 l
37.233 225.142 l
37.342 225.473 l
37.455 225.799 l
37.696 226.442 l
37.824 226.758 l
37.956 227.07 l
38.234 227.684 l
38.381 227.985 l
38.532 228.283 l
38.848 228.866 l
39.012 229.152 l
39.182 229.434 l
39.534 229.986 l
40.293 231.043 l
40.494 231.297 l
40.699 231.547 l
41.122 232.034 l
41.341 232.271 l
41.563 232.504 l
42.021 232.958 l
42.257 233.178 l
42.496 233.394 l
42.988 233.813 l
44.021 234.597 l
44.289 234.782 l
44.561 234.963 l
45.118 235.31 l
45.402 235.477 l
45.69 235.64 l
46.278 235.95 l
46.577 236.099 l
46.88 236.243 l
47.498 236.516 l
47.812 236.646 l
48.13 236.771 l
48.777 237.007 l
49.084 237.11 l
49.393 237.21 l
50.022 237.396 l
50.341 237.483 l
50.663 237.565 l
51.315 237.718 l
51.645 237.788 l
51.978 237.853 l
52.314 237.915 l
52.653 237.972 l
52.995 238.025 l
53.339 238.073 l
53.686 238.118 l
54.036 238.158 l
54.388 238.193 l
54.743 238.225 l
55.1 238.252 l
55.46 238.274 l
55.823 238.293 l
56.187 238.307 l
56.555 238.317 l
56.925 238.322 l
57.297 238.323 l
57.672 238.32 l
58.048 238.312 l
58.428 238.3 l
58.809 238.284 l
59.193 238.263 l
59.579 238.238 l
59.967 238.209 l
60.357 238.175 l
60.749 238.137 l
61.144 238.094 l
61.54 238.047 l
61.939 237.996 l
62.339 237.941 l
63.146 237.816 l
63.552 237.748 l
63.96 237.675 l
64.781 237.516 l
65.194 237.43 l
65.609 237.339 l
66.445 237.145 l
66.865 237.042 l
67.286 236.934 l
68.134 236.706 l
69.847 236.197 l
70.279 236.059 l
70.712 235.917 l
71.582 235.62 l
73.336 234.975 l
73.768 234.807 l
74.202 234.635 l
75.072 234.278 l
76.823 233.516 l
77.262 233.316 l
77.703 233.112 l
78.586 232.692 l
80.36 231.805 l
80.804 231.573 l
81.25 231.338 l
82.142 230.856 l
83.93 229.847 l
87.518 227.653 l
87.967 227.362 l
88.416 227.068 l
89.314 226.469 l
91.108 225.23 l
94.684 222.591 l
101.735 216.712 l
102.206 216.287 l
102.676 215.858 l
103.613 214.99 l
105.472 213.219 l
109.124 209.536 l
109.574 209.063 l
110.022 208.588 l
110.913 207.629 l
112.676 205.684 l
116.112 201.685 l
116.533 201.176 l
116.952 200.665 l
117.783 199.637 l
119.42 197.561 l
122.587 193.338 l
128.458 184.686 l
128.78 184.176 l
129.1 183.666 l
129.732 182.645 l
130.969 180.601 l
133.329 176.515 l
133.613 176.005 l
133.895 175.495 l
134.451 174.478 l
135.534 172.447 l
137.579 168.419 l
137.824 167.919 l
138.066 167.421 l
138.543 166.426 l
139.466 164.451 l
141.192 160.563 l
144.17 153.109 l
144.349 152.623 l
144.525 152.139 l
144.87 151.178 l
145.526 149.292 l
146.707 145.66 l
146.843 145.221 l
146.976 144.784 l
147.235 143.922 l
147.722 142.238 l
148.578 139.045 l
148.675 138.663 l
148.769 138.285 l
148.95 137.54 l
149.287 136.101 l
149.365 135.751 l
149.442 135.406 l
149.589 134.728 l
149.858 133.424 l
149.92 133.109 l
149.981 132.798 l
150.096 132.191 l
150.305 131.03 l
150.641 128.935 l
150.674 128.71 l
150.706 128.49 l
150.765 128.062 l
150.869 127.259 l
150.892 127.069 l
150.914 126.883 l
150.955 126.525 l
151.024 125.863 l
151.039 125.709 l
151.054 125.559 l
151.079 125.272 l
151.091 125.136 l
151.102 125.004 l
151.122 124.755 l
151.13 124.637 l
151.139 124.523 l
151.153 124.31 l
151.159 124.211 l
151.165 124.116 l
151.174 123.94 l
151.178 123.859 l
151.182 123.783 l
151.185 123.711 l
151.188 123.644 l
151.19 123.582 l
151.192 123.524 l
151.194 123.471 l
151.196 123.423 l
151.197 123.38 l
151.198 123.341 l
151.198 123.307 l
151.199 123.277 l
151.199 123.253 l
151.2 123.233 l
151.2 123.217 l
151.2 123.207 l
151.2 123.201 l
151.2 123.2 l
151.2 123.204 l
151.2 123.212 l
151.2 123.225 l
151.2 123.243 l
151.201 123.265 l
151.201 123.293 l
151.202 123.325 l
151.202 123.361 l
151.204 123.403 l
151.205 123.449 l
151.206 123.499 l
151.208 123.555 l
151.213 123.68 l
151.216 123.748 l
151.22 123.821 l
151.228 123.979 l
151.232 124.065 l
151.238 124.156 l
151.25 124.35 l
151.256 124.454 l
151.264 124.562 l
151.281 124.792 l
151.323 125.304 l
151.336 125.443 l
151.349 125.587 l
151.378 125.887 l
151.447 126.538 l
151.466 126.712 l
151.487 126.889 l
151.531 127.258 l
151.633 128.045 l
151.661 128.252 l
151.69 128.463 l
151.753 128.898 l
151.893 129.817 l
151.932 130.056 l
151.971 130.3 l
152.055 130.799 l
152.24 131.845 l
152.29 132.116 l
152.341 132.391 l
152.449 132.952 l
152.683 134.119 l
153.234 136.626 l
153.317 136.984 l
153.403 137.345 l
153.58 138.08 l
153.963 139.596 l
154.84 142.808 l
154.96 143.226 l
155.084 143.647 l
155.337 144.499 l
155.875 146.243 l
157.076 149.88 l
157.238 150.348 l
157.402 150.818 l
157.74 151.768 l
158.449 153.698 l
160.001 157.673 l
163.655 165.999 l
163.891 166.497 l
164.13 166.996 l
164.614 167.998 l
165.613 170.012 l
167.733 174.078 l
168.009 174.588 l
168.287 175.1 l
168.852 176.123 l
170.011 178.175 l
172.445 182.282 l
172.76 182.795 l
173.077 183.308 l
173.719 184.333 l
175.03 186.378 l
177.761 190.443 l
183.631 198.395 l
184.047 198.922 l
184.465 199.447 l
185.308 200.492 l
187.019 202.559 l
190.537 206.59 l
190.985 207.083 l
191.435 207.574 l
192.341 208.548 l
194.171 210.464 l
197.904 214.158 l
198.377 214.606 l
198.851 215.051 l
199.803 215.931 l
201.72 217.651 l
205.601 220.924 l
206.09 221.316 l
206.579 221.705 l
207.56 222.471 l
209.527 223.957 l
213.479 226.734 l
213.965 227.056 l
214.451 227.374 l
215.423 227.998 l
217.365 229.196 l
217.85 229.485 l
218.335 229.769 l
219.303 230.325 l
221.236 231.383 l
221.717 231.637 l
222.199 231.886 l
223.159 232.371 l
225.071 233.286 l
225.547 233.503 l
226.022 233.715 l
226.969 234.127 l
228.851 234.893 l
229.318 235.073 l
229.785 235.248 l
230.713 235.583 l
231.176 235.744 l
231.637 235.9 l
232.554 236.198 l
233.011 236.339 l
233.466 236.476 l
234.371 236.735 l
236.16 237.194 l
236.603 237.297 l
237.044 237.395 l
237.921 237.576 l
238.356 237.659 l
238.789 237.737 l
239.649 237.879 l
240.076 237.943 l
240.501 238.001 l
240.923 238.055 l
241.343 238.104 l
241.761 238.148 l
242.177 238.187 l
242.59 238.221 l
243 238.25 l
243.381 238.273 l
243.76 238.292 l
244.136 238.306 l
244.511 238.316 l
244.883 238.322 l
245.253 238.323 l
245.62 238.32 l
245.985 238.313 l
246.348 238.302 l
246.708 238.287 l
247.066 238.267 l
247.421 238.243 l
247.774 238.215 l
248.124 238.182 l
248.472 238.146 l
248.817 238.105 l
249.16 238.06 l
249.5 238.01 l
249.837 237.957 l
250.172 237.899 l
250.504 237.838 l
250.833 237.772 l
251.482 237.627 l
251.803 237.549 l
252.121 237.466 l
252.748 237.289 l
253.057 237.194 l
253.363 237.095 l
253.966 236.885 l
254.263 236.773 l
254.557 236.658 l
255.135 236.416 l
255.42 236.288 l
255.701 236.157 l
256.255 235.883 l
256.526 235.739 l
256.795 235.592 l
257.322 235.286 l
258.335 234.628 l
258.58 234.454 l
258.822 234.276 l
259.294 233.908 l
259.525 233.719 l
259.753 233.526 l
260.197 233.128 l
260.414 232.924 l
260.627 232.716 l
261.042 232.29 l
261.828 231.393 l
262.031 231.14 l
262.229 230.883 l
262.613 230.357 l
262.798 230.088 l
262.978 229.815 l
263.325 229.257 l
263.492 228.972 l
263.654 228.683 l
263.965 228.094 l
264.113 227.793 l
264.257 227.489 l
264.53 226.87 l
264.659 226.555 l
264.784 226.236 l
265.019 225.587 l
265.129 225.258 l
265.235 224.925 l
265.432 224.248 l
265.523 223.904 l
265.609 223.558 l
265.691 223.207 l
265.767 222.854 l
265.839 222.497 l
265.906 222.137 l
265.967 221.774 l
266.024 221.408 l
266.076 221.038 l
266.123 220.665 l
266.165 220.29 l
266.203 219.911 l
266.235 219.529 l
266.262 219.145 l
266.284 218.757 l
266.301 218.367 l
266.314 217.974 l
266.321 217.578 l
266.323 217.179 l
266.32 216.777 l
266.313 216.373 l
266.3 215.966 l
266.282 215.557 l
266.259 215.145 l
266.232 214.73 l
266.199 214.313 l
266.161 213.894 l
266.118 213.472 l
266.07 213.048 l
266.017 212.621 l
265.896 211.761 l
265.828 211.328 l
265.755 210.892 l
265.594 210.015 l
265.506 209.573 l
265.413 209.129 l
265.212 208.236 l
265.111 207.816 l
265.006 207.395 l
264.783 206.548 l
264.285 204.835 l
264.15 204.404 l
264.01 203.971 l
263.718 203.101 l
263.083 201.347 l
262.914 200.905 l
262.74 200.463 l
262.381 199.575 l
261.611 197.788 l
259.874 194.176 l
259.639 193.721 l
259.4 193.266 l
258.909 192.355 l
257.881 190.527 l
255.639 186.861 l
255.342 186.402 l
255.041 185.943 l
254.429 185.026 l
253.16 183.192 l
250.455 179.539 l
250.109 179.093 l
249.759 178.648 l
249.05 177.758 l
247.596 175.987 l
244.546 172.48 l
244.152 172.045 l
243.755 171.611 l
242.953 170.747 l
241.318 169.031 l
237.929 165.653 l
237.494 165.237 l
237.058 164.821 l
236.178 163.995 l
234.393 162.36 l
230.729 159.163 l
223.086 153.098 l
222.556 152.704 l
222.024 152.313 l
220.956 151.537 l
218.807 150.014 l
214.467 147.088 l
213.921 146.733 l
213.375 146.382 l
212.281 145.686 l
210.089 144.327 l
205.7 141.74 l
205.152 141.429 l
204.604 141.121 l
203.51 140.513 l
201.326 139.331 l
196.993 137.103 l
188.548 133.201 l
188.068 132.996 l
187.589 132.794 l
186.637 132.397 l
184.755 131.632 l
181.082 130.22 l
180.632 130.054 l
180.185 129.891 l
179.297 129.572 l
177.549 128.962 l
174.174 127.853 l
173.764 127.725 l
173.357 127.598 l
172.551 127.353 l
170.974 126.888 l
167.966 126.059 l
167.605 125.965 l
167.246 125.873 l
166.54 125.694 l
165.167 125.36 l
162.59 124.782 l
162.249 124.71 l
161.912 124.641 l
161.253 124.508 l
159.992 124.267 l
159.689 124.212 l
159.391 124.158 l
158.809 124.057 l
157.706 123.876 l
157.443 123.835 l
157.185 123.796 l
156.684 123.722 l
155.745 123.593 l
155.524 123.564 l
155.307 123.537 l
154.891 123.487 l
154.123 123.402 l
153.945 123.384 l
153.772 123.367 l
153.443 123.336 l
153.286 123.322 l
153.135 123.309 l
152.851 123.285 l
152.716 123.275 l
152.588 123.266 l
152.348 123.249 l
152.236 123.242 l
152.13 123.236 l
151.936 123.225 l
151.847 123.221 l
151.763 123.217 l
151.686 123.214 l
151.614 123.211 l
151.548 123.208 l
151.488 123.206 l
151.433 123.204 l
151.384 123.203 l
151.341 123.202 l
151.304 123.201 l
151.272 123.201 l
151.246 123.2 l
151.226 123.2 l
151.211 123.2 l
151.203 123.2 l
151.2 123.2 l
S
Q
/DeviceGray {} CS
[0] SC
/DeviceGray {} cs
[0] sc
0.16 w
[] 0 d
3.25 M
q
0 J
31.28 123.2 m
271.12 123.2 l
S
Q
q
0 J
151.2 243.12 m
151.2 3.28 l
S
Q
q
31.2 3.2 m
31.2 243.2 l
271.2 243.2 l
271.2 3.2 l
W*
Q
Q
Q
1 w
/DeviceRGB {} CS
[0 0 0] SC
/DeviceRGB {} cs
[0 0 0] sc
[] 0 d
2 J
0 j
10 M
Q
showpage
%%PageTrailer
pdfEndPage
%%Trailer
end
%%DocumentSuppliedResources:
%%EOF
