\relax 
\providecommand\hyper@newdestlabel[2]{}
\@writefile{toc}{\contentsline {chapter}{\numberline {1}Oscillazioni e onde}{5}{chapter.1}}
\@writefile{lof}{\addvspace {10\p@ }}
\@writefile{lot}{\addvspace {10\p@ }}
\@writefile{toc}{\contentsline {section}{\numberline {1.1}La corda vibrante}{5}{section.1.1}}
\@writefile{toc}{\contentsline {subsection}{\numberline {1.1.1}Derivazione dell'equazione}{5}{subsection.1.1.1}}
\newlabel{subsec:Derivazione eq d'onda}{{1.1.1}{5}{Derivazione dell'equazione}{subsection.1.1.1}{}}
\newlabel{eq:Fy}{{1.2}{5}{Derivazione dell'equazione}{equation.1.1.1}{}}
\newlabel{eq:d'Alembert}{{1.3}{6}{Derivazione dell'equazione}{equation.1.1.3}{}}
\@writefile{toc}{\contentsline {subsection}{\numberline {1.1.2}Le soluzioni dell'equazione della corda vibrante}{6}{subsection.1.1.2}}
\newlabel{eq:sol generale}{{1.5}{6}{Cambio di variabile}{equation.1.1.5}{}}
\@writefile{toc}{\contentsline {subsection}{\numberline {1.1.3}Battimenti}{7}{subsection.1.1.3}}
\@writefile{lof}{\contentsline {figure}{\numberline {1.1}{\ignorespaces Esempio di battimenti con $A_{1}=A_{2}=A$\relax }}{8}{figure.caption.5}}
\@writefile{lof}{\contentsline {figure}{\numberline {1.2}{\ignorespaces Esempio di battimenti con $A_{1}\not =A_{2}$\relax }}{8}{figure.caption.6}}
\@writefile{toc}{\contentsline {subsection}{\numberline {1.1.4}Trasformata di Fourier}{8}{subsection.1.1.4}}
\newlabel{trasf-gauss}{{1.1.4}{9}{Trasformata della gaussiana}{section*.7}{}}
\@writefile{lof}{\contentsline {figure}{\numberline {1.3}{\ignorespaces Una gaussiana con la sua trasformata\relax }}{10}{figure.caption.8}}
\newlabel{eq:sol in trasformata}{{1.8}{10}{Oscillatore forzato}{equation.1.1.8}{}}
\newlabel{eq:rel di dispersione}{{1.9}{11}{Applicazione all'equazione d'onda}{equation.1.1.9}{}}
\newlabel{eq:evoluzione temp}{{1.10}{12}{Propagazione di un pacchetto d'onda}{equation.1.1.10}{}}
\@writefile{toc}{\contentsline {subsection}{\numberline {1.1.5}Riflessione e onde stazionarie}{12}{subsection.1.1.5}}
\newlabel{eq:A_rif e A_tr}{{1.12}{13}{Riflessione e onde stazionarie}{equation.1.1.12}{}}
\newlabel{eq:xi(0,t)}{{1.13}{14}{Onde stazionarie}{equation.1.1.13}{}}
\newlabel{eq:xi(L,t)}{{1.14}{14}{Onde stazionarie}{equation.1.1.13}{}}
\newlabel{sub:Conservazione-dell'energia-corda}{{1.1.6}{14}{Conservazione dell'energia}{subsection.1.1.6}{}}
\@writefile{toc}{\contentsline {subsection}{\numberline {1.1.6}Conservazione dell'energia}{14}{subsection.1.1.6}}
\newlabel{eq:conservazione energia}{{1.15}{14}{Conservazione dell'energia}{equation.1.1.15}{}}
\newlabel{sec:Onde-3-dimensionali}{{1.2}{15}{Onde 3-dimensionali}{section.1.2}{}}
\@writefile{toc}{\contentsline {section}{\numberline {1.2}Onde 3-dimensionali}{15}{section.1.2}}
\newlabel{eq:tridi}{{1.16}{15}{Onde 3-dimensionali}{equation.1.2.16}{}}
\newlabel{sec:Onde-dispersive}{{1.3}{16}{Onde dispersive}{section.1.3}{}}
\@writefile{toc}{\contentsline {section}{\numberline {1.3}Onde dispersive}{16}{section.1.3}}
\newlabel{disp-gauss-1}{{1.17}{17}{Onde dispersive}{equation.1.3.17}{}}
\@setckpt{Chap_1}{
\setcounter{page}{19}
\setcounter{equation}{17}
\setcounter{enumi}{0}
\setcounter{enumii}{0}
\setcounter{enumiii}{0}
\setcounter{enumiv}{0}
\setcounter{footnote}{5}
\setcounter{mpfootnote}{0}
\setcounter{part}{0}
\setcounter{chapter}{1}
\setcounter{section}{3}
\setcounter{subsection}{0}
\setcounter{subsubsection}{0}
\setcounter{paragraph}{0}
\setcounter{subparagraph}{0}
\setcounter{figure}{3}
\setcounter{table}{0}
\setcounter{float@type}{4}
\setcounter{parentequation}{0}
\setcounter{vrcnt}{0}
\setcounter{ContinuedFloat}{0}
\setcounter{Item}{0}
\setcounter{Hfootnote}{5}
\setcounter{bookmark@seq@number}{10}
\setcounter{KVtest}{1}
\setcounter{subfigure}{0}
\setcounter{subfigure@save}{0}
\setcounter{lofdepth}{1}
\setcounter{subtable}{0}
\setcounter{subtable@save}{0}
\setcounter{lotdepth}{1}
\setcounter{section@level}{1}
}
