\relax 
\providecommand\hyper@newdestlabel[2]{}
\@writefile{toc}{\contentsline {chapter}{\numberline {3}Formulazione covariante dell'elettromagnetismo}{45}{chapter.3}}
\@writefile{lof}{\addvspace {10\p@ }}
\@writefile{lot}{\addvspace {10\p@ }}
\@writefile{toc}{\contentsline {section}{\numberline {3.1}Richiami di relativit\IeC {\`a}}{45}{section.3.1}}
\@writefile{toc}{\contentsline {subsection}{\numberline {3.1.1}Operatori differenziali}{46}{subsection.3.1.1}}
\newlabel{eq:phi e phi1}{{3.2}{47}{Operatori differenziali}{equation.3.1.2}{}}
\newlabel{eq:quadrigradientre}{{3.3}{47}{Operatori differenziali}{equation.3.1.3}{}}
\@writefile{toc}{\contentsline {section}{\numberline {3.2}Equazioni di Maxwell in forma covariante}{47}{section.3.2}}
\newlabel{eq:maxwellCovariante}{{3.4}{48}{Equazioni di Maxwell in forma covariante}{equation.3.2.4}{}}
\newlabel{eq:gauge Covariante}{{3.5}{48}{Equazioni di Maxwell in forma covariante}{equation.3.2.5}{}}
\newlabel{eq:disomogene-covariante}{{3.6}{48}{Equazioni di Maxwell in forma covariante}{equation.3.2.6}{}}
\newlabel{eq:E-cB}{{3.9}{49}{Equazioni di Maxwell in forma covariante}{equation.3.2.9}{}}
\newlabel{eq:E*B}{{3.10}{49}{Equazioni di Maxwell in forma covariante}{equation.3.2.9}{}}
\@writefile{toc}{\contentsline {section}{\numberline {3.3}Trasformazioni per cambio di sistema di riferimento}{49}{section.3.3}}
\@writefile{toc}{\contentsline {subsection}{\numberline {3.3.1}Trasformazione dei potenziali}{49}{subsection.3.3.1}}
\newlabel{eq:pot come lineard}{{3.11}{50}{Trasformazione dei potenziali}{equation.3.3.11}{}}
\@writefile{toc}{\contentsline {subsection}{\numberline {3.3.2}Trasformazione dei campi}{50}{subsection.3.3.2}}
\@writefile{lof}{\contentsline {figure}{\numberline {3.1}{\ignorespaces Campo elettrico di una carica in moto uniforme per vari valori di $\beta $ \relax }}{51}{figure.caption.25}}
\@writefile{lof}{\contentsline {subfigure}{\numberline{(a)}{\ignorespaces {}}}{51}{subfigure.2.1}}
\@writefile{lof}{\contentsline {subfigure}{\numberline{(b)}{\ignorespaces {}}}{51}{subfigure.2.2}}
\@writefile{lof}{\contentsline {subfigure}{\numberline{(a)}{\ignorespaces {$\beta =0$}}}{51}{subfigure.1.1}}
\@writefile{lof}{\contentsline {subfigure}{\numberline{(b)}{\ignorespaces {$\beta =0.6$}}}{51}{subfigure.1.2}}
\@writefile{lof}{\contentsline {subfigure}{\numberline{(c)}{\ignorespaces {$\beta =0.9$}}}{51}{subfigure.1.3}}
\@writefile{toc}{\contentsline {section}{\numberline {3.4}Dinamica relativistica}{51}{section.3.4}}
\newlabel{eq:Lorentz relativitica}{{3.12}{51}{Dinamica relativistica}{equation.3.4.12}{}}
\newlabel{eq:del moto covariante}{{3.13}{51}{Dinamica relativistica}{equation.3.4.13}{}}
\@setckpt{Chap_3}{
\setcounter{page}{53}
\setcounter{equation}{13}
\setcounter{enumi}{0}
\setcounter{enumii}{0}
\setcounter{enumiii}{0}
\setcounter{enumiv}{0}
\setcounter{footnote}{1}
\setcounter{mpfootnote}{0}
\setcounter{part}{0}
\setcounter{chapter}{3}
\setcounter{section}{4}
\setcounter{subsection}{0}
\setcounter{subsubsection}{0}
\setcounter{paragraph}{0}
\setcounter{subparagraph}{0}
\setcounter{figure}{1}
\setcounter{table}{0}
\setcounter{float@type}{4}
\setcounter{parentequation}{0}
\setcounter{vrcnt}{0}
\setcounter{ContinuedFloat}{0}
\setcounter{Item}{0}
\setcounter{Hfootnote}{13}
\setcounter{bookmark@seq@number}{35}
\setcounter{KVtest}{1}
\setcounter{subfigure}{0}
\setcounter{subfigure@save}{3}
\setcounter{lofdepth}{1}
\setcounter{subtable}{0}
\setcounter{subtable@save}{0}
\setcounter{lotdepth}{1}
\setcounter{section@level}{1}
}
