\relax 
\providecommand\hyper@newdestlabel[2]{}
\@writefile{toc}{\contentsline {chapter}{\numberline {4}Onde EM nei mezzi}{53}{chapter.4}}
\@writefile{lof}{\addvspace {10\p@ }}
\@writefile{lot}{\addvspace {10\p@ }}
\@writefile{toc}{\contentsline {section}{\numberline {4.1}Onde elettromagnetiche nei dielettrici}{53}{section.4.1}}
\@writefile{toc}{\contentsline {subsection}{\numberline {4.1.1}Modello fisico}{53}{subsection.4.1.1}}
\newlabel{1@xvr}{{}{53}{}{Hfootnote.14}{}}
\newlabel{1@vr}{{}{53}{}{Hfootnote.14}{}}
\@writefile{toc}{\contentsline {subsection}{\numberline {4.1.2}Equazioni di Maxwell nei dielettrici}{54}{subsection.4.1.2}}
\newlabel{eq:div_E_mezzi}{{4.4}{54}{Equazioni di Maxwell nei dielettrici}{equation.4.1.4}{}}
\newlabel{eq:rot_B_mezzi}{{4.5}{54}{Equazioni di Maxwell nei dielettrici}{equation.4.1.4}{}}
\newlabel{eq:J_pol}{{4.7}{54}{Equazioni di Maxwell nei dielettrici}{equation.4.1.7}{}}
\newlabel{eq:onde_con_pol}{{4.8}{55}{Equazioni di Maxwell nei dielettrici}{equation.4.1.8}{}}
\newlabel{eq:onde_con_pol_B}{{4.9}{55}{Equazioni di Maxwell nei dielettrici}{equation.4.1.9}{}}
\@writefile{toc}{\contentsline {section}{\numberline {4.2}Onde nei conduttori}{56}{section.4.2}}
\@writefile{toc}{\contentsline {subsection}{\numberline {4.2.1}Energia trasportata da un'onda evanescente}{58}{subsection.4.2.1}}
\@writefile{toc}{\contentsline {section}{\numberline {4.3}Onde in mezzi disomogenei}{58}{section.4.3}}
\@writefile{lof}{\contentsline {figure}{\numberline {4.1}{\ignorespaces Approssimazione impulsiva\relax }}{59}{figure.caption.27}}
\newlabel{fig:Approssimazione-impulsiva}{{4.1}{59}{Approssimazione impulsiva\relax }{figure.caption.27}{}}
\@writefile{toc}{\contentsline {subsection}{\numberline {4.3.1}Riflessione e rifrazione}{59}{subsection.4.3.1}}
\@writefile{toc}{\contentsline {subsubsection}{\numberline {4.3.1.1}Condizioni di raccordo dei campi}{59}{subsubsection.4.3.1.1}}
\newlabel{eq:E tan}{{4.12}{59}{Condizioni di raccordo dei campi}{equation.4.3.12}{}}
\newlabel{eq:B continuo}{{4.13}{59}{Condizioni di raccordo dei campi}{equation.4.3.13}{}}
\@writefile{toc}{\contentsline {subsubsection}{\numberline {4.3.1.2}Le leggi della riflessione e della rifrazione}{60}{subsubsection.4.3.1.2}}
\@writefile{lof}{\contentsline {figure}{\numberline {4.2}{\ignorespaces Riflessione e rifrazione\relax }}{60}{figure.caption.28}}
\newlabel{fig:Riflessione-e-rifrazione}{{4.2}{60}{Riflessione e rifrazione\relax }{figure.caption.28}{}}
\@writefile{toc}{\contentsline {subsubsection}{\numberline {4.3.1.3}Formule di Fresnel}{62}{subsubsection.4.3.1.3}}
\newlabel{eq:Fresnel P}{{4.15}{62}{Formule di Fresnel}{equation.4.3.15}{}}
\@writefile{toc}{\contentsline {subsubsection}{\numberline {4.3.1.4}Angolo di Brewster}{62}{subsubsection.4.3.1.4}}
\@writefile{toc}{\contentsline {subsection}{\numberline {4.3.2}Cenno all'ottica geometrica}{63}{subsection.4.3.2}}
\newlabel{eq:onda piana geometrica}{{4.16}{63}{Cenno all'ottica geometrica}{equation.4.3.16}{}}
\newlabel{eq:eq_raggi}{{4.17}{65}{Miraggi}{equation.4.3.17}{}}
\@writefile{toc}{\contentsline {section}{\numberline {4.4}Diffrazione}{65}{section.4.4}}
\newlabel{eq:gaussiana in x}{{4.18}{65}{Diffrazione}{equation.4.4.18}{}}
\newlabel{eq:evoluto-temporale}{{4.20}{66}{Diffrazione}{equation.4.4.20}{}}
\@writefile{lof}{\contentsline {figure}{\numberline {4.3}{\ignorespaces Rappresentazione schematica del problema della diffrazione\relax }}{67}{figure.caption.33}}
\newlabel{fig:Allargamento-del-pacchetto}{{4.3}{67}{Rappresentazione schematica del problema della diffrazione\relax }{figure.caption.33}{}}
\@writefile{toc}{\contentsline {section}{\numberline {4.5}Introduzione all'interferenza}{67}{section.4.5}}
\@writefile{lof}{\contentsline {figure}{\numberline {4.4}{\ignorespaces Doppia fenditura\relax }}{67}{figure.caption.34}}
\newlabel{fig:Doppia-fenditura}{{4.4}{67}{Doppia fenditura\relax }{figure.caption.34}{}}
\@setckpt{Chap_4}{
\setcounter{page}{69}
\setcounter{equation}{21}
\setcounter{enumi}{0}
\setcounter{enumii}{0}
\setcounter{enumiii}{0}
\setcounter{enumiv}{0}
\setcounter{footnote}{8}
\setcounter{mpfootnote}{0}
\setcounter{part}{0}
\setcounter{chapter}{4}
\setcounter{section}{5}
\setcounter{subsection}{0}
\setcounter{subsubsection}{0}
\setcounter{paragraph}{0}
\setcounter{subparagraph}{0}
\setcounter{figure}{4}
\setcounter{table}{0}
\setcounter{float@type}{4}
\setcounter{parentequation}{0}
\setcounter{vrcnt}{1}
\setcounter{ContinuedFloat}{0}
\setcounter{Item}{0}
\setcounter{Hfootnote}{21}
\setcounter{bookmark@seq@number}{50}
\setcounter{KVtest}{1}
\setcounter{subfigure}{0}
\setcounter{subfigure@save}{2}
\setcounter{lofdepth}{1}
\setcounter{subtable}{0}
\setcounter{subtable@save}{0}
\setcounter{lotdepth}{1}
\setcounter{section@level}{1}
}
