\relax 
\providecommand\hyper@newdestlabel[2]{}
\@writefile{toc}{\contentsline {chapter}{\numberline {2}Elettromagnetismo nel vuoto}{19}{chapter.2}}
\@writefile{lof}{\addvspace {10\p@ }}
\@writefile{lot}{\addvspace {10\p@ }}
\newlabel{sec:Potenziali-elettromagnetici}{{2.1}{19}{Potenziali elettromagnetici}{section.2.1}{}}
\@writefile{toc}{\contentsline {section}{\numberline {2.1}Potenziali elettromagnetici}{19}{section.2.1}}
\newlabel{eq:pot_vet}{{2.1}{19}{Potenziali elettromagnetici}{equation.2.1.1}{}}
\newlabel{eq:pot_scal}{{2.2}{19}{Potenziali elettromagnetici}{equation.2.1.2}{}}
\@writefile{toc}{\contentsline {subsection}{\numberline {2.1.1}Gauge di Lorenz}{20}{subsection.2.1.1}}
\newlabel{eq:gauge}{{2.3}{20}{Gauge di Lorenz}{equation.2.1.3}{}}
\newlabel{eq:scalare}{{2.4}{20}{Gauge di Lorenz}{equation.2.1.4}{}}
\newlabel{eq:vettore}{{2.5}{20}{Gauge di Lorenz}{equation.2.1.4}{}}
\newlabel{eq:legittimo}{{2.6}{21}{Gauge di Lorenz}{equation.2.1.6}{}}
\@writefile{toc}{\contentsline {section}{\numberline {2.2}Equazioni per i campi}{21}{section.2.2}}
\newlabel{eq per E vuoto}{{2.7}{21}{Equazioni per i campi}{equation.2.2.7}{}}
\newlabel{eq per B vuoto}{{2.8}{21}{Equazioni per i campi}{equation.2.2.7}{}}
\newlabel{eq:soluzione campo E}{{2.9}{22}{Equazioni per i campi}{equation.2.2.9}{}}
\newlabel{sec:Potenziali-ritardati}{{2.3}{23}{Soluzioni delle equazioni di Maxwell}{section.2.3}{}}
\@writefile{toc}{\contentsline {section}{\numberline {2.3}Soluzioni delle equazioni di Maxwell}{23}{section.2.3}}
\newlabel{eq:onda_forzata}{{2.10}{23}{Soluzioni delle equazioni di Maxwell}{equation.2.3.10}{}}
\newlabel{eq:Poisson}{{2.11}{24}{Digressione in elettrostatica}{equation.2.3.11}{}}
\@writefile{toc}{\contentsline {subsection}{\numberline {2.3.1}Potenziali ritardati}{25}{subsection.2.3.1}}
\newlabel{eq:eq onde sorgente puntiforme}{{2.13}{25}{Potenziali ritardati}{equation.2.3.13}{}}
\newlabel{eq:condizione sulla sorgente}{{2.14}{25}{Potenziali ritardati}{equation.2.3.14}{}}
\newlabel{eq:lim per r che tende a 0 di psi}{{2.15}{26}{Potenziali ritardati}{equation.2.3.15}{}}
\newlabel{eq:potenziale scalare}{{2.19}{26}{Potenziali ritardati}{equation.2.3.18}{}}
\newlabel{sec:Sviluppo-in-multipoli}{{2.4}{26}{Sviluppo in multipoli}{section.2.4}{}}
\@writefile{toc}{\contentsline {section}{\numberline {2.4}Sviluppo in multipoli }{26}{section.2.4}}
\@writefile{lof}{\contentsline {figure}{\numberline {2.1}{\ignorespaces Sviluppo in multipoli\relax }}{26}{figure.caption.17}}
\providecommand*\caption@xref[2]{\@setref\relax\@undefined{#1}}
\newlabel{fig:multipol}{{2.1}{26}{Sviluppo in multipoli\relax }{figure.caption.17}{}}
\newlabel{eq:multiopoli}{{2.22}{27}{Sviluppo in multipoli}{equation.2.4.22}{}}
\@writefile{toc}{\contentsline {subsection}{\numberline {2.4.1}Dipolo elettrico}{27}{subsection.2.4.1}}
\newlabel{eq:pot_vet_dipolo_con_j}{{2.23}{27}{Dipolo elettrico}{equation.2.4.23}{}}
\newlabel{sub:Quadrupolo-elettrico-e}{{2.4.2}{29}{Quadrupolo elettrico e dipolo magnetico}{subsection.2.4.2}{}}
\@writefile{toc}{\contentsline {subsection}{\numberline {2.4.2}Quadrupolo elettrico e dipolo magnetico }{29}{subsection.2.4.2}}
\newlabel{eq:quadrupolo_con_J}{{2.27}{29}{Quadrupolo elettrico e dipolo magnetico}{equation.2.4.27}{}}
\newlabel{eq:quadru_con_J_indici}{{2.28}{29}{Quadrupolo elettrico e dipolo magnetico}{equation.2.4.28}{}}
\newlabel{eq:sim_asim}{{2.29}{30}{Quadrupolo elettrico e dipolo magnetico}{equation.2.4.29}{}}
\newlabel{sec:Teorema-di-Poynting}{{2.5}{31}{Teorema di Poynting}{section.2.5}{}}
\@writefile{toc}{\contentsline {section}{\numberline {2.5}Teorema di Poynting}{31}{section.2.5}}
\newlabel{somma_poynting}{{2.5}{33}{Teorema di Poynting}{subfigure.2.2.2}{}}
\@writefile{toc}{\contentsline {section}{\numberline {2.6}Irraggiamento}{34}{section.2.6}}
\newlabel{sec:irraggiamento}{{2.6}{34}{Irraggiamento}{section.2.6}{}}
\@writefile{toc}{\contentsline {subsection}{\numberline {2.6.1}Irraggiamento di dipolo}{34}{subsection.2.6.1}}
\newlabel{VettorePoyntingDipolo}{{2.33}{34}{Irraggiamento di dipolo}{equation.2.6.33}{}}
\newlabel{eq:dp/dOmega}{{2.34}{34}{Irraggiamento di dipolo}{equation.2.6.34}{}}
\newlabel{eq:distrAngolarePotenza}{{2.36}{35}{Irraggiamento di dipolo}{equation.2.6.36}{}}
\@writefile{toc}{\contentsline {subsection}{\numberline {2.6.2}Irraggiamento di dipolo magnetico e quadrupolo}{35}{subsection.2.6.2}}
\@writefile{lof}{\contentsline {figure}{\numberline {2.2}{\ignorespaces Potenza irraggiata dal quadrupolo \relax }}{35}{figure.caption.21}}
\newlabel{fig:Potenza-irraggiata-quadrupolo}{{2.2}{35}{Potenza irraggiata dal quadrupolo \relax }{figure.caption.21}{}}
\@writefile{toc}{\contentsline {section}{\numberline {2.7}Diffusione}{36}{section.2.7}}
\newlabel{eq:del moto elettrone}{{2.37}{36}{Diffusione}{equation.2.7.37}{}}
\newlabel{eq:sezione d'urto}{{2.38}{37}{Diffusione}{equation.2.7.38}{}}
\@writefile{toc}{\contentsline {subsection}{\numberline {2.7.1}Perch\IeC {\'e} il cielo \IeC {\`e} azzurro}{37}{subsection.2.7.1}}
\@writefile{toc}{\contentsline {section}{\numberline {2.8}Densit\IeC {\`a} di impulso del campo elettromagnetico}{39}{section.2.8}}
\newlabel{eq:contImpulso}{{2.39}{39}{Densità di impulso del campo elettromagnetico}{equation.2.8.39}{}}
\newlabel{eq:[....]}{{2.40}{39}{Densità di impulso del campo elettromagnetico}{equation.2.8.40}{}}
\newlabel{eq:maxwellStress}{{2.42}{40}{Densità di impulso del campo elettromagnetico}{equation.2.8.42}{}}
\newlabel{sec:Potenziali-di-Lienard-Wiechert}{{2.9}{41}{Potenziali di Liénard-Wiechert}{section.2.9}{}}
\@writefile{toc}{\contentsline {section}{\numberline {2.9}Potenziali di Li\IeC {\'e}nard-Wiechert}{41}{section.2.9}}
\newlabel{eq:carica lineard-wiechert}{{2.43}{41}{Potenziali di Liénard-Wiechert}{equation.2.9.43}{}}
\newlabel{eq:lienard delta integrale}{{2.44}{41}{Potenziali di Liénard-Wiechert}{equation.2.9.44}{}}
\newlabel{eq:per r' ciao}{{2.45}{42}{Potenziali di Liénard-Wiechert}{equation.2.9.45}{}}
\newlabel{eq:pot di lineard}{{2.46}{42}{Potenziali di Liénard-Wiechert}{equation.2.9.46}{}}
\@setckpt{Chap_2}{
\setcounter{page}{44}
\setcounter{equation}{46}
\setcounter{enumi}{0}
\setcounter{enumii}{0}
\setcounter{enumiii}{0}
\setcounter{enumiv}{0}
\setcounter{footnote}{7}
\setcounter{mpfootnote}{0}
\setcounter{part}{0}
\setcounter{chapter}{2}
\setcounter{section}{9}
\setcounter{subsection}{0}
\setcounter{subsubsection}{0}
\setcounter{paragraph}{0}
\setcounter{subparagraph}{0}
\setcounter{figure}{2}
\setcounter{table}{0}
\setcounter{float@type}{4}
\setcounter{parentequation}{0}
\setcounter{vrcnt}{0}
\setcounter{ContinuedFloat}{0}
\setcounter{Item}{0}
\setcounter{Hfootnote}{12}
\setcounter{bookmark@seq@number}{27}
\setcounter{KVtest}{1}
\setcounter{subfigure}{0}
\setcounter{subfigure@save}{2}
\setcounter{lofdepth}{1}
\setcounter{subtable}{0}
\setcounter{subtable@save}{0}
\setcounter{lotdepth}{1}
\setcounter{section@level}{1}
}
